EESchema Schematic File Version 4
EELAYER 30 0
EELAYER END
$Descr A4 11693 8268
encoding utf-8
Sheet 1 1
Title "rayStack nRF52832 QFN48"
Date ""
Rev "0.2"
Comp "Raytrails, Pvt."
Comment1 "Copyright (c) 2020. All rights reserved."
Comment2 "License: BSD"
Comment3 ""
Comment4 ""
$EndDescr
Text Notes 3050 1400 2    50   Italic 0
optional
Wire Wire Line
	7100 1600 7400 1600
$Comp
L power:VDD #PWR0111
U 1 1 5D294175
P 7100 1600
F 0 "#PWR0111" H 7100 1450 50  0001 C CNN
F 1 "VDD" H 7117 1773 50  0000 C CNN
F 2 "" H 7100 1600 50  0001 C CNN
F 3 "" H 7100 1600 50  0001 C CNN
	1    7100 1600
	1    0    0    -1  
$EndComp
$Comp
L power:GND #PWR0112
U 1 1 5D2936EC
P 7400 1900
F 0 "#PWR0112" H 7400 1650 50  0001 C CNN
F 1 "GND" H 7405 1727 50  0000 C CNN
F 2 "" H 7400 1900 50  0001 C CNN
F 3 "" H 7400 1900 50  0001 C CNN
	1    7400 1900
	1    0    0    -1  
$EndComp
$Comp
L Device:C C8
U 1 1 5D292A82
P 7400 1750
F 0 "C8" H 7515 1796 50  0000 L CNN
F 1 "100nF" H 7515 1705 50  0000 L CNN
F 2 "Capacitor_SMD:C_0402_1005Metric" H 7438 1600 50  0001 C CNN
F 3 "~" H 7400 1750 50  0001 C CNN
F 4 "Capacitor, X7R, ±10%" H 7400 1750 50  0001 C CNN "Description"
F 5 "CC0402KPX7R7BB104" H 7400 1750 50  0001 C CNN "MPN"
	1    7400 1750
	1    0    0    -1  
$EndComp
Wire Wire Line
	5550 1650 5550 2200
$Comp
L power:GND #PWR018
U 1 1 5D0E9EC1
P 4400 4750
F 0 "#PWR018" H 4400 4500 50  0001 C CNN
F 1 "GND" H 4405 4577 50  0000 C CNN
F 2 "" H 4400 4750 50  0001 C CNN
F 3 "" H 4400 4750 50  0001 C CNN
	1    4400 4750
	1    0    0    -1  
$EndComp
NoConn ~ 6150 2200
NoConn ~ 6900 3450
Wire Wire Line
	6900 3050 8550 3050
Wire Wire Line
	7800 1600 8300 1600
Connection ~ 9050 1850
Wire Wire Line
	9050 1850 9050 2200
Wire Wire Line
	8300 2000 8300 2200
Wire Wire Line
	9050 1600 9050 1850
Wire Wire Line
	8500 1850 9050 1850
Wire Wire Line
	8300 1600 8300 1700
Wire Notes Line
	1600 1250 3150 1250
Wire Notes Line
	1600 2350 3150 2350
Wire Notes Line
	3150 1250 3150 2350
Wire Notes Line
	1600 2350 1600 1250
Connection ~ 2300 1600
Wire Wire Line
	3050 1600 2300 1600
Wire Wire Line
	3050 2850 3050 1600
Wire Wire Line
	4700 2850 3050 2850
Connection ~ 2300 2100
Wire Wire Line
	2950 2950 4700 2950
Wire Wire Line
	2950 2100 2950 2950
Wire Wire Line
	2300 2100 2950 2100
Connection ~ 1700 2100
$Comp
L power:GND #PWR0113
U 1 1 5D2A65C6
P 1700 2100
F 0 "#PWR0113" H 1700 1850 50  0001 C CNN
F 1 "GND" H 1705 1927 50  0000 C CNN
F 2 "" H 1700 2100 50  0001 C CNN
F 3 "" H 1700 2100 50  0001 C CNN
	1    1700 2100
	1    0    0    -1  
$EndComp
Wire Wire Line
	1700 2100 1850 2100
Wire Wire Line
	1700 1600 1700 2100
Wire Wire Line
	1850 1600 1700 1600
Wire Wire Line
	2300 2100 2150 2100
Wire Wire Line
	2300 2000 2300 2100
Wire Wire Line
	2300 1600 2300 1700
Wire Wire Line
	2150 1600 2300 1600
$Comp
L Device:C C12
U 1 1 5D297328
P 2000 2100
F 0 "C12" V 1748 2100 50  0000 C CNN
F 1 "12pF" V 1839 2100 50  0000 C CNN
F 2 "Capacitor_SMD:C_0402_1005Metric" H 2038 1950 50  0001 C CNN
F 3 "~" H 2000 2100 50  0001 C CNN
F 4 "Capacitor, NP0, ±2%" H 2000 2100 50  0001 C CNN "Description"
F 5 "CC0402GRNPO9BN120" H 2000 2100 50  0001 C CNN "MPN"
	1    2000 2100
	0    1    1    0   
$EndComp
$Comp
L Device:C C11
U 1 1 5D296235
P 2000 1600
F 0 "C11" V 1748 1600 50  0000 C CNN
F 1 "12pF" V 1839 1600 50  0000 C CNN
F 2 "Capacitor_SMD:C_0402_1005Metric" H 2038 1450 50  0001 C CNN
F 3 "~" H 2000 1600 50  0001 C CNN
F 4 "Capacitor, NP0, ±2%" H 2000 1600 50  0001 C CNN "Description"
F 5 "CC0402GRNPO9BN120" H 2000 1600 50  0001 C CNN "MPN"
	1    2000 1600
	0    1    1    0   
$EndComp
$Comp
L Device:Crystal Y2
U 1 1 5D295513
P 2300 1850
F 0 "Y2" V 2254 1981 50  0000 L CNN
F 1 "32.768kHz" V 2345 1981 50  0000 L CNN
F 2 "Crystal:Crystal_SMD_2012-2Pin_2.0x1.2mm" H 2300 1850 50  0001 C CNN
F 3 "~" H 2300 1850 50  0001 C CNN
F 4 "XTAL SMD 2012, 32.768 kHz, CI=9 pF, ±50 ppm" H 2300 1850 50  0001 C CNN "Description"
F 5 "ECS-.327-9-12R-TR" H 2300 1850 50  0001 C CNN "MPN"
	1    2300 1850
	0    1    1    0   
$EndComp
Wire Wire Line
	5250 2200 5250 1500
Wire Wire Line
	4600 1700 4600 2750
Wire Wire Line
	5450 1350 5450 2200
Wire Wire Line
	4600 1700 4050 1700
Wire Wire Line
	4700 2750 4600 2750
Wire Wire Line
	6900 3350 8300 3350
Wire Wire Line
	8050 3250 8050 4050
Wire Wire Line
	6900 3250 8050 3250
$Comp
L power:VDD #PWR0114
U 1 1 5D0ECBD8
P 3550 1500
F 0 "#PWR0114" H 3550 1350 50  0001 C CNN
F 1 "VDD" H 3567 1673 50  0000 C CNN
F 2 "" H 3550 1500 50  0001 C CNN
F 3 "" H 3550 1500 50  0001 C CNN
	1    3550 1500
	1    0    0    -1  
$EndComp
$Comp
L power:VDD #PWR017
U 1 1 5D0EA9A6
P 4400 4450
F 0 "#PWR017" H 4400 4300 50  0001 C CNN
F 1 "VDD" H 4417 4623 50  0000 C CNN
F 2 "" H 4400 4450 50  0001 C CNN
F 3 "" H 4400 4450 50  0001 C CNN
	1    4400 4450
	1    0    0    -1  
$EndComp
$Comp
L Device:C C5
U 1 1 5D0E90AC
P 4400 4600
F 0 "C5" H 4515 4646 50  0000 L CNN
F 1 "100nF" H 4515 4555 50  0000 L CNN
F 2 "Capacitor_SMD:C_0402_1005Metric" H 4438 4450 50  0001 C CNN
F 3 "~" H 4400 4600 50  0001 C CNN
F 4 "Capacitor, X7R, ±10%" H 4400 4600 50  0001 C CNN "Description"
F 5 "CC0402KPX7R7BB104" H 4400 4600 50  0001 C CNN "MPN"
	1    4400 4600
	1    0    0    -1  
$EndComp
Connection ~ 8300 4050
Wire Wire Line
	8300 4050 8050 4050
Connection ~ 8300 3750
Wire Wire Line
	8300 3350 8300 3750
$Comp
L power:GND #PWR016
U 1 1 5D0E5125
P 8300 4050
F 0 "#PWR016" H 8300 3800 50  0001 C CNN
F 1 "GND" H 8305 3877 50  0000 C CNN
F 2 "" H 8300 4050 50  0001 C CNN
F 3 "" H 8300 4050 50  0001 C CNN
	1    8300 4050
	1    0    0    -1  
$EndComp
$Comp
L Device:C C3
U 1 1 5D0E2D7D
P 8300 3900
F 0 "C3" H 8415 3946 50  0000 L CNN
F 1 "0.8pF" H 8415 3855 50  0000 L CNN
F 2 "Capacitor_SMD:C_0402_1005Metric" H 8338 3750 50  0001 C CNN
F 3 "~" H 8300 3900 50  0001 C CNN
F 4 "Capacitor, NP0, ±5%, High-Q" H 8300 3900 50  0001 C CNN "Description"
F 5 "201R07S0R8AV4T" H 8300 3900 50  0001 C CNN "MPN"
	1    8300 3900
	1    0    0    -1  
$EndComp
$Comp
L Device:L L1
U 1 1 5D0DD713
P 8450 3750
F 0 "L1" V 8640 3750 50  0000 C CNN
F 1 "3.9nH" V 8549 3750 50  0000 C CNN
F 2 "Inductor_SMD:L_0402_1005Metric" H 8450 3750 50  0001 C CNN
F 3 "~" H 8450 3750 50  0001 C CNN
F 4 "RF chip inductor ±5%" H 8450 3750 50  0001 C CNN "Description"
F 5 "MHQ1005P3N9BT000" H 8450 3750 50  0001 C CNN "MPN"
	1    8450 3750
	0    -1   -1   0   
$EndComp
Wire Wire Line
	8550 2700 8550 3050
Wire Wire Line
	8650 2700 8550 2700
Wire Wire Line
	9050 2700 9050 3150
Wire Wire Line
	8950 2700 9050 2700
$Comp
L Device:C C7
U 1 1 5D0D3035
P 8800 2700
F 0 "C7" V 8548 2700 50  0000 C CNN
F 1 "100pF" V 8639 2700 50  0000 C CNN
F 2 "Capacitor_SMD:C_0402_1005Metric" H 8838 2550 50  0001 C CNN
F 3 "~" H 8800 2700 50  0001 C CNN
F 4 "Capacitor, NP0, ±5%" H 8800 2700 50  0001 C CNN "Description"
F 5 "CC0402GRNPO9BN101" H 8800 2700 50  0001 C CNN "MPN"
	1    8800 2700
	0    1    1    0   
$EndComp
$Comp
L Device:C C6
U 1 1 5D0CEAEB
P 8800 3150
F 0 "C6" V 8548 3150 50  0000 C CNN
F 1 "N.C." V 8639 3150 50  0000 C CNN
F 2 "Capacitor_SMD:C_0402_1005Metric" H 8838 3000 50  0001 C CNN
F 3 "~" H 8800 3150 50  0001 C CNN
F 4 "Capacitor, NP0, ±5%, NON MOUNTABLE" H 8800 3150 50  0001 C CNN "Description"
F 5 "~" H 8800 3150 50  0001 C CNN "MPN"
	1    8800 3150
	0    1    1    0   
$EndComp
Wire Wire Line
	8300 2200 8300 2950
Wire Wire Line
	7800 2850 7800 1600
Wire Wire Line
	6900 2850 7800 2850
Connection ~ 9050 3150
Wire Wire Line
	8950 3150 9050 3150
$Comp
L power:GND #PWR012
U 1 1 5D0D445D
P 9050 3150
F 0 "#PWR012" H 9050 2900 50  0001 C CNN
F 1 "GND" H 9055 2977 50  0000 C CNN
F 2 "" H 9050 3150 50  0001 C CNN
F 3 "" H 9050 3150 50  0001 C CNN
	1    9050 3150
	1    0    0    -1  
$EndComp
Wire Wire Line
	6900 3150 8650 3150
Connection ~ 8300 1600
Connection ~ 8300 2200
Wire Wire Line
	6900 2950 8300 2950
Wire Wire Line
	8650 2200 8300 2200
Wire Wire Line
	8650 1600 8300 1600
Connection ~ 9050 2200
Wire Wire Line
	8950 2200 9050 2200
Wire Wire Line
	8950 1600 9050 1600
$Comp
L power:GND #PWR0115
U 1 1 5D0C6EAC
P 9050 2200
F 0 "#PWR0115" H 9050 1950 50  0001 C CNN
F 1 "GND" H 9055 2027 50  0000 C CNN
F 2 "" H 9050 2200 50  0001 C CNN
F 3 "" H 9050 2200 50  0001 C CNN
	1    9050 2200
	1    0    0    -1  
$EndComp
$Comp
L Device:C C1
U 1 1 5D0C5EF6
P 8800 2200
F 0 "C1" V 8548 2200 50  0000 C CNN
F 1 "12pF" V 8639 2200 50  0000 C CNN
F 2 "Capacitor_SMD:C_0402_1005Metric" H 8838 2050 50  0001 C CNN
F 3 "~" H 8800 2200 50  0001 C CNN
F 4 "Capacitor, NP0, ±2%" H 8800 2200 50  0001 C CNN "Description"
F 5 "CC0402GRNPO9BN120" H 8800 2200 50  0001 C CNN "MPN"
	1    8800 2200
	0    1    1    0   
$EndComp
$Comp
L Device:C C2
U 1 1 5D0C4588
P 8800 1600
F 0 "C2" V 8548 1600 50  0000 C CNN
F 1 "12pF" V 8639 1600 50  0000 C CNN
F 2 "Capacitor_SMD:C_0402_1005Metric" H 8838 1450 50  0001 C CNN
F 3 "~" H 8800 1600 50  0001 C CNN
F 4 "Capacitor, NP0, ±2%" H 8800 1600 50  0001 C CNN "Description"
F 5 "CC0402GRNPO9BN120" H 8800 1600 50  0001 C CNN "MPN"
	1    8800 1600
	0    1    1    0   
$EndComp
$Comp
L Device:Crystal_GND24 Y1
U 1 1 5D0C2FA6
P 8300 1850
F 0 "Y1" V 8450 2100 50  0000 L CNN
F 1 "32MHz" V 8350 2050 50  0000 L CNN
F 2 "Crystal:Crystal_SMD_2016-4Pin_2.0x1.6mm" H 8300 1850 50  0001 C CNN
F 3 "~" H 8300 1850 50  0001 C CNN
F 4 "XTAL SMD 2016, 32 MHz, Cl=8 pF, total tol. ±40 ppm" H 8300 1850 50  0001 C CNN "Description"
F 5 "ECS-320-8-37B-CKY-TR" H 8300 1850 50  0001 C CNN "MPN"
	1    8300 1850
	0    -1   -1   0   
$EndComp
$Comp
L Device:C C4
U 1 1 5D0B9FBB
P 4050 1850
F 0 "C4" H 4165 1896 50  0000 L CNN
F 1 "100nF" H 4165 1805 50  0000 L CNN
F 2 "Capacitor_SMD:C_0402_1005Metric" H 4088 1700 50  0001 C CNN
F 3 "~" H 4050 1850 50  0001 C CNN
F 4 "Capacitor, X7R, ±10%" H 4050 1850 50  0001 C CNN "Description"
F 5 "CC0402KPX7R7BB104" H 4050 1850 50  0001 C CNN "MPN"
	1    4050 1850
	1    0    0    -1  
$EndComp
$Comp
L power:GND #PWR0116
U 1 1 5D0B98E4
P 4050 2000
F 0 "#PWR0116" H 4050 1750 50  0001 C CNN
F 1 "GND" H 4055 1827 50  0000 C CNN
F 2 "" H 4050 2000 50  0001 C CNN
F 3 "" H 4050 2000 50  0001 C CNN
	1    4050 2000
	1    0    0    -1  
$EndComp
$Comp
L power:GND #PWR0117
U 1 1 5D0B9147
P 3550 2000
F 0 "#PWR0117" H 3550 1750 50  0001 C CNN
F 1 "GND" H 3555 1827 50  0000 C CNN
F 2 "" H 3550 2000 50  0001 C CNN
F 3 "" H 3550 2000 50  0001 C CNN
	1    3550 2000
	1    0    0    -1  
$EndComp
Connection ~ 5950 1650
$Comp
L power:GND #PWR0118
U 1 1 5D0B6A06
P 5950 1650
F 0 "#PWR0118" H 5950 1400 50  0001 C CNN
F 1 "GND" H 5955 1477 50  0000 C CNN
F 2 "" H 5950 1650 50  0001 C CNN
F 3 "" H 5950 1650 50  0001 C CNN
	1    5950 1650
	1    0    0    -1  
$EndComp
$Comp
L Device:C C10
U 1 1 5D0B1F19
P 5950 1500
F 0 "C10" H 6065 1546 50  0000 L CNN
F 1 "1.0uF" H 6065 1455 50  0000 L CNN
F 2 "Capacitor_SMD:C_0402_1005Metric" H 5988 1350 50  0001 C CNN
F 3 "~" H 5950 1500 50  0001 C CNN
F 4 "Capacitor, X5R, ±5%" H 5950 1500 50  0001 C CNN "Description"
F 5 "CC0402KRX5R6BB105" H 5950 1500 50  0001 C CNN "MPN"
	1    5950 1500
	1    0    0    -1  
$EndComp
$Comp
L Device:C C9
U 1 1 5D0B0658
P 3550 1850
F 0 "C9" H 3665 1896 50  0000 L CNN
F 1 "4.7uF" H 3665 1805 50  0000 L CNN
F 2 "Capacitor_SMD:C_0603_1608Metric" H 3588 1700 50  0001 C CNN
F 3 "~" H 3550 1850 50  0001 C CNN
F 4 "Capacitor, X5R, ±10%" H 3550 1850 50  0001 C CNN "Description"
F 5 "CC0603KRX5R6BB475" H 3550 1850 50  0001 C CNN "MPN"
	1    3550 1850
	1    0    0    -1  
$EndComp
$Comp
L Device:L L3
U 1 1 5D382232
P 5800 1200
F 0 "L3" V 5990 1200 50  0000 C CNN
F 1 "15nH" V 5899 1200 50  0000 C CNN
F 2 "Inductor_SMD:L_0402_1005Metric" H 5800 1200 50  0001 C CNN
F 3 "~" H 5800 1200 50  0001 C CNN
F 4 "High frequency chip inductor ±10%" H 5800 1200 50  0001 C CNN "Description"
F 5 "MHQ1005P15NJT000" H 5800 1200 50  0001 C CNN "MPN"
	1    5800 1200
	0    1    -1   0   
$EndComp
$Comp
L Device:L L2
U 1 1 5D3818B4
P 5500 1200
F 0 "L2" V 5690 1200 50  0000 C CNN
F 1 "10uH" V 5599 1200 50  0000 C CNN
F 2 "Inductor_SMD:L_0603_1608Metric" H 5500 1200 50  0001 C CNN
F 3 "~" H 5500 1200 50  0001 C CNN
F 4 "Chip inductor, IDC,min = 50 mA, ±20%" H 5500 1200 50  0001 C CNN "Description"
F 5 "MLZ1608E100MT" H 5500 1200 50  0001 C CNN "MPN"
	1    5500 1200
	0    1    -1   0   
$EndComp
Wire Wire Line
	5350 1200 5350 2200
Wire Wire Line
	5950 1200 5950 1350
Connection ~ 5950 1350
Wire Wire Line
	5450 1350 5950 1350
Wire Wire Line
	5550 1650 5950 1650
$Comp
L power:GND #PWR030
U 1 1 5D2DCADC
P 6750 1650
F 0 "#PWR030" H 6750 1400 50  0001 C CNN
F 1 "GND" H 6755 1477 50  0000 C CNN
F 2 "" H 6750 1650 50  0001 C CNN
F 3 "" H 6750 1650 50  0001 C CNN
	1    6750 1650
	1    0    0    -1  
$EndComp
$Comp
L rayStack:nRF52832_QFxx U1
U 1 1 5D0AC7D4
P 5800 3300
F 0 "U1" H 5800 3350 50  0000 C CNN
F 1 "nRF52832_QFxx" H 5800 3250 50  0000 C CNN
F 2 "Package_DFN_QFN:QFN-48-1EP_6x6mm_P0.4mm_EP4.6x4.6mm" H 5800 1750 50  0001 C CNN
F 3 "https://infocenter.nordicsemi.com/pdf/nRF52832_PS_v1.4.pdf" H 5800 3400 50  0001 C CNN
F 4 "SoC, nRF52832 QFxx QFN48" H 5800 3300 50  0001 C CNN "Description"
F 5 "nRF52832-QFAA" H 5800 3300 50  0001 C CNN "MPN"
	1    5800 3300
	1    0    0    -1  
$EndComp
Wire Wire Line
	6900 2750 7100 2750
Wire Wire Line
	7100 2750 7100 1600
Connection ~ 7100 1600
Wire Wire Line
	3550 1500 3550 1700
Wire Wire Line
	5250 1500 3550 1500
Connection ~ 3550 1500
Wire Wire Line
	5250 4400 5250 4450
Wire Wire Line
	5250 4450 4400 4450
Connection ~ 4400 4450
Wire Wire Line
	6250 2200 6250 1650
Wire Wire Line
	6250 1650 6350 1650
Wire Wire Line
	6350 1650 6350 2200
Connection ~ 6350 1650
Wire Wire Line
	6350 1650 6750 1650
Text Label 6900 3750 0    50   ~ 0
SWDIO
Text Label 6900 3850 0    50   ~ 0
SWDCLK
Text Label 6350 4700 3    50   ~ 0
RESET
Text Label 6050 4400 3    50   ~ 0
SWDSWO
Text Label 5750 2200 1    50   ~ 0
IO_3
Text Label 5850 2200 1    50   ~ 0
IO_2
Text Label 5950 2200 1    50   ~ 0
IO_1
Text Label 4700 3850 2    50   ~ 0
NFC1
Text Label 4700 3750 2    50   ~ 0
NFC2
Text Label 5450 4400 3    50   ~ 0
IO_17
Text Label 4700 3550 2    50   ~ 0
IO_20
$Comp
L power:+2V8 #PWR0119
U 1 1 5EBFF58C
P 8650 5650
F 0 "#PWR0119" H 8650 5500 50  0001 C CNN
F 1 "+2V8" H 8665 5823 50  0000 C CNN
F 2 "" H 8650 5650 50  0001 C CNN
F 3 "" H 8650 5650 50  0001 C CNN
	1    8650 5650
	1    0    0    -1  
$EndComp
$Comp
L power:VDD #PWR0120
U 1 1 5EC00B37
P 9150 5650
F 0 "#PWR0120" H 9150 5500 50  0001 C CNN
F 1 "VDD" H 9167 5823 50  0000 C CNN
F 2 "" H 9150 5650 50  0001 C CNN
F 3 "" H 9150 5650 50  0001 C CNN
	1    9150 5650
	1    0    0    -1  
$EndComp
Wire Wire Line
	9150 5650 9150 5800
Wire Wire Line
	8650 5800 8650 5650
$Comp
L power:PWR_FLAG #FLG0101
U 1 1 5EC04A6C
P 9650 5650
F 0 "#FLG0101" H 9650 5725 50  0001 C CNN
F 1 "PWR_FLAG" H 9650 5823 50  0000 C CNN
F 2 "" H 9650 5650 50  0001 C CNN
F 3 "~" H 9650 5650 50  0001 C CNN
	1    9650 5650
	1    0    0    -1  
$EndComp
Wire Wire Line
	9650 5650 9650 5800
Wire Wire Line
	9650 5800 9150 5800
Connection ~ 9150 5800
Wire Wire Line
	8650 5800 9150 5800
$Comp
L power:PWR_FLAG #FLG0102
U 1 1 5EC27E53
P 10150 5650
F 0 "#FLG0102" H 10150 5725 50  0001 C CNN
F 1 "PWR_FLAG" H 10150 5823 50  0000 C CNN
F 2 "" H 10150 5650 50  0001 C CNN
F 3 "~" H 10150 5650 50  0001 C CNN
	1    10150 5650
	1    0    0    -1  
$EndComp
$Comp
L power:GND #PWR0121
U 1 1 5EC2809B
P 10150 5650
F 0 "#PWR0121" H 10150 5400 50  0001 C CNN
F 1 "GND" H 10155 5477 50  0000 C CNN
F 2 "" H 10150 5650 50  0001 C CNN
F 3 "" H 10150 5650 50  0001 C CNN
	1    10150 5650
	1    0    0    -1  
$EndComp
$Comp
L power:GND #PWR031
U 1 1 5D2DA674
P 9050 4050
F 0 "#PWR031" H 9050 3800 50  0001 C CNN
F 1 "GND" H 9055 3877 50  0000 C CNN
F 2 "" H 9050 4050 50  0001 C CNN
F 3 "" H 9050 4050 50  0001 C CNN
	1    9050 4050
	1    0    0    -1  
$EndComp
$Comp
L Device:C C15
U 1 1 5D2CA668
P 9050 3900
F 0 "C15" H 9165 3946 50  0000 L CNN
F 1 "N.C." H 9165 3855 50  0000 L CNN
F 2 "Capacitor_SMD:C_0402_1005Metric" H 9088 3750 50  0001 C CNN
F 3 "~" H 9050 3900 50  0001 C CNN
F 4 "Capacitor, NP0, ±5%, NON MOUNTABLE" H 9050 3900 50  0001 C CNN "Description"
F 5 "~" H 9050 3900 50  0001 C CNN "MPN"
	1    9050 3900
	1    0    0    -1  
$EndComp
Wire Wire Line
	9050 3750 8600 3750
Text Label 4700 3650 2    50   ~ 0
IO_19
Text Label 4700 3350 2    50   ~ 0
IO_24
$Comp
L power:GND #PWR0123
U 1 1 5EC9A797
P 8050 2200
F 0 "#PWR0123" H 8050 1950 50  0001 C CNN
F 1 "GND" H 8055 2027 50  0000 C CNN
F 2 "" H 8050 2200 50  0001 C CNN
F 3 "" H 8050 2200 50  0001 C CNN
	1    8050 2200
	1    0    0    -1  
$EndComp
Wire Wire Line
	8050 1850 8050 2200
Wire Wire Line
	8100 1850 8050 1850
Wire Wire Line
	9050 3750 9150 3750
$Comp
L Device:R_US R1
U 1 1 5EDA3D15
P 7700 5450
F 0 "R1" H 7768 5496 50  0000 L CNN
F 1 "1.5k" H 7768 5405 50  0000 L CNN
F 2 "Resistor_SMD:R_0402_1005Metric" V 7740 5440 50  0001 C CNN
F 3 "~" H 7700 5450 50  0001 C CNN
F 4 "Resistor, 1/32W ±5%" H 7700 5450 50  0001 C CNN "Description"
F 5 "RC0402JR-071K5L" H 7700 5450 50  0001 C CNN "MPN"
	1    7700 5450
	1    0    0    -1  
$EndComp
$Comp
L power:VDD #PWR013
U 1 1 5EDB0D7C
P 7700 5300
F 0 "#PWR013" H 7700 5150 50  0001 C CNN
F 1 "VDD" H 7717 5473 50  0000 C CNN
F 2 "" H 7700 5300 50  0001 C CNN
F 3 "" H 7700 5300 50  0001 C CNN
	1    7700 5300
	1    0    0    -1  
$EndComp
$Comp
L Device:LED D1
U 1 1 5EDCA82F
P 7700 5750
F 0 "D1" V 7739 5633 50  0000 R CNN
F 1 "LED" V 7648 5633 50  0000 R CNN
F 2 "LED_SMD:LED_0402_1005Metric" H 7700 5750 50  0001 C CNN
F 3 "~" H 7700 5750 50  0001 C CNN
F 4 "LED" H 7700 5750 50  0001 C CNN "Description"
F 5 "150040YS73240" H 7700 5750 50  0001 C CNN "MPN"
	1    7700 5750
	0    -1   -1   0   
$EndComp
$Comp
L Connector:TestPoint_Alt TP1
U 1 1 5EDDFB14
P 6500 4600
F 0 "TP1" H 6558 4718 50  0000 L CNN
F 1 "RESET" H 6558 4627 50  0000 L CNN
F 2 "TestPoint:TestPoint_Pad_1.0x1.0mm" H 6700 4600 50  0001 C CNN
F 3 "~" H 6700 4600 50  0001 C CNN
F 4 "PCB Artefact" H 6500 4600 50  0001 C CNN "Description"
F 5 "~" H 6500 4600 50  0001 C CNN "MPN"
	1    6500 4600
	1    0    0    -1  
$EndComp
Wire Wire Line
	6350 4400 6350 4600
Wire Wire Line
	6500 4600 6350 4600
Connection ~ 6350 4600
Wire Wire Line
	6350 4600 6350 4700
Text Label 7700 5900 3    50   ~ 0
LED
Text Label 4700 3450 2    50   ~ 0
LED
Wire Notes Line
	8350 6150 8350 4950
Wire Notes Line
	8350 4950 10600 4950
Wire Notes Line
	10600 4950 10600 6150
Wire Notes Line
	10600 6150 8350 6150
Wire Notes Line
	7400 4950 7400 6150
Wire Notes Line
	7400 6150 8100 6150
Wire Notes Line
	8100 6150 8100 4950
Wire Notes Line
	8100 4950 7400 4950
Connection ~ 9050 3750
NoConn ~ 6050 2200
$Comp
L power:GND #PWR02
U 1 1 5E8979CA
P 1350 6250
F 0 "#PWR02" H 1350 6000 50  0001 C CNN
F 1 "GND" V 1355 6122 50  0000 R CNN
F 2 "" H 1350 6250 50  0001 C CNN
F 3 "" H 1350 6250 50  0001 C CNN
	1    1350 6250
	0    1    1    0   
$EndComp
Text Label 1750 6950 2    50   ~ 0
USB_D-
Text Label 1750 6850 2    50   ~ 0
USB_D+
Text Notes 2800 6150 0    50   ~ 0
SCLK
Text Notes 2800 6050 0    50   ~ 0
MISO
Text Notes 2800 5950 0    50   ~ 0
MOSI
Text Notes 2800 5850 0    50   ~ 0
CS
Text Notes 1200 7450 2    50   ~ 0
SCL
Text Notes 1200 7350 2    50   ~ 0
SDA
Text Notes 1200 5550 2    50   ~ 0
ANALOG
Text Notes 1200 5650 2    50   ~ 0
ANALOG
Text Notes 1200 5750 2    50   ~ 0
ANALOG
Wire Wire Line
	2650 6750 2250 6750
Wire Wire Line
	1750 6750 1350 6750
Text Label 1750 6150 2    50   ~ 0
RESET
Text Label 1750 7050 2    50   ~ 0
IO_16
Text Label 1750 7150 2    50   ~ 0
IO_17
Text Label 1750 7250 2    50   ~ 0
IO_18
Text Label 1750 5850 2    50   ~ 0
IO_4
Text Label 1750 5950 2    50   ~ 0
IO_5
Text Label 1750 6050 2    50   ~ 0
IO_6
Wire Wire Line
	2250 6250 2650 6250
$Comp
L power:VBUS #PWR09
U 1 1 5EB8EE2F
P 2650 6650
F 0 "#PWR09" H 2650 6500 50  0001 C CNN
F 1 "VBUS" V 2650 6800 50  0000 L CNN
F 2 "" H 2650 6650 50  0001 C CNN
F 3 "" H 2650 6650 50  0001 C CNN
	1    2650 6650
	0    1    1    0   
$EndComp
Wire Wire Line
	2650 6650 2250 6650
Wire Wire Line
	1350 6250 1750 6250
$Comp
L power:+2V8 #PWR08
U 1 1 5EB91478
P 2650 6450
F 0 "#PWR08" H 2650 6300 50  0001 C CNN
F 1 "+2V8" V 2650 6600 50  0000 L CNN
F 2 "" H 2650 6450 50  0001 C CNN
F 3 "" H 2650 6450 50  0001 C CNN
	1    2650 6450
	0    1    1    0   
$EndComp
Wire Wire Line
	2650 6450 2250 6450
$Comp
L power:VAA #PWR07
U 1 1 5EB92D5F
P 2650 6550
F 0 "#PWR07" H 2650 6400 50  0001 C CNN
F 1 "VAA" V 2650 6700 50  0000 L CNN
F 2 "" H 2650 6550 50  0001 C CNN
F 3 "" H 2650 6550 50  0001 C CNN
	1    2650 6550
	0    1    1    0   
$EndComp
Wire Wire Line
	2650 6350 2250 6350
$Comp
L power:GND #PWR05
U 1 1 5EB9F4B4
P 1350 6750
F 0 "#PWR05" H 1350 6500 50  0001 C CNN
F 1 "GND" V 1355 6622 50  0000 R CNN
F 2 "" H 1350 6750 50  0001 C CNN
F 3 "" H 1350 6750 50  0001 C CNN
	1    1350 6750
	0    1    1    0   
$EndComp
$Comp
L power:VAA #PWR01
U 1 1 5EB9FBB2
P 1350 6550
F 0 "#PWR01" H 1350 6400 50  0001 C CNN
F 1 "VAA" V 1350 6700 50  0000 L CNN
F 2 "" H 1350 6550 50  0001 C CNN
F 3 "" H 1350 6550 50  0001 C CNN
	1    1350 6550
	0    -1   -1   0   
$EndComp
Wire Wire Line
	1350 6550 1750 6550
$Comp
L power:+2V8 #PWR03
U 1 1 5EBA0C3E
P 1350 6450
F 0 "#PWR03" H 1350 6300 50  0001 C CNN
F 1 "+2V8" V 1350 6600 50  0000 L CNN
F 2 "" H 1350 6450 50  0001 C CNN
F 3 "" H 1350 6450 50  0001 C CNN
	1    1350 6450
	0    -1   -1   0   
$EndComp
Wire Wire Line
	1350 6450 1750 6450
$Comp
L power:VBUS #PWR04
U 1 1 5EBA1BD2
P 1350 6650
F 0 "#PWR04" H 1350 6500 50  0001 C CNN
F 1 "VBUS" V 1350 6800 50  0000 L CNN
F 2 "" H 1350 6650 50  0001 C CNN
F 3 "" H 1350 6650 50  0001 C CNN
	1    1350 6650
	0    -1   -1   0   
$EndComp
Wire Wire Line
	1350 6650 1750 6650
$Comp
L power:GND #PWR010
U 1 1 5EBA685A
P 2650 6750
F 0 "#PWR010" H 2650 6500 50  0001 C CNN
F 1 "GND" V 2655 6622 50  0000 R CNN
F 2 "" H 2650 6750 50  0001 C CNN
F 3 "" H 2650 6750 50  0001 C CNN
	1    2650 6750
	0    -1   -1   0   
$EndComp
$Comp
L power:GND #PWR06
U 1 1 5EBA7F5D
P 2650 6250
F 0 "#PWR06" H 2650 6000 50  0001 C CNN
F 1 "GND" V 2655 6122 50  0000 R CNN
F 2 "" H 2650 6250 50  0001 C CNN
F 3 "" H 2650 6250 50  0001 C CNN
	1    2650 6250
	0    -1   -1   0   
$EndComp
Text Notes 1200 6150 2    50   ~ 0
RESET
Text Label 1750 5750 2    50   ~ 0
IO_3
$Comp
L power:GND #PWR0101
U 1 1 5EBB294F
P 3850 6250
F 0 "#PWR0101" H 3850 6000 50  0001 C CNN
F 1 "GND" V 3850 6050 50  0000 C CNN
F 2 "" H 3850 6250 50  0001 C CNN
F 3 "" H 3850 6250 50  0001 C CNN
	1    3850 6250
	0    1    1    0   
$EndComp
Text Label 4250 6950 2    50   ~ 0
USB_D-
Text Label 4250 6850 2    50   ~ 0
USB_D+
Wire Wire Line
	5150 6750 4750 6750
Text Label 4250 6150 2    50   ~ 0
RESET
Wire Wire Line
	4750 6250 5150 6250
$Comp
L power:VBUS #PWR0102
U 1 1 5EBB297C
P 5150 6650
F 0 "#PWR0102" H 5150 6500 50  0001 C CNN
F 1 "VBUS" V 5150 6800 50  0000 L CNN
F 2 "" H 5150 6650 50  0001 C CNN
F 3 "" H 5150 6650 50  0001 C CNN
	1    5150 6650
	0    1    1    0   
$EndComp
Wire Wire Line
	5150 6650 4750 6650
$Comp
L power:+2V8 #PWR0103
U 1 1 5EBB2988
P 5150 6450
F 0 "#PWR0103" H 5150 6300 50  0001 C CNN
F 1 "+2V8" V 5150 6600 50  0000 L CNN
F 2 "" H 5150 6450 50  0001 C CNN
F 3 "" H 5150 6450 50  0001 C CNN
	1    5150 6450
	0    1    1    0   
$EndComp
Wire Wire Line
	5150 6450 4750 6450
$Comp
L power:VAA #PWR0104
U 1 1 5EBB2993
P 5150 6550
F 0 "#PWR0104" H 5150 6400 50  0001 C CNN
F 1 "VAA" V 5150 6700 50  0000 L CNN
F 2 "" H 5150 6550 50  0001 C CNN
F 3 "" H 5150 6550 50  0001 C CNN
	1    5150 6550
	0    1    1    0   
$EndComp
Wire Wire Line
	5150 6550 4750 6550
$Comp
L power:GND #PWR0105
U 1 1 5EBB299E
P 3850 6750
F 0 "#PWR0105" H 3850 6500 50  0001 C CNN
F 1 "GND" V 3850 6550 50  0000 C CNN
F 2 "" H 3850 6750 50  0001 C CNN
F 3 "" H 3850 6750 50  0001 C CNN
	1    3850 6750
	0    1    1    0   
$EndComp
$Comp
L power:VAA #PWR0106
U 1 1 5EBB29A8
P 3850 6550
F 0 "#PWR0106" H 3850 6400 50  0001 C CNN
F 1 "VAA" V 3850 6700 50  0000 L CNN
F 2 "" H 3850 6550 50  0001 C CNN
F 3 "" H 3850 6550 50  0001 C CNN
	1    3850 6550
	0    -1   -1   0   
$EndComp
$Comp
L power:+2V8 #PWR0107
U 1 1 5EBB29B3
P 3850 6450
F 0 "#PWR0107" H 3850 6300 50  0001 C CNN
F 1 "+2V8" V 3850 6600 50  0000 L CNN
F 2 "" H 3850 6450 50  0001 C CNN
F 3 "" H 3850 6450 50  0001 C CNN
	1    3850 6450
	0    -1   -1   0   
$EndComp
$Comp
L power:VBUS #PWR0108
U 1 1 5EBB29BE
P 3850 6650
F 0 "#PWR0108" H 3850 6500 50  0001 C CNN
F 1 "VBUS" V 3850 6800 50  0000 L CNN
F 2 "" H 3850 6650 50  0001 C CNN
F 3 "" H 3850 6650 50  0001 C CNN
	1    3850 6650
	0    -1   -1   0   
$EndComp
$Comp
L power:GND #PWR0109
U 1 1 5EBB29C9
P 5150 6750
F 0 "#PWR0109" H 5150 6500 50  0001 C CNN
F 1 "GND" V 5150 6550 50  0000 C CNN
F 2 "" H 5150 6750 50  0001 C CNN
F 3 "" H 5150 6750 50  0001 C CNN
	1    5150 6750
	0    -1   -1   0   
$EndComp
$Comp
L power:GND #PWR0110
U 1 1 5EBB29D3
P 5150 6250
F 0 "#PWR0110" H 5150 6000 50  0001 C CNN
F 1 "GND" V 5150 6100 50  0000 R CNN
F 2 "" H 5150 6250 50  0001 C CNN
F 3 "" H 5150 6250 50  0001 C CNN
	1    5150 6250
	0    -1   -1   0   
$EndComp
Wire Wire Line
	3850 6750 4250 6750
Wire Wire Line
	3850 6250 4250 6250
Wire Wire Line
	3850 6550 4250 6550
Wire Wire Line
	3850 6450 4250 6450
Wire Wire Line
	3850 6650 4250 6650
Wire Notes Line
	850  7600 850  5200
Text Notes 2900 5300 0    50   ~ 10
Stacking Connectors
$Comp
L Mechanical:MountingHole_Pad H1
U 1 1 5FCEED23
P 6150 5500
F 0 "H1" H 6250 5549 50  0000 L CNN
F 1 "Hole1.6" H 6250 5458 50  0000 L CNN
F 2 "rayStack:MountingHole_1.6mm_Pad" H 6150 5500 50  0001 C CNN
F 3 "~" H 6150 5500 50  0001 C CNN
F 4 "PCB Artefact" H 6150 5500 50  0001 C CNN "Description"
F 5 "~" H 6150 5500 50  0001 C CNN "MPN"
	1    6150 5500
	1    0    0    -1  
$EndComp
$Comp
L Mechanical:MountingHole_Pad H2
U 1 1 5FCEF611
P 6150 6050
F 0 "H2" H 6250 6099 50  0000 L CNN
F 1 "Hole1.6" H 6250 6008 50  0000 L CNN
F 2 "rayStack:MountingHole_1.6mm_Pad" H 6150 6050 50  0001 C CNN
F 3 "~" H 6150 6050 50  0001 C CNN
F 4 "PCB Artefact" H 6150 6050 50  0001 C CNN "Description"
F 5 "~" H 6150 6050 50  0001 C CNN "MPN"
	1    6150 6050
	1    0    0    -1  
$EndComp
$Comp
L power:GND #PWR011
U 1 1 5FCF03AC
P 6150 5600
F 0 "#PWR011" H 6150 5350 50  0001 C CNN
F 1 "GND" H 6155 5427 50  0000 C CNN
F 2 "" H 6150 5600 50  0001 C CNN
F 3 "" H 6150 5600 50  0001 C CNN
	1    6150 5600
	1    0    0    -1  
$EndComp
$Comp
L power:GND #PWR0122
U 1 1 5FCF0811
P 6150 6150
F 0 "#PWR0122" H 6150 5900 50  0001 C CNN
F 1 "GND" H 6155 5977 50  0000 C CNN
F 2 "" H 6150 6150 50  0001 C CNN
F 3 "" H 6150 6150 50  0001 C CNN
	1    6150 6150
	1    0    0    -1  
$EndComp
Text Label 1750 5550 2    50   ~ 0
IO_1
$Comp
L Connector_Generic:Conn_02x20_Counter_Clockwise XS1
U 1 1 5FD0D152
P 1950 6450
F 0 "XS1" H 2000 7567 50  0000 C CNN
F 1 "DF40S-40" H 2000 7476 50  0000 C CNN
F 2 "rayStack:Hirose_DF40_C_40DS_P0.4_Vertical" H 1950 6450 50  0001 C CNN
F 3 "~" H 1950 6450 50  0001 C CNN
F 4 "Mezzanine Connector, receptacle" H 1950 6450 50  0001 C CNN "Description"
F 5 "DF40C-40DS-0.4V(51)" H 1950 6450 50  0001 C CNN "MPN"
	1    1950 6450
	1    0    0    -1  
$EndComp
$Comp
L Connector_Generic:Conn_02x20_Counter_Clockwise XS2
U 1 1 5FD15730
P 4450 6450
F 0 "XS2" H 4500 7567 50  0000 C CNN
F 1 "DF40P-40" H 4500 7476 50  0000 C CNN
F 2 "rayStack:Hirose_DF40_C_40DP_P0.4_Vertical" H 4450 6450 50  0001 C CNN
F 3 "~" H 4450 6450 50  0001 C CNN
F 4 "Mezzanine Connector, header" H 4450 6450 50  0001 C CNN "Description"
F 5 "DF40C-40DP-0.4V(51)" H 4450 6450 50  0001 C CNN "MPN"
	1    4450 6450
	1    0    0    -1  
$EndComp
Text Label 1750 5650 2    50   ~ 0
IO_2
$Comp
L power:+BATT #PWR0124
U 1 1 5FD09E57
P 1350 6350
F 0 "#PWR0124" H 1350 6200 50  0001 C CNN
F 1 "+BATT" V 1350 6500 50  0000 L CNN
F 2 "" H 1350 6350 50  0001 C CNN
F 3 "" H 1350 6350 50  0001 C CNN
	1    1350 6350
	0    -1   -1   0   
$EndComp
Wire Wire Line
	1350 6350 1750 6350
Text Label 1750 7350 2    50   ~ 0
IO_19
Text Label 1750 7450 2    50   ~ 0
IO_20
Text Label 2250 5750 0    50   ~ 0
IO_38
Text Label 2250 5850 0    50   ~ 0
CS
Text Label 2250 5950 0    50   ~ 0
MOSI
Text Label 2250 6050 0    50   ~ 0
MISO
Text Label 2250 6150 0    50   ~ 0
SCLK
Text Label 2250 7150 0    50   ~ 0
IO_24
Text Label 2250 7250 0    50   ~ 0
IO_23
Text Label 2250 7450 0    50   ~ 0
IO_21
Text Label 2250 7350 0    50   ~ 0
IO_22
Wire Wire Line
	2650 6550 2250 6550
$Comp
L power:+BATT #PWR0125
U 1 1 5FD1185C
P 2650 6350
F 0 "#PWR0125" H 2650 6200 50  0001 C CNN
F 1 "+BATT" V 2650 6500 50  0000 L CNN
F 2 "" H 2650 6350 50  0001 C CNN
F 3 "" H 2650 6350 50  0001 C CNN
	1    2650 6350
	0    1    1    0   
$EndComp
Text Label 4750 5750 0    50   ~ 0
IO_38
Text Label 4750 5850 0    50   ~ 0
CS
Text Label 4750 5950 0    50   ~ 0
MOSI
Text Label 4750 6050 0    50   ~ 0
MISO
Text Label 4750 6150 0    50   ~ 0
SCLK
Text Label 4250 5850 2    50   ~ 0
IO_4
Text Label 4250 5950 2    50   ~ 0
IO_5
Text Label 4250 6050 2    50   ~ 0
IO_6
Text Label 4250 5750 2    50   ~ 0
IO_3
Text Label 4250 5550 2    50   ~ 0
IO_1
Text Label 4250 5650 2    50   ~ 0
IO_2
Text Label 4250 7050 2    50   ~ 0
IO_16
Text Label 4250 7150 2    50   ~ 0
IO_17
Text Label 4250 7250 2    50   ~ 0
IO_18
Text Label 4250 7350 2    50   ~ 0
IO_19
Text Label 4250 7450 2    50   ~ 0
IO_20
Text Label 4750 7150 0    50   ~ 0
IO_24
Text Label 4750 7250 0    50   ~ 0
IO_23
Text Label 4750 7450 0    50   ~ 0
IO_21
Text Label 4750 7350 0    50   ~ 0
IO_22
$Comp
L power:+BATT #PWR0126
U 1 1 5FD1823F
P 5150 6350
F 0 "#PWR0126" H 5150 6200 50  0001 C CNN
F 1 "+BATT" V 5150 6500 50  0000 L CNN
F 2 "" H 5150 6350 50  0001 C CNN
F 3 "" H 5150 6350 50  0001 C CNN
	1    5150 6350
	0    1    1    0   
$EndComp
Wire Wire Line
	5150 6350 4750 6350
$Comp
L power:+BATT #PWR0127
U 1 1 5FD19C12
P 3850 6350
F 0 "#PWR0127" H 3850 6200 50  0001 C CNN
F 1 "+BATT" V 3850 6500 50  0000 L CNN
F 2 "" H 3850 6350 50  0001 C CNN
F 3 "" H 3850 6350 50  0001 C CNN
	1    3850 6350
	0    -1   -1   0   
$EndComp
Wire Wire Line
	3850 6350 4250 6350
Text Notes 2800 7350 0    50   ~ 0
ANALOG
Text Notes 2800 7450 0    50   ~ 0
ANALOG
Wire Notes Line
	5800 5200 5800 7600
Text Notes 1200 7150 2    50   ~ 0
TX
Text Notes 1200 7250 2    50   ~ 0
RX
Text Notes 5300 6150 0    50   ~ 0
SCLK
Text Notes 5300 6050 0    50   ~ 0
MISO
Text Notes 5300 5950 0    50   ~ 0
MOSI
Text Notes 5300 5850 0    50   ~ 0
CS
Text Notes 5300 7350 0    50   ~ 0
ANALOG
Text Notes 5300 7450 0    50   ~ 0
ANALOG
Text Notes 5300 7250 0    50   ~ 0
ANALOG
Text Notes 3750 7450 2    50   ~ 0
SCL
Text Notes 3750 7350 2    50   ~ 0
SDA
Text Notes 3750 7150 2    50   ~ 0
TX
Text Notes 3750 7250 2    50   ~ 0
RX
Text Notes 3750 5550 2    50   ~ 0
ANALOG
Text Notes 3750 5650 2    50   ~ 0
ANALOG
Text Notes 3750 5750 2    50   ~ 0
ANALOG
Text Notes 3750 6150 2    50   ~ 0
RESET
$Comp
L Mechanical:MountingHole_Pad H3
U 1 1 5FDE83A5
P 6150 6600
F 0 "H3" H 6250 6649 50  0000 L CNN
F 1 "Hole1.6" H 6250 6558 50  0000 L CNN
F 2 "rayStack:MountingHole_1.6mm_Pad" H 6150 6600 50  0001 C CNN
F 3 "~" H 6150 6600 50  0001 C CNN
F 4 "PCB Artefact" H 6150 6600 50  0001 C CNN "Description"
F 5 "~" H 6150 6600 50  0001 C CNN "MPN"
	1    6150 6600
	1    0    0    -1  
$EndComp
$Comp
L power:GND #PWR0128
U 1 1 5FDE88DD
P 6150 6700
F 0 "#PWR0128" H 6150 6450 50  0001 C CNN
F 1 "GND" H 6155 6527 50  0000 C CNN
F 2 "" H 6150 6700 50  0001 C CNN
F 3 "" H 6150 6700 50  0001 C CNN
	1    6150 6700
	1    0    0    -1  
$EndComp
$Comp
L Mechanical:MountingHole_Pad H4
U 1 1 5FE12116
P 6150 7150
F 0 "H4" H 6250 7199 50  0000 L CNN
F 1 "Hole1.6" H 6250 7108 50  0000 L CNN
F 2 "rayStack:MountingHole_1.6mm_Pad" H 6150 7150 50  0001 C CNN
F 3 "~" H 6150 7150 50  0001 C CNN
F 4 "PCB Artefact" H 6150 7150 50  0001 C CNN "Description"
F 5 "~" H 6150 7150 50  0001 C CNN "MPN"
	1    6150 7150
	1    0    0    -1  
$EndComp
$Comp
L power:GND #PWR0129
U 1 1 5FE12602
P 6150 7250
F 0 "#PWR0129" H 6150 7000 50  0001 C CNN
F 1 "GND" H 6155 7077 50  0000 C CNN
F 2 "" H 6150 7250 50  0001 C CNN
F 3 "" H 6150 7250 50  0001 C CNN
	1    6150 7250
	1    0    0    -1  
$EndComp
Text Label 2250 5550 0    50   ~ 0
NFC1
Text Label 2250 5650 0    50   ~ 0
NFC2
Text Label 4750 6850 0    50   ~ 0
SWDIO
Text Label 4750 6950 0    50   ~ 0
SWDCLK
Text Label 4750 7050 0    50   ~ 0
SWDSWO
Text Label 4750 5550 0    50   ~ 0
NFC1
Text Label 4750 5650 0    50   ~ 0
NFC2
Text Label 2250 6850 0    50   ~ 0
SWDIO
Text Label 2250 6950 0    50   ~ 0
SWDCLK
Text Label 2250 7050 0    50   ~ 0
SWDSWO
Text Label 4700 3050 2    50   ~ 0
IO_21
Text Label 4700 3150 2    50   ~ 0
IO_22
Text Label 4700 3250 2    50   ~ 0
IO_23
$Comp
L Device:C C16
U 1 1 5FE9A7FB
P 9550 3900
F 0 "C16" H 9665 3946 50  0000 L CNN
F 1 "N.C." H 9665 3855 50  0000 L CNN
F 2 "Capacitor_SMD:C_0402_1005Metric" H 9588 3750 50  0001 C CNN
F 3 "~" H 9550 3900 50  0001 C CNN
F 4 "Capacitor, NP0, ±5%, NON MOUNTABLE" H 9550 3900 50  0001 C CNN "Description"
F 5 "~" H 9550 3900 50  0001 C CNN "MPN"
	1    9550 3900
	1    0    0    -1  
$EndComp
$Comp
L Device:L L4
U 1 1 5FE9B17E
P 9300 3750
F 0 "L4" V 9490 3750 50  0000 C CNN
F 1 "0Ω" V 9399 3750 50  0000 C CNN
F 2 "Inductor_SMD:L_0402_1005Metric" H 9300 3750 50  0001 C CNN
F 3 "~" H 9300 3750 50  0001 C CNN
F 4 "ZERO OHM (RF chip inductor ±5%)" H 9300 3750 50  0001 C CNN "Description"
F 5 "~" H 9300 3750 50  0001 C CNN "MPN"
	1    9300 3750
	0    -1   -1   0   
$EndComp
Wire Wire Line
	9450 3750 9550 3750
Connection ~ 9550 3750
Wire Wire Line
	9550 3750 9800 3750
$Comp
L power:GND #PWR014
U 1 1 5FE9BE4D
P 9550 4050
F 0 "#PWR014" H 9550 3800 50  0001 C CNN
F 1 "GND" H 9555 3877 50  0000 C CNN
F 2 "" H 9550 4050 50  0001 C CNN
F 3 "" H 9550 4050 50  0001 C CNN
	1    9550 4050
	1    0    0    -1  
$EndComp
$Comp
L Device:Antenna_Chip AE1
U 1 1 5FEA479D
P 9900 3650
F 0 "AE1" H 10080 3777 50  0000 L CNN
F 1 "2450AT07A0100" H 10080 3686 50  0000 L CNN
F 2 "rayStack:Antenna_Johanson_2450AT07A0100" H 9800 3825 50  0001 C CNN
F 3 "https://www.johansontechnology.com/datasheets/2450AT07A0100/2450AT07A0100.pdf" H 9800 3825 50  0001 C CNN
F 4 "Chip-Antenna, 2.4GHz" H 9900 3650 50  0001 C CNN "Description"
F 5 "2450AT07A0100" H 9900 3650 50  0001 C CNN "MPN"
	1    9900 3650
	1    0    0    -1  
$EndComp
$Comp
L power:GND #PWR015
U 1 1 5FEBABF6
P 10000 3750
F 0 "#PWR015" H 10000 3500 50  0001 C CNN
F 1 "GND" H 10005 3577 50  0000 C CNN
F 2 "" H 10000 3750 50  0001 C CNN
F 3 "" H 10000 3750 50  0001 C CNN
	1    10000 3750
	1    0    0    -1  
$EndComp
Text Label 8150 3350 0    50   ~ 0
ANT
Text Label 5350 4400 3    50   ~ 0
IO_18
Text Label 5550 4400 3    50   ~ 0
IO_16
Text Label 5650 4400 3    50   ~ 0
IO_6
Text Label 5750 4400 3    50   ~ 0
IO_5
Text Label 5850 4400 3    50   ~ 0
IO_4
Text Label 5950 4400 3    50   ~ 0
SCLK
Text Label 6150 4400 3    50   ~ 0
MISO
Text Label 6250 4400 3    50   ~ 0
MOSI
Text Label 6900 3650 0    50   ~ 0
CS
Text Label 6900 3550 0    50   ~ 0
IO_38
Text Notes 2800 7150 0    50   ~ 0
AREF
Text Notes 2800 7250 0    50   ~ 0
ANALOG
Text Notes 5300 7150 0    50   ~ 0
AREF
Wire Notes Line
	6750 5200 6750 7600
Wire Notes Line
	850  7600 6750 7600
Wire Notes Line
	850  5200 6750 5200
$Comp
L Mechanical:Fiducial FID1
U 1 1 5FEC4C22
P 900 5050
F 0 "FID1" H 985 5096 50  0000 L CNN
F 1 "Fiducial" H 985 5005 50  0000 L CNN
F 2 "Fiducial:Fiducial_0.5mm_Mask1mm" H 900 5050 50  0001 C CNN
F 3 "~" H 900 5050 50  0001 C CNN
F 4 "PCB Artefact" H 900 5050 50  0001 C CNN "Description"
F 5 "~" H 900 5050 50  0001 C CNN "MPN"
	1    900  5050
	1    0    0    -1  
$EndComp
Text Notes 3750 7050 2    50   ~ 0
TDI
Text Notes 5300 7050 0    50   ~ 0
TDO
Text Notes 5300 6950 0    50   ~ 0
TCLK
Text Notes 5300 6850 0    50   ~ 0
TMS
Text Notes 2800 7050 0    50   ~ 0
TDO
Text Notes 2800 6950 0    50   ~ 0
TCLK
Text Notes 2800 6850 0    50   ~ 0
TMS
Text Notes 1200 7050 2    50   ~ 0
TDI
Text Notes 2800 5550 0    50   ~ 0
MPP1
Text Notes 2800 5650 0    50   ~ 0
MPP2
Text Notes 5300 5550 0    50   ~ 0
MPP1
Text Notes 5300 5650 0    50   ~ 0
MPP2
$EndSCHEMATC
