#VRML V2.0 utf8


Group {
  children 
    DEF o0 Group {
      children 
        DEF o1 Group {
          children 
            DEF o2 Transform {
              translation 0 0 0
              rotation 0 0 1  0
              scale 1 1 1
              scaleOrientation 0 0 1  0
              center 0 0 0
              children 
                DEF o3 Shape {
                  appearance 
                  Appearance {
                    material 
                    Material {
                      diffuseColor 0 0 0
                      ambientIntensity 0.0020000001
                      specularColor 0.98000002 0.98000002 0.98000002
                      shininess 0.059999999

                    }

                  }
                  geometry 
                  DEF SoFCIndexedFaceSet IndexedFaceSet {
                    coord 
                    Coordinate {
                      point [ -10.55 -4.5706911 1.211624,
                          -10.55 -4.5706911 3.8116241,
                          -10.55 -4.5706911 4.0116239,
                          -10.55 -4.5706911 4.2116241,
                          -10.55 -2.57357 0.011624,
                          -10.55 -2.57357 1.211624,
                          -10.55 -1.72357 -3.0383761,
                          -10.55 -1.72357 0.011624,
                          -10.55 -1.7192113 -3.0742733,
                          -10.55 -1.7063885 -3.1080844,
                          -10.55 -1.6858467 -3.1378443,
                          -10.55 -1.6587797 -3.1618235,
                          -10.55 -1.6267607 -3.1786284,
                          -10.55 -1.5916505 -3.1872823,
                          -10.55 -1.5554895 -3.1872823,
                          -10.55 -1.5203793 -3.1786284,
                          -10.55 -1.4883603 -3.1618235,
                          -10.55 -1.4612935 -3.1378443,
                          -10.55 -1.4407517 -3.1080844,
                          -10.55 -1.4279288 -3.0742733,
                          -10.55 -1.42357 -3.0383761,
                          -10.55 -1.42357 0.011624,
                          -10.55 -0.57357001 0.011624,
                          -10.55 -0.57357001 1.211624,
                          -10.55 0.52642995 0.011624,
                          -10.55 0.52642995 1.211624,
                          -10.55 1.3764299 -3.0383761,
                          -10.55 1.3764299 0.011624,
                          -10.55 1.3807887 -3.0742733,
                          -10.55 1.3936116 -3.1080844,
                          -10.55 1.4141533 -3.1378443,
                          -10.55 1.4412203 -3.1618235,
                          -10.55 1.4732392 -3.1786284,
                          -10.55 1.5083494 -3.1872823,
                          -10.55 1.5445105 -3.1872823,
                          -10.55 1.5796207 -3.1786284,
                          -10.55 1.6116396 -3.1618235,
                          -10.55 1.6387066 -3.1378443,
                          -10.55 1.6592484 -3.1080844,
                          -10.55 1.6720712 -3.0742733,
                          -10.55 1.67643 -3.0383761,
                          -10.55 1.67643 0.011624,
                          -10.55 2.5264299 0.011624,
                          -10.55 2.5264299 1.211624,
                          -10.55 4.4382272 1.211624,
                          -10.55 4.4382272 3.8116241,
                          -10.543923 -4.5706911 3.8810833,
                          -10.538689 4.4420419 3.9050338,
                          -10.525877 -4.5706911 3.948432,
                          -10.506071 4.4458494 3.9931612,
                          -10.49641 -4.5706911 4.0116239,
                          -10.454117 4.449656 4.0713887,
                          -10.447258 -4.5706911 4.0792761,
                          -10.414885 4.7644243 1.211624,
                          -10.414885 4.7644243 3.8116241,
                          -10.411551 4.7565951 3.8897078,
                          -10.397591 4.7381454 3.9646573,
                          -10.385114 -4.5706911 4.135231,
                          -10.385074 4.453464 4.1350856,
                          -10.367948 4.7031193 4.0466981,
                          -10.35 -4.5706911 1.211624,
                          -10.35 -4.5706911 3.8116241,
                          -10.35 -2.57357 0.011624,
                          -10.35 -2.57357 1.211624,
                          -10.35 -1.72357 -3.0383761,
                          -10.35 -1.72357 0.011624,
                          -10.35 -1.7192113 -3.0742733,
                          -10.35 -1.7063885 -3.1080844,
                          -10.35 -1.6858467 -3.1378443,
                          -10.35 -1.6587797 -3.1618235,
                          -10.35 -1.6267607 -3.1786284,
                          -10.35 -1.5916505 -3.1872823,
                          -10.35 -1.5554895 -3.1872823,
                          -10.35 -1.5203793 -3.1786284,
                          -10.35 -1.4883603 -3.1618235,
                          -10.35 -1.4612935 -3.1378443,
                          -10.35 -1.4407517 -3.1080844,
                          -10.35 -1.4279288 -3.0742733,
                          -10.35 -1.42357 -3.0383761,
                          -10.35 -1.42357 0.011624,
                          -10.35 -0.57357001 0.011624,
                          -10.35 -0.57357001 1.211624,
                          -10.35 0.52642995 0.011624,
                          -10.35 0.52642995 1.211624,
                          -10.35 1.3764299 -3.0383761,
                          -10.35 1.3764299 0.011624,
                          -10.35 1.3807887 -3.0742733,
                          -10.35 1.3936116 -3.1080844,
                          -10.35 1.4141533 -3.1378443,
                          -10.35 1.4412203 -3.1618235,
                          -10.35 1.4732392 -3.1786284,
                          -10.35 1.5083494 -3.1872823,
                          -10.35 1.5445105 -3.1872823,
                          -10.35 1.5796207 -3.1786284,
                          -10.35 1.6116396 -3.1618235,
                          -10.35 1.6387066 -3.1378443,
                          -10.35 1.6592484 -3.1080844,
                          -10.35 1.6720712 -3.0742733,
                          -10.35 1.67643 -3.0383761,
                          -10.35 1.67643 0.011624,
                          -10.35 2.5264299 0.011624,
                          -10.35 2.5264299 1.211624,
                          -10.35 4.4382272 1.211624,
                          -10.35 4.4382272 3.8116241,
                          -10.344986 -4.5706911 3.8561282,
                          -10.344344 4.4420366 3.8582642,
                          -10.330194 -4.5706911 3.8984008,
                          -10.328035 4.4458461 3.9023502,
                          -10.3256 4.6553864 4.1157408,
                          -10.312695 -4.5706911 4.177042,
                          -10.306366 -4.5706911 3.936322,
                          -10.303034 4.4572701 4.1808133,
                          -10.302058 4.4496555 3.9415023,
                          -10.274698 -4.5706911 3.9679904,
                          -10.273463 4.623003 1.211624,
                          -10.273463 4.623003 3.8116241,
                          -10.272976 4.5973797 4.167695,
                          -10.272918 4.6179676 3.8506038,
                          -10.267523 4.453465 3.9733548,
                          -10.267059 4.6076202 3.8880856,
                          -10.253586 4.5887594 3.9291468,
                          -10.236776 -4.5706911 3.9918177,
                          -10.233757 4.5635428 3.9636824,
                          -10.233165 -4.5706911 4.2028832,
                          -10.228084 4.460444 4.2037311,
                          -10.226461 4.4572744 3.9962187,
                          -10.213353 4.5323715 4.2003131,
                          -10.208766 4.533164 3.9896593,
                          -10.194504 -4.5706911 4.0066094,
                          -10.18898 4.4604492 4.0076776,
                          -10.180285 4.4992967 4.0059686,
                          -10.15 -4.5706911 4.0116239,
                          -10.15 -4.5706911 4.2116241,
                          -10.15 4.4636235 4.0116239,
                          -10.15 4.4636235 4.2116241,
                          -7.6500001 7.5293088 1.211624,
                          -7.6500001 7.5293088 3.8116241,
                          -7.6500001 7.5293088 4.0116239,
                          -7.6500001 7.5293088 4.2116241,
                          -7.6457028 7.525012 3.8810833,
                          -7.6329427 7.5122514 3.948432,
                          -7.6121063 7.491415 4.0116239,
                          -7.5773506 7.4566593 4.0792761,
                          -7.5334082 7.4127169 4.135231,
                          -7.5085788 7.3878875 1.211624,
                          -7.5085788 7.3878875 3.8116241,
                          -7.505033 7.3843417 3.8561282,
                          -7.4945736 7.3738823 3.8984008,
                          -7.4821997 7.3615088 4.177042,
                          -7.477725 7.3570337 3.936322,
                          -7.4553323 7.334641 3.9679904,
                          -7.4285178 7.3078265 3.9918177,
                          -7.4259634 7.3052726 4.2028832,
                          -7.3986263 7.2779355 4.0066094,
                          -7.3671575 7.2464662 4.0116239,
                          -7.3671575 7.2464662 4.2116241,
                          -6.3511839 -7.5962048 4.0116239,
                          -6.3511839 -7.5962048 4.2116241,
                          -5.9578147 -7.8169551 4.0116239,
                          -5.9578147 -7.8169551 4.2116241,
                          -5.5249801 -7.9439368 4.0116239,
                          -5.5249801 -7.9439368 4.2116241,
                          -5.0746975 -7.9706912 4.0116239,
                          -5.0746975 -7.9706912 4.2116241,
                          -4.6298718 -7.8958564 4.0116239,
                          -4.6298718 -7.8958564 4.2116241,
                          -4.2131305 -7.7232399 4.0116239,
                          -4.2131305 -7.7232399 4.2116241,
                          -3.8456712 -7.4616222 4.0116239,
                          -3.8456712 -7.4616222 4.2116241,
                          -2.8731539 -6.7567244 4.0116239,
                          -2.8731539 -6.7567244 4.2116241,
                          -1.7755154 -6.2690144 4.0116239,
                          -1.7755154 -6.2690144 4.2116241,
                          -0.60055625 -6.0197315 4.0116239,
                          -0.60055625 -6.0197315 4.2116241,
                          0.60055625 -6.0197315 4.0116239,
                          0.60055625 -6.0197315 4.2116241,
                          1.7755154 -6.2690144 4.0116239,
                          1.7755154 -6.2690144 4.2116241,
                          2.8731539 -6.7567244 4.0116239,
                          2.8731539 -6.7567244 4.2116241,
                          3.8456712 -7.4616222 4.0116239,
                          3.8456712 -7.4616222 4.2116241,
                          4.2131305 -7.7232399 4.0116239,
                          4.2131305 -7.7232399 4.2116241,
                          4.6298718 -7.8958564 4.0116239,
                          4.6298718 -7.8958564 4.2116241,
                          5.0746975 -7.9706912 4.0116239,
                          5.0746975 -7.9706912 4.2116241,
                          5.5249801 -7.9439368 4.0116239,
                          5.5249801 -7.9439368 4.2116241,
                          5.9578147 -7.8169551 4.0116239,
                          5.9578147 -7.8169551 4.2116241,
                          6.3511839 -7.5962048 4.0116239,
                          6.3511839 -7.5962048 4.2116241,
                          7.3671575 7.2464662 4.0116239,
                          7.3671575 7.2464662 4.2116241,
                          7.3986263 7.2779355 4.0066094,
                          7.4259634 7.3052726 4.2028832,
                          7.4285178 7.3078265 3.9918177,
                          7.4553323 7.334641 3.9679904,
                          7.477725 7.3570337 3.936322,
                          7.4821997 7.3615088 4.177042,
                          7.4945736 7.3738823 3.8984008,
                          7.505033 7.3843417 3.8561282,
                          7.5085788 7.3878875 1.211624,
                          7.5085788 7.3878875 3.8116241,
                          7.5334082 7.4127169 4.135231,
                          7.5773506 7.4566593 4.0792761,
                          7.6121063 7.491415 4.0116239,
                          7.6329427 7.5122514 3.948432,
                          7.6457028 7.525012 3.8810833,
                          7.6500001 7.5293088 1.211624,
                          7.6500001 7.5293088 3.8116241,
                          7.6500001 7.5293088 4.0116239,
                          7.6500001 7.5293088 4.2116241,
                          10.15 -4.5706911 4.0116239,
                          10.15 -4.5706911 4.2116241,
                          10.15 4.4636235 4.0116239,
                          10.15 4.4636235 4.2116241,
                          10.175318 4.4934311 4.0076776,
                          10.194504 -4.5706911 4.0066094,
                          10.19664 4.4598141 4.0059686,
                          10.199577 4.5221796 3.9962187,
                          10.202965 4.5210853 4.2037311,
                          10.225918 4.5539079 3.9733548,
                          10.233165 -4.5706911 4.2028832,
                          10.236776 -4.5706911 3.9918177,
                          10.240726 4.4560046 3.9896593,
                          10.24341 4.4598088 4.2003131,
                          10.247644 4.5810218 3.9415023,
                          10.253718 4.5763273 4.1808133,
                          10.263319 4.6020842 3.9023502,
                          10.272158 4.6163101 3.8582642,
                          10.273463 4.623003 1.211624,
                          10.273463 4.623003 3.8116241,
                          10.274698 -4.5706911 3.9679904,
                          10.279879 4.4521952 3.9636824,
                          10.306366 -4.5706911 3.936322,
                          10.309038 4.6370301 4.1350856,
                          10.31173 4.4483857 3.9291468,
                          10.312695 -4.5706911 4.177042,
                          10.330194 -4.5706911 3.8984008,
                          10.331537 4.4560013 4.167695,
                          10.334595 4.4445763 3.8880856,
                          10.344986 -4.5706911 3.8561282,
                          10.346053 4.4414015 3.8506038,
                          10.35 -4.5706911 1.211624,
                          10.35 -4.5706911 3.8116241,
                          10.35 -2.57357 0.011624,
                          10.35 -2.57357 1.211624,
                          10.35 -1.72357 -3.0383761,
                          10.35 -1.72357 0.011624,
                          10.35 -1.7192113 -3.0742733,
                          10.35 -1.7063885 -3.1080844,
                          10.35 -1.6858467 -3.1378443,
                          10.35 -1.6587797 -3.1618235,
                          10.35 -1.6267607 -3.1786284,
                          10.35 -1.5916505 -3.1872823,
                          10.35 -1.5554895 -3.1872823,
                          10.35 -1.5203793 -3.1786284,
                          10.35 -1.4883603 -3.1618235,
                          10.35 -1.4612935 -3.1378443,
                          10.35 -1.4407517 -3.1080844,
                          10.35 -1.4279288 -3.0742733,
                          10.35 -1.42357 -3.0383761,
                          10.35 -1.42357 0.011624,
                          10.35 -0.57357001 0.011624,
                          10.35 -0.57357001 1.211624,
                          10.35 0.52642995 0.011624,
                          10.35 0.52642995 1.211624,
                          10.35 1.3764299 -3.0383761,
                          10.35 1.3764299 0.011624,
                          10.35 1.3807887 -3.0742733,
                          10.35 1.3936116 -3.1080844,
                          10.35 1.4141533 -3.1378443,
                          10.35 1.4412203 -3.1618235,
                          10.35 1.4732392 -3.1786284,
                          10.35 1.5083494 -3.1872823,
                          10.35 1.5445105 -3.1872823,
                          10.35 1.5796207 -3.1786284,
                          10.35 1.6116396 -3.1618235,
                          10.35 1.6387066 -3.1378443,
                          10.35 1.6592484 -3.1080844,
                          10.35 1.6720712 -3.0742733,
                          10.35 1.67643 -3.0383761,
                          10.35 1.67643 0.011624,
                          10.35 2.5264299 0.011624,
                          10.35 2.5264299 1.211624,
                          10.35 4.4382272 1.211624,
                          10.35 4.4382272 3.8116241,
                          10.355166 4.6885433 4.0713887,
                          10.385114 -4.5706911 4.135231,
                          10.389212 4.727972 3.9931612,
                          10.409584 4.7537289 3.9050338,
                          10.409765 4.4521947 4.1157408,
                          10.414885 4.7644243 1.211624,
                          10.414885 4.7644243 3.8116241,
                          10.447258 -4.5706911 4.0792761,
                          10.473461 4.4483867 4.0466981,
                          10.49641 -4.5706911 4.0116239,
                          10.51919 4.4445806 3.9646573,
                          10.525877 -4.5706911 3.948432,
                          10.542108 4.4414067 3.8897078,
                          10.543923 -4.5706911 3.8810833,
                          10.55 -4.5706911 1.211624,
                          10.55 -4.5706911 3.8116241,
                          10.55 -4.5706911 4.0116239,
                          10.55 -4.5706911 4.2116241,
                          10.55 -2.57357 0.011624,
                          10.55 -2.57357 1.211624,
                          10.55 -1.72357 -3.0383761,
                          10.55 -1.72357 0.011624,
                          10.55 -1.7192113 -3.0742733,
                          10.55 -1.7063885 -3.1080844,
                          10.55 -1.6858467 -3.1378443,
                          10.55 -1.6587797 -3.1618235,
                          10.55 -1.6267607 -3.1786284,
                          10.55 -1.5916505 -3.1872823,
                          10.55 -1.5554895 -3.1872823,
                          10.55 -1.5203793 -3.1786284,
                          10.55 -1.4883603 -3.1618235,
                          10.55 -1.4612935 -3.1378443,
                          10.55 -1.4407517 -3.1080844,
                          10.55 -1.4279288 -3.0742733,
                          10.55 -1.42357 -3.0383761,
                          10.55 -1.42357 0.011624,
                          10.55 -0.57357001 0.011624,
                          10.55 -0.57357001 1.211624,
                          10.55 0.52642995 0.011624,
                          10.55 0.52642995 1.211624,
                          10.55 1.3764299 -3.0383761,
                          10.55 1.3764299 0.011624,
                          10.55 1.3807887 -3.0742733,
                          10.55 1.3936116 -3.1080844,
                          10.55 1.4141533 -3.1378443,
                          10.55 1.4412203 -3.1618235,
                          10.55 1.4732392 -3.1786284,
                          10.55 1.5083494 -3.1872823,
                          10.55 1.5445105 -3.1872823,
                          10.55 1.5796207 -3.1786284,
                          10.55 1.6116396 -3.1618235,
                          10.55 1.6387066 -3.1378443,
                          10.55 1.6592484 -3.1080844,
                          10.55 1.6720712 -3.0742733,
                          10.55 1.67643 -3.0383761,
                          10.55 1.67643 0.011624,
                          10.55 2.5264299 0.011624,
                          10.55 2.5264299 1.211624,
                          10.55 4.4382272 1.211624,
                          10.55 4.4382272 3.8116241 ]

                    }
                    normal 
                    Normal {
                      vector [  ]

                    }
                    coordIndex [ 220, 230, 219, -1, 230, 244, 223, -1,
                        219, 230, 223, -1, 244, 296, 229, -1,
                        223, 244, 229, -1, 296, 300, 238, -1,
                        229, 296, 238, -1, 300, 302, 241, -1,
                        238, 300, 241, -1, 302, 304, 245, -1,
                        241, 302, 245, -1, 304, 351, 247, -1,
                        245, 304, 247, -1, 247, 351, 291, -1,
                        225, 197, 220, -1, 232, 199, 225, -1,
                        225, 199, 197, -1, 240, 203, 232, -1,
                        232, 203, 199, -1, 240, 208, 203, -1,
                        292, 209, 240, -1, 240, 209, 208, -1,
                        294, 210, 292, -1, 292, 210, 209, -1,
                        295, 211, 294, -1, 294, 211, 210, -1,
                        298, 212, 295, -1, 295, 212, 211, -1,
                        298, 214, 212, -1, 253, 312, 313, -1,
                        252, 312, 253, -1, 6, 66, 64, -1,
                        8, 66, 6, -1, 9, 67, 8, -1,
                        8, 67, 66, -1, 10, 68, 9, -1,
                        9, 68, 67, -1, 11, 69, 10, -1,
                        10, 69, 68, -1, 12, 70, 11, -1,
                        11, 70, 69, -1, 13, 71, 12, -1,
                        12, 71, 70, -1, 14, 72, 13, -1,
                        13, 72, 71, -1, 15, 73, 14, -1,
                        14, 73, 72, -1, 16, 74, 15, -1,
                        15, 74, 73, -1, 17, 75, 16, -1,
                        16, 75, 74, -1, 18, 76, 17, -1,
                        17, 76, 75, -1, 19, 77, 18, -1,
                        18, 77, 76, -1, 20, 78, 19, -1,
                        19, 78, 77, -1, 217, 178, 219, -1,
                        178, 196, 219, -1, 141, 137, 210, -1,
                        154, 141, 210, -1, 196, 154, 210, -1,
                        210, 137, 215, -1, 2, 50, 156, -1,
                        50, 131, 156, -1, 158, 156, 160, -1,
                        160, 156, 162, -1, 162, 156, 164, -1,
                        164, 156, 166, -1, 166, 156, 168, -1,
                        156, 131, 170, -1, 168, 156, 170, -1,
                        170, 131, 172, -1, 172, 131, 133, -1,
                        184, 182, 194, -1, 186, 184, 194, -1,
                        188, 186, 194, -1, 190, 188, 194, -1,
                        192, 190, 194, -1, 182, 180, 194, -1,
                        174, 172, 154, -1, 172, 133, 154, -1,
                        180, 178, 217, -1, 194, 180, 217, -1,
                        194, 217, 301, -1, 194, 301, 308, -1,
                        176, 174, 196, -1, 178, 176, 196, -1,
                        174, 154, 196, -1, 3, 52, 2, -1,
                        3, 57, 52, -1, 52, 50, 2, -1,
                        3, 109, 57, -1, 3, 123, 109, -1,
                        3, 132, 123, -1, 227, 220, 218, -1,
                        242, 230, 227, -1, 227, 230, 220, -1,
                        293, 244, 242, -1, 242, 244, 230, -1,
                        299, 296, 293, -1, 293, 296, 244, -1,
                        301, 300, 299, -1, 299, 300, 296, -1,
                        303, 302, 301, -1, 301, 302, 300, -1,
                        305, 304, 303, -1, 303, 304, 302, -1,
                        307, 351, 305, -1, 305, 351, 304, -1,
                        222, 217, 219, -1, 228, 222, 223, -1,
                        222, 219, 223, -1, 237, 228, 229, -1,
                        228, 223, 229, -1, 239, 237, 238, -1,
                        237, 229, 238, -1, 243, 239, 241, -1,
                        239, 238, 241, -1, 246, 243, 245, -1,
                        243, 241, 245, -1, 249, 246, 247, -1,
                        246, 245, 247, -1, 249, 247, 291, -1,
                        27, 26, 84, -1, 85, 27, 84, -1,
                        149, 147, 141, -1, 150, 149, 141, -1,
                        151, 150, 141, -1, 153, 151, 141, -1,
                        154, 153, 141, -1, 147, 146, 140, -1,
                        141, 147, 140, -1, 146, 145, 139, -1,
                        140, 146, 139, -1, 139, 145, 136, -1,
                        145, 144, 135, -1, 136, 145, 135, -1,
                        23, 81, 22, -1, 81, 80, 22, -1,
                        248, 251, 311, -1, 306, 248, 311, -1,
                        34, 33, 40, -1, 35, 34, 40, -1,
                        36, 35, 40, -1, 37, 36, 40, -1,
                        38, 37, 40, -1, 39, 38, 40, -1,
                        7, 4, 5, -1, 5, 0, 1, -1,
                        9, 8, 6, -1, 7, 5, 23, -1,
                        10, 9, 6, -1, 11, 10, 6, -1,
                        12, 11, 6, -1, 22, 21, 23, -1,
                        13, 12, 6, -1, 5, 1, 23, -1,
                        21, 7, 23, -1, 13, 6, 14, -1,
                        26, 27, 41, -1, 14, 6, 15, -1,
                        40, 26, 41, -1, 15, 6, 16, -1,
                        27, 24, 25, -1, 16, 6, 17, -1,
                        41, 27, 25, -1, 17, 6, 18, -1,
                        42, 41, 43, -1, 18, 6, 19, -1,
                        41, 25, 43, -1, 19, 6, 20, -1,
                        44, 43, 45, -1, 23, 1, 45, -1,
                        25, 23, 45, -1, 43, 25, 45, -1,
                        6, 7, 21, -1, 20, 6, 21, -1,
                        28, 26, 40, -1, 29, 28, 40, -1,
                        30, 29, 40, -1, 31, 30, 40, -1,
                        32, 31, 40, -1, 33, 32, 40, -1,
                        203, 216, 199, -1, 208, 216, 203, -1,
                        208, 209, 216, -1, 210, 215, 209, -1,
                        209, 215, 216, -1, 199, 216, 197, -1,
                        269, 328, 268, -1, 329, 328, 269, -1,
                        206, 214, 213, -1, 207, 214, 206, -1,
                        205, 212, 207, -1, 207, 212, 214, -1,
                        204, 211, 205, -1, 205, 211, 212, -1,
                        196, 210, 198, -1, 198, 210, 200, -1,
                        200, 210, 201, -1, 201, 210, 202, -1,
                        202, 210, 204, -1, 204, 210, 211, -1,
                        92, 98, 91, -1, 93, 98, 92, -1,
                        94, 98, 93, -1, 95, 98, 94, -1,
                        96, 98, 95, -1, 97, 98, 96, -1,
                        65, 63, 62, -1, 63, 61, 60, -1,
                        67, 64, 66, -1, 65, 81, 63, -1,
                        68, 64, 67, -1, 69, 64, 68, -1,
                        70, 64, 69, -1, 80, 81, 79, -1,
                        71, 64, 70, -1, 63, 81, 61, -1,
                        79, 81, 65, -1, 71, 72, 64, -1,
                        84, 99, 85, -1, 72, 73, 64, -1,
                        98, 99, 84, -1, 73, 74, 64, -1,
                        99, 83, 85, -1, 74, 75, 64, -1,
                        85, 83, 82, -1, 75, 76, 64, -1,
                        99, 101, 83, -1, 76, 77, 64, -1,
                        100, 101, 99, -1, 77, 78, 64, -1,
                        101, 103, 83, -1, 81, 103, 61, -1,
                        83, 103, 81, -1, 102, 103, 101, -1,
                        64, 79, 65, -1, 78, 79, 64, -1,
                        86, 98, 84, -1, 87, 98, 86, -1,
                        88, 98, 87, -1, 89, 98, 88, -1,
                        90, 98, 89, -1, 91, 98, 90, -1,
                        60, 5, 63, -1, 0, 5, 60, -1,
                        26, 86, 84, -1, 28, 86, 26, -1,
                        29, 87, 28, -1, 28, 87, 86, -1,
                        30, 88, 29, -1, 29, 88, 87, -1,
                        31, 89, 30, -1, 30, 89, 88, -1,
                        32, 90, 31, -1, 31, 90, 89, -1,
                        33, 91, 32, -1, 32, 91, 90, -1,
                        34, 92, 33, -1, 33, 92, 91, -1,
                        35, 93, 34, -1, 34, 93, 92, -1,
                        36, 94, 35, -1, 35, 94, 93, -1,
                        37, 95, 36, -1, 36, 95, 94, -1,
                        38, 96, 37, -1, 37, 96, 95, -1,
                        39, 97, 38, -1, 38, 97, 96, -1,
                        40, 98, 39, -1, 39, 98, 97, -1,
                        291, 350, 290, -1, 351, 350, 291, -1,
                        3, 157, 132, -1, 159, 161, 157, -1,
                        161, 163, 157, -1, 163, 165, 157, -1,
                        165, 167, 157, -1, 167, 169, 157, -1,
                        157, 171, 132, -1, 169, 171, 157, -1,
                        171, 173, 132, -1, 173, 134, 132, -1,
                        183, 195, 181, -1, 185, 195, 183, -1,
                        187, 195, 185, -1, 189, 195, 187, -1,
                        191, 195, 189, -1, 193, 195, 191, -1,
                        175, 155, 173, -1, 177, 155, 175, -1,
                        173, 155, 134, -1, 181, 218, 179, -1,
                        195, 218, 181, -1, 195, 309, 218, -1,
                        179, 197, 177, -1, 177, 197, 155, -1,
                        218, 220, 179, -1, 179, 220, 197, -1,
                        155, 216, 138, -1, 197, 216, 155, -1,
                        53, 54, 135, -1, 54, 136, 135, -1,
                        169, 166, 168, -1, 167, 166, 169, -1,
                        165, 164, 167, -1, 167, 164, 166, -1,
                        163, 162, 165, -1, 165, 162, 164, -1,
                        161, 160, 163, -1, 163, 160, 162, -1,
                        159, 158, 161, -1, 161, 158, 160, -1,
                        157, 156, 159, -1, 159, 156, 158, -1,
                        62, 4, 7, -1, 62, 7, 65, -1,
                        7, 6, 64, -1, 65, 7, 64, -1,
                        5, 4, 62, -1, 63, 5, 62, -1,
                        114, 145, 115, -1, 114, 144, 145, -1,
                        114, 135, 144, -1, 53, 135, 114, -1,
                        21, 79, 20, -1, 79, 78, 20, -1,
                        21, 22, 80, -1, 79, 21, 80, -1,
                        25, 24, 82, -1, 83, 25, 82, -1,
                        24, 27, 85, -1, 82, 24, 85, -1,
                        41, 99, 40, -1, 99, 98, 40, -1,
                        99, 41, 42, -1, 99, 42, 100, -1,
                        43, 101, 42, -1, 101, 100, 42, -1,
                        103, 102, 44, -1, 45, 103, 44, -1,
                        134, 126, 133, -1, 126, 116, 130, -1,
                        133, 126, 130, -1, 116, 108, 127, -1,
                        130, 116, 127, -1, 108, 59, 122, -1,
                        127, 108, 122, -1, 59, 56, 120, -1,
                        122, 59, 120, -1, 56, 55, 119, -1,
                        120, 56, 119, -1, 55, 54, 117, -1,
                        119, 55, 117, -1, 117, 54, 115, -1,
                        152, 134, 155, -1, 148, 126, 152, -1,
                        152, 126, 134, -1, 143, 116, 148, -1,
                        148, 116, 126, -1, 142, 108, 143, -1,
                        143, 108, 116, -1, 141, 59, 142, -1,
                        142, 59, 108, -1, 140, 56, 141, -1,
                        141, 56, 59, -1, 139, 55, 140, -1,
                        140, 55, 56, -1, 136, 54, 139, -1,
                        139, 54, 55, -1, 115, 53, 114, -1,
                        54, 53, 115, -1, 345, 286, 346, -1,
                        344, 285, 345, -1, 345, 285, 286, -1,
                        343, 284, 344, -1, 344, 284, 285, -1,
                        342, 283, 343, -1, 343, 283, 284, -1,
                        341, 282, 342, -1, 342, 282, 283, -1,
                        340, 281, 341, -1, 341, 281, 282, -1,
                        339, 280, 340, -1, 340, 280, 281, -1,
                        338, 279, 339, -1, 339, 279, 280, -1,
                        337, 278, 338, -1, 338, 278, 279, -1,
                        336, 277, 337, -1, 337, 277, 278, -1,
                        335, 276, 336, -1, 336, 276, 277, -1,
                        334, 275, 335, -1, 335, 275, 276, -1,
                        334, 274, 275, -1, 332, 272, 334, -1,
                        334, 272, 274, -1, 267, 326, 266, -1,
                        327, 326, 267, -1, 287, 346, 286, -1,
                        347, 346, 287, -1, 284, 286, 285, -1,
                        250, 251, 253, -1, 248, 249, 251, -1,
                        249, 269, 251, -1, 254, 252, 255, -1,
                        267, 269, 268, -1, 255, 252, 256, -1,
                        253, 269, 267, -1, 256, 252, 257, -1,
                        251, 269, 253, -1, 257, 252, 258, -1,
                        258, 252, 259, -1, 252, 260, 259, -1,
                        273, 287, 272, -1, 272, 287, 286, -1,
                        252, 261, 260, -1, 270, 271, 273, -1,
                        252, 262, 261, -1, 252, 263, 262, -1,
                        287, 289, 288, -1, 252, 264, 263, -1,
                        271, 289, 273, -1, 273, 289, 287, -1,
                        252, 265, 264, -1, 252, 266, 265, -1,
                        289, 291, 290, -1, 249, 291, 269, -1,
                        269, 291, 271, -1, 271, 291, 289, -1,
                        253, 267, 252, -1, 252, 267, 266, -1,
                        272, 286, 274, -1, 274, 286, 275, -1,
                        275, 286, 276, -1, 276, 286, 277, -1,
                        277, 286, 278, -1, 278, 286, 279, -1,
                        279, 286, 280, -1, 280, 286, 281, -1,
                        281, 286, 282, -1, 282, 286, 283, -1,
                        283, 286, 284, -1, 81, 25, 83, -1,
                        23, 25, 81, -1, 310, 250, 313, -1,
                        313, 250, 253, -1, 235, 206, 297, -1,
                        297, 206, 213, -1, 235, 297, 298, -1,
                        236, 235, 298, -1, 148, 138, 143, -1,
                        152, 138, 148, -1, 155, 138, 152, -1,
                        138, 142, 143, -1, 142, 137, 141, -1,
                        138, 137, 142, -1, 325, 266, 326, -1,
                        324, 265, 325, -1, 325, 265, 266, -1,
                        323, 264, 324, -1, 324, 264, 265, -1,
                        322, 263, 323, -1, 323, 263, 264, -1,
                        321, 262, 322, -1, 322, 262, 263, -1,
                        320, 261, 321, -1, 321, 261, 262, -1,
                        319, 260, 320, -1, 320, 260, 261, -1,
                        318, 259, 319, -1, 319, 259, 260, -1,
                        317, 258, 318, -1, 318, 258, 259, -1,
                        316, 257, 317, -1, 317, 257, 258, -1,
                        315, 256, 316, -1, 316, 256, 257, -1,
                        314, 255, 315, -1, 315, 255, 256, -1,
                        314, 254, 255, -1, 312, 252, 314, -1,
                        314, 252, 254, -1, 195, 192, 194, -1,
                        193, 192, 195, -1, 191, 190, 193, -1,
                        193, 190, 192, -1, 189, 188, 191, -1,
                        191, 188, 190, -1, 187, 186, 189, -1,
                        189, 186, 188, -1, 185, 184, 187, -1,
                        187, 184, 186, -1, 183, 182, 185, -1,
                        185, 182, 184, -1, 344, 345, 346, -1,
                        310, 313, 311, -1, 306, 311, 307, -1,
                        311, 313, 329, -1, 307, 311, 329, -1,
                        314, 315, 312, -1, 315, 316, 312, -1,
                        327, 328, 329, -1, 316, 317, 312, -1,
                        313, 327, 329, -1, 317, 318, 312, -1,
                        318, 319, 312, -1, 312, 319, 320, -1,
                        332, 346, 347, -1, 333, 332, 347, -1,
                        312, 320, 321, -1, 330, 333, 331, -1,
                        312, 321, 322, -1, 312, 322, 323, -1,
                        331, 333, 349, -1, 312, 323, 324, -1,
                        333, 347, 349, -1, 347, 348, 349, -1,
                        312, 324, 325, -1, 312, 325, 326, -1,
                        307, 329, 351, -1, 329, 331, 351, -1,
                        331, 349, 351, -1, 349, 350, 351, -1,
                        313, 312, 327, -1, 312, 326, 327, -1,
                        332, 334, 346, -1, 334, 335, 346, -1,
                        335, 336, 346, -1, 336, 337, 346, -1,
                        337, 338, 346, -1, 338, 339, 346, -1,
                        339, 340, 346, -1, 340, 341, 346, -1,
                        341, 342, 346, -1, 342, 343, 346, -1,
                        343, 344, 346, -1, 129, 133, 131, -1,
                        125, 129, 128, -1, 129, 131, 128, -1,
                        118, 125, 121, -1, 125, 128, 121, -1,
                        112, 118, 113, -1, 118, 121, 113, -1,
                        107, 112, 110, -1, 112, 113, 110, -1,
                        105, 107, 106, -1, 107, 110, 106, -1,
                        103, 105, 104, -1, 105, 106, 104, -1,
                        103, 104, 61, -1, 45, 47, 103, -1,
                        47, 49, 105, -1, 103, 47, 105, -1,
                        49, 51, 107, -1, 105, 49, 107, -1,
                        51, 58, 112, -1, 107, 51, 112, -1,
                        58, 111, 118, -1, 112, 58, 118, -1,
                        111, 124, 125, -1, 118, 111, 125, -1,
                        124, 134, 129, -1, 125, 124, 129, -1,
                        129, 134, 133, -1, 124, 132, 134, -1,
                        111, 123, 124, -1, 124, 123, 132, -1,
                        58, 109, 111, -1, 111, 109, 123, -1,
                        58, 57, 109, -1, 51, 52, 58, -1,
                        58, 52, 57, -1, 49, 50, 51, -1,
                        51, 50, 52, -1, 47, 48, 49, -1,
                        49, 48, 50, -1, 45, 46, 47, -1,
                        47, 46, 48, -1, 45, 1, 46, -1,
                        216, 215, 138, -1, 138, 215, 137, -1,
                        289, 348, 288, -1, 349, 348, 289, -1,
                        347, 287, 348, -1, 348, 287, 288, -1,
                        251, 310, 311, -1, 250, 310, 251, -1,
                        273, 332, 333, -1, 272, 332, 273, -1,
                        330, 270, 333, -1, 333, 270, 273, -1,
                        242, 309, 293, -1, 227, 309, 242, -1,
                        218, 309, 227, -1, 309, 299, 293, -1,
                        299, 308, 301, -1, 309, 308, 299, -1,
                        271, 330, 331, -1, 270, 330, 271, -1,
                        131, 50, 128, -1, 128, 50, 121, -1,
                        121, 50, 113, -1, 113, 50, 110, -1,
                        110, 50, 106, -1, 106, 48, 104, -1,
                        50, 48, 106, -1, 104, 46, 61, -1,
                        48, 46, 104, -1, 46, 1, 61, -1,
                        61, 0, 60, -1, 1, 0, 61, -1,
                        214, 298, 213, -1, 298, 297, 213, -1,
                        236, 206, 235, -1, 207, 206, 236, -1,
                        221, 219, 196, -1, 224, 221, 198, -1,
                        221, 196, 198, -1, 226, 224, 200, -1,
                        224, 198, 200, -1, 231, 226, 201, -1,
                        226, 200, 201, -1, 233, 231, 202, -1,
                        231, 201, 202, -1, 234, 233, 204, -1,
                        233, 202, 204, -1, 236, 234, 205, -1,
                        234, 204, 205, -1, 236, 205, 207, -1,
                        298, 295, 236, -1, 295, 294, 234, -1,
                        236, 295, 234, -1, 294, 292, 233, -1,
                        234, 294, 233, -1, 292, 240, 231, -1,
                        233, 292, 231, -1, 240, 232, 226, -1,
                        231, 240, 226, -1, 232, 225, 224, -1,
                        226, 232, 224, -1, 225, 220, 221, -1,
                        224, 225, 221, -1, 221, 220, 219, -1,
                        239, 243, 301, -1, 237, 239, 301, -1,
                        228, 237, 301, -1, 222, 228, 301, -1,
                        217, 222, 301, -1, 243, 246, 303, -1,
                        301, 243, 303, -1, 246, 249, 305, -1,
                        303, 246, 305, -1, 305, 249, 307, -1,
                        249, 248, 306, -1, 307, 249, 306, -1,
                        3, 2, 157, -1, 157, 2, 156, -1,
                        169, 168, 170, -1, 171, 169, 170, -1,
                        173, 171, 172, -1, 171, 170, 172, -1,
                        175, 173, 174, -1, 177, 175, 174, -1,
                        173, 172, 174, -1, 179, 177, 176, -1,
                        177, 174, 176, -1, 181, 179, 178, -1,
                        179, 176, 178, -1, 183, 181, 180, -1,
                        181, 178, 180, -1, 183, 180, 182, -1,
                        195, 308, 309, -1, 194, 308, 195, -1,
                        269, 271, 331, -1, 329, 269, 331, -1,
                        349, 289, 290, -1, 349, 290, 350, -1,
                        101, 44, 102, -1, 43, 44, 101, -1,
                        327, 267, 328, -1, 328, 267, 268, -1,
                        153, 154, 133, -1, 151, 153, 130, -1,
                        153, 133, 130, -1, 150, 151, 127, -1,
                        151, 130, 127, -1, 149, 150, 122, -1,
                        150, 127, 122, -1, 147, 149, 120, -1,
                        149, 122, 120, -1, 146, 147, 119, -1,
                        147, 120, 119, -1, 145, 146, 117, -1,
                        146, 119, 117, -1, 145, 117, 115, -1 ]
                    ccw TRUE
                    solid FALSE
                    convex TRUE
                    creaseAngle 0

                  }

                }

            }

        }

    }

}
