(module Antenna_Johanson_2450AT07A0100 (layer F.Cu) (tedit 5FF885E0)
  (descr "Johanson 2450AT07A0100")
  (tags "chip antenna")
  (zone_connect 2)
  (attr smd)
  (fp_text reference REF** (at 3 1) (layer F.SilkS)
    (effects (font (size 1 1) (thickness 0.15)))
  )
  (fp_text value Antenna_Johanson_2450AT07A0100 (at 0 -1.8) (layer F.Fab)
    (effects (font (size 1 1) (thickness 0.15)))
  )
  (fp_poly (pts (xy 0.35 0.5) (xy -0.35 0.5) (xy -0.35 0.15) (xy 0.35 0.15)) (layer F.Fab) (width 0.1))
  (fp_line (start -0.35 0.5) (end -0.35 -0.5) (layer F.Fab) (width 0.1))
  (fp_line (start 0.35 0.5) (end -0.35 0.5) (layer F.Fab) (width 0.1))
  (fp_line (start 0.35 -0.5) (end 0.35 0.5) (layer F.Fab) (width 0.1))
  (fp_line (start -0.35 -0.5) (end 0.35 -0.5) (layer F.Fab) (width 0.1))
  (fp_poly (pts (xy 3.8 -0.15) (xy 0.05 -0.15) (xy 0.05 -0.85) (xy 3.8 -0.85)) (layer F.Cu) (width 0))
  (fp_poly (pts (xy -0.05 -0.15) (xy -0.7 -0.15) (xy -0.7 -0.85) (xy -0.05 -0.85)) (layer F.Cu) (width 0))
  (fp_poly (pts (xy 0.55 0.85) (xy -0.7 0.85) (xy -0.7 0.15) (xy 0.55 0.15)) (layer F.Cu) (width 0))
  (fp_line (start -0.95 -0.95) (end -0.95 2.05) (layer F.CrtYd) (width 0.05))
  (fp_line (start -0.95 2.05) (end 4.05 2.05) (layer F.CrtYd) (width 0.05))
  (fp_line (start 4.05 2.05) (end 4.05 -0.95) (layer F.CrtYd) (width 0.05))
  (fp_line (start 4.05 -0.95) (end -0.95 -0.95) (layer F.CrtYd) (width 0.05))
  (fp_poly (pts (xy 0.3 0.45) (xy -0.3 0.45) (xy -0.3 -0.45) (xy 0.3 -0.45)) (layer F.Mask) (width 0))
  (fp_poly (pts (xy 0.3 0.45) (xy 0.05 0.45) (xy 0.05 0.15) (xy 0.3 0.15)) (layer F.Paste) (width 0))
  (fp_poly (pts (xy -0.05 0.45) (xy -0.3 0.45) (xy -0.3 0.15) (xy -0.05 0.15)) (layer F.Paste) (width 0))
  (fp_poly (pts (xy -0.05 -0.15) (xy -0.3 -0.15) (xy -0.3 -0.45) (xy -0.05 -0.45)) (layer F.Paste) (width 0))
  (fp_poly (pts (xy 0.3 -0.15) (xy 0.05 -0.15) (xy 0.05 -0.45) (xy 0.3 -0.45)) (layer F.Paste) (width 0))
  (fp_line (start 0.5 1) (end -0.5 1) (layer F.SilkS) (width 0.12))
  (fp_text user %R (at 3 0) (layer F.Fab)
    (effects (font (size 1 1) (thickness 0.15)))
  )
  (pad 1 smd rect (at -0.8 0.5) (size 0.3 0.7) (layers F.Cu)
    (zone_connect 2))
  (pad 2 smd rect (at -0.8 -0.5) (size 0.3 0.7) (layers F.Cu)
    (zone_connect 2))
  (pad 2 smd rect (at 3.9 -0.5) (size 0.3 0.7) (layers F.Cu)
    (zone_connect 2))
  (model ${KIPRJMOD}/../raystack.3dshapes/Johanson_2450AT07A0100.step
    (at (xyz 0 0 0))
    (scale (xyz 1 1 1))
    (rotate (xyz 0 0 -90))
  )
)
