(module Molex_51281-0594_1x05_P0.5mm_Horizontal (layer F.Cu) (tedit 5DBF2F1B)
  (descr "Molex 0.50mm Pitch Easy-On FFC/FPC Connector, Surface Mount, Right-Angle, Non-ZIF, Dual Contact Style, 1.20mm Mated Height, 5 Circuits, Gold (Au) Plating")
  (tags "molex FFC/FPC connector Pitch 0.5mm right angle")
  (attr smd)
  (fp_text reference REF** (at 0 -3.4) (layer F.SilkS)
    (effects (font (size 1 1) (thickness 0.15)))
  )
  (fp_text value Molex_51281-0594_1x05_P0.5mm_Horizontal (at 0 2.5) (layer F.Fab)
    (effects (font (size 1 1) (thickness 0.15)))
  )
  (fp_line (start -1 -1.6) (end -0.7 -2) (layer F.Fab) (width 0.1))
  (fp_line (start -1.3 -2) (end -1 -1.6) (layer F.Fab) (width 0.1))
  (fp_text user %R (at 0 0) (layer F.Fab)
    (effects (font (size 1 1) (thickness 0.15)))
  )
  (fp_line (start -2.5 1.6) (end -2.5 -2.7) (layer F.CrtYd) (width 0.05))
  (fp_line (start 2.5 1.6) (end -2.5 1.6) (layer F.CrtYd) (width 0.05))
  (fp_line (start 2.5 -2.7) (end 2.5 1.6) (layer F.CrtYd) (width 0.05))
  (fp_line (start -2.5 -2.7) (end 2.5 -2.7) (layer F.CrtYd) (width 0.05))
  (fp_line (start -2.3 -2.3) (end -1.9 -2.3) (layer F.Fab) (width 0.1))
  (fp_line (start -2.3 -2.3) (end -2.3 1.55) (layer F.Fab) (width 0.1))
  (fp_line (start 1.9 -2) (end -1.9 -2) (layer F.Fab) (width 0.1))
  (fp_line (start -2.3 1.55) (end 2.3 1.55) (layer F.Fab) (width 0.1))
  (fp_line (start 2.3 1.55) (end 2.3 -2.3) (layer F.Fab) (width 0.1))
  (fp_line (start -1.9 -2.3) (end -1.9 -2) (layer F.Fab) (width 0.1))
  (fp_line (start 2.3 -2.3) (end 1.9 -2.3) (layer F.Fab) (width 0.1))
  (fp_line (start 1.9 -2.3) (end 1.9 -2) (layer F.Fab) (width 0.1))
  (fp_line (start -1.3 -2.1) (end -1.8 -2.1) (layer F.SilkS) (width 0.12))
  (fp_line (start -1.8 -2.1) (end -1.8 -2.4) (layer F.SilkS) (width 0.12))
  (fp_line (start -1.8 -2.4) (end -2.4 -2.4) (layer F.SilkS) (width 0.12))
  (fp_line (start -2.4 -2.4) (end -2.4 1.5) (layer F.SilkS) (width 0.12))
  (fp_line (start 1.3 -2.1) (end 1.8 -2.1) (layer F.SilkS) (width 0.12))
  (fp_line (start 1.8 -2.1) (end 1.8 -2.4) (layer F.SilkS) (width 0.12))
  (fp_line (start 1.8 -2.4) (end 2.4 -2.4) (layer F.SilkS) (width 0.12))
  (fp_line (start 2.4 -2.4) (end 2.4 1.5) (layer F.SilkS) (width 0.12))
  (pad 1 smd rect (at -1 -2.3) (size 0.35 0.8) (layers F.Cu F.Paste F.Mask))
  (pad 2 smd rect (at -0.5 -2.3) (size 0.35 0.8) (layers F.Cu F.Paste F.Mask))
  (pad 3 smd rect (at 0 -2.3) (size 0.35 0.8) (layers F.Cu F.Paste F.Mask))
  (pad 4 smd rect (at 0.5 -2.3) (size 0.35 0.8) (layers F.Cu F.Paste F.Mask))
  (pad 5 smd rect (at 1 -2.3) (size 0.35 0.8) (layers F.Cu F.Paste F.Mask))
  (pad MP smd rect (at -1.9 0) (size 0.6 2.6) (layers F.Cu F.Paste F.Mask))
  (pad MP smd rect (at 1.9 0) (size 0.6 2.6) (layers F.Cu F.Paste F.Mask))
  (model ${KIPRJMOD}/raybeacon.3dshapes/Molex_51281-0594_1x05_P0.5mm_Horizontal.step
    (at (xyz 0 0 0))
    (scale (xyz 1 1 1))
    (rotate (xyz 0 0 0))
  )
)
