(module MountingHole_0.4mm (layer F.Cu) (tedit 5DBD97EE)
  (descr "Mounting Hole 0.4mm, no annular")
  (tags "mounting hole 0.4mm no annular")
  (attr virtual)
  (fp_text reference REF** (at 0 -1.4) (layer F.SilkS) hide
    (effects (font (size 1 1) (thickness 0.15)))
  )
  (fp_text value MountingHole_0.4mm (at 0 1.4) (layer F.Fab) hide
    (effects (font (size 1 1) (thickness 0.15)))
  )
  (fp_text user %R (at 0 0) (layer F.Fab) hide
    (effects (font (size 1 1) (thickness 0.15)))
  )
  (fp_circle (center 0 0) (end 0.3 0) (layer F.CrtYd) (width 0.05))
  (pad "" np_thru_hole circle (at 0 0) (size 0.4 0.4) (drill 0.4) (layers *.Cu *.Mask))
)
