(module Nordic_AQFN-94-1EP_7x7mm_P0.4mm (layer F.Cu) (tedit 60116ADC)
  (descr "Nordic nRF5340 aQFN-94, https://infocenter.nordicsemi.com/pdf/nRF5340_PS_v1.0.pdf")
  (tags "aQFN 7mm")
  (attr smd)
  (fp_text reference REF** (at 0 -4.6) (layer F.SilkS)
    (effects (font (size 1 1) (thickness 0.15)))
  )
  (fp_text value Nordic_AQFN-94-1EP_7x7mm_P0.4mm (at 0 4.8) (layer F.Fab)
    (effects (font (size 1 1) (thickness 0.15)))
  )
  (fp_line (start -3.6 -3.6) (end -2.8 -3.6) (layer F.SilkS) (width 0.12))
  (fp_line (start -3.8 3.8) (end -3.8 -3.8) (layer F.CrtYd) (width 0.05))
  (fp_line (start 3.8 3.8) (end -3.8 3.8) (layer F.CrtYd) (width 0.05))
  (fp_line (start 3.8 -3.8) (end 3.8 3.8) (layer F.CrtYd) (width 0.05))
  (fp_line (start -3.8 -3.8) (end 3.8 -3.8) (layer F.CrtYd) (width 0.05))
  (fp_line (start -3 -3.5) (end -3.5 -3) (layer F.Fab) (width 0.1))
  (fp_line (start -3.5 3.5) (end 3.5 3.5) (layer F.Fab) (width 0.1))
  (fp_line (start 3.5 3.5) (end 3.5 -3.5) (layer F.Fab) (width 0.1))
  (fp_line (start 3.5 -3.5) (end -3 -3.5) (layer F.Fab) (width 0.1))
  (fp_line (start -3.5 -3) (end -3.5 3.5) (layer F.Fab) (width 0.1))
  (fp_line (start 3.6 -3.6) (end 3.6 -2.8) (layer F.SilkS) (width 0.12))
  (fp_line (start 3.6 -3.6) (end 2.8 -3.6) (layer F.SilkS) (width 0.12))
  (fp_line (start 3.6 3.6) (end 3.6 2.8) (layer F.SilkS) (width 0.12))
  (fp_line (start 3.6 3.6) (end 2.8 3.6) (layer F.SilkS) (width 0.12))
  (fp_line (start -2.8 3.6) (end -3.6 3.6) (layer F.SilkS) (width 0.12))
  (fp_line (start -3.6 3.6) (end -3.6 2.8) (layer F.SilkS) (width 0.12))
  (fp_text user %R (at 0 0) (layer F.Fab)
    (effects (font (size 1 1) (thickness 0.15)))
  )
  (pad B2 smd circle (at -2.8 -2.8) (size 0.2 0.2) (layers F.Cu F.Paste F.Mask)
    (solder_mask_margin 0.03))
  (pad D2 smd circle (at -2.8 -2.4) (size 0.2 0.2) (layers F.Cu F.Paste F.Mask)
    (solder_mask_margin 0.03))
  (pad F2 smd circle (at -2.8 -2) (size 0.2 0.2) (layers F.Cu F.Paste F.Mask)
    (solder_mask_margin 0.03))
  (pad H2 smd circle (at -2.8 -1.6) (size 0.2 0.2) (layers F.Cu F.Paste F.Mask)
    (solder_mask_margin 0.03))
  (pad K2 smd circle (at -2.8 -1.2) (size 0.2 0.2) (layers F.Cu F.Paste F.Mask)
    (solder_mask_margin 0.03))
  (pad M2 smd circle (at -2.8 -0.8) (size 0.2 0.2) (layers F.Cu F.Paste F.Mask)
    (solder_mask_margin 0.03))
  (pad P2 smd circle (at -2.8 -0.4) (size 0.2 0.2) (layers F.Cu F.Paste F.Mask)
    (solder_mask_margin 0.03))
  (pad T2 smd circle (at -2.8 0) (size 0.2 0.2) (layers F.Cu F.Paste F.Mask)
    (solder_mask_margin 0.03))
  (pad C1 smd circle (at -3.2 -2.6) (size 0.2 0.2) (layers F.Cu F.Paste F.Mask)
    (solder_mask_margin 0.03))
  (pad V2 smd circle (at -2.8 0.4) (size 0.2 0.2) (layers F.Cu F.Paste F.Mask)
    (solder_mask_margin 0.03))
  (pad Y2 smd circle (at -2.8 0.8) (size 0.2 0.2) (layers F.Cu F.Paste F.Mask)
    (solder_mask_margin 0.03))
  (pad AB2 smd circle (at -2.8 1.2) (size 0.2 0.2) (layers F.Cu F.Paste F.Mask)
    (solder_mask_margin 0.03))
  (pad AD2 smd circle (at -2.8 1.6) (size 0.2 0.2) (layers F.Cu F.Paste F.Mask)
    (solder_mask_margin 0.03))
  (pad AF2 smd circle (at -2.8 2) (size 0.2 0.2) (layers F.Cu F.Paste F.Mask)
    (solder_mask_margin 0.03))
  (pad AH2 smd circle (at -2.8 2.4) (size 0.2 0.2) (layers F.Cu F.Paste F.Mask)
    (solder_mask_margin 0.03))
  (pad AK2 smd circle (at -2.8 2.8) (size 0.2 0.2) (layers F.Cu F.Paste F.Mask)
    (solder_mask_margin 0.03))
  (pad E1 smd circle (at -3.2 -2.2) (size 0.2 0.2) (layers F.Cu F.Paste F.Mask)
    (solder_mask_margin 0.03))
  (pad G1 smd circle (at -3.2 -1.8) (size 0.2 0.2) (layers F.Cu F.Paste F.Mask)
    (solder_mask_margin 0.03))
  (pad J1 smd circle (at -3.2 -1.4) (size 0.2 0.2) (layers F.Cu F.Paste F.Mask)
    (solder_mask_margin 0.03))
  (pad L1 smd circle (at -3.2 -1) (size 0.2 0.2) (layers F.Cu F.Paste F.Mask)
    (solder_mask_margin 0.03))
  (pad N1 smd circle (at -3.2 -0.6) (size 0.2 0.2) (layers F.Cu F.Paste F.Mask)
    (solder_mask_margin 0.03))
  (pad R1 smd circle (at -3.2 -0.2) (size 0.2 0.2) (layers F.Cu F.Paste F.Mask)
    (solder_mask_margin 0.03))
  (pad U1 smd circle (at -3.2 0.2) (size 0.2 0.2) (layers F.Cu F.Paste F.Mask)
    (solder_mask_margin 0.03))
  (pad W1 smd circle (at -3.2 0.6) (size 0.2 0.2) (layers F.Cu F.Paste F.Mask)
    (solder_mask_margin 0.03))
  (pad AA1 smd circle (at -3.2 1) (size 0.2 0.2) (layers F.Cu F.Paste F.Mask)
    (solder_mask_margin 0.03))
  (pad AC1 smd circle (at -3.2 1.4) (size 0.2 0.2) (layers F.Cu F.Paste F.Mask)
    (solder_mask_margin 0.03))
  (pad AE1 smd circle (at -3.2 1.8) (size 0.2 0.2) (layers F.Cu F.Paste F.Mask)
    (solder_mask_margin 0.03))
  (pad AG1 smd circle (at -3.2 2.2) (size 0.2 0.2) (layers F.Cu F.Paste F.Mask)
    (solder_mask_margin 0.03))
  (pad AJ1 smd circle (at -3.2 2.6) (size 0.2 0.2) (layers F.Cu F.Paste F.Mask)
    (solder_mask_margin 0.03))
  (pad B4 smd circle (at -2.4 -2.8) (size 0.2 0.2) (layers F.Cu F.Paste F.Mask)
    (solder_mask_margin 0.03))
  (pad A5 smd circle (at -2.2 -3.2) (size 0.2 0.2) (layers F.Cu F.Paste F.Mask)
    (solder_mask_margin 0.03))
  (pad B6 smd circle (at -2 -2.8) (size 0.2 0.2) (layers F.Cu F.Paste F.Mask)
    (solder_mask_margin 0.03))
  (pad B8 smd circle (at -1.6 -2.8) (size 0.2 0.2) (layers F.Cu F.Paste F.Mask)
    (solder_mask_margin 0.03))
  (pad B10 smd circle (at -1.2 -2.8) (size 0.2 0.2) (layers F.Cu F.Paste F.Mask)
    (solder_mask_margin 0.03))
  (pad B12 smd circle (at -0.8 -2.8) (size 0.2 0.2) (layers F.Cu F.Paste F.Mask)
    (solder_mask_margin 0.03))
  (pad B14 smd circle (at -0.4 -2.8) (size 0.2 0.2) (layers F.Cu F.Paste F.Mask)
    (solder_mask_margin 0.03))
  (pad B16 smd circle (at 0 -2.8) (size 0.2 0.2) (layers F.Cu F.Paste F.Mask)
    (solder_mask_margin 0.03))
  (pad B18 smd circle (at 0.4 -2.8) (size 0.2 0.2) (layers F.Cu F.Paste F.Mask)
    (solder_mask_margin 0.03))
  (pad B20 smd circle (at 0.8 -2.8) (size 0.2 0.2) (layers F.Cu F.Paste F.Mask)
    (solder_mask_margin 0.03))
  (pad B22 smd circle (at 1.2 -2.8) (size 0.2 0.2) (layers F.Cu F.Paste F.Mask)
    (solder_mask_margin 0.03))
  (pad B24 smd circle (at 1.6 -2.8) (size 0.2 0.2) (layers F.Cu F.Paste F.Mask)
    (solder_mask_margin 0.03))
  (pad B26 smd circle (at 2 -2.8) (size 0.2 0.2) (layers F.Cu F.Paste F.Mask)
    (solder_mask_margin 0.03))
  (pad B28 smd circle (at 2.4 -2.8) (size 0.2 0.2) (layers F.Cu F.Paste F.Mask)
    (solder_mask_margin 0.03))
  (pad B30 smd circle (at 2.8 -2.8) (size 0.2 0.2) (layers F.Cu F.Paste F.Mask)
    (solder_mask_margin 0.03))
  (pad A13 smd circle (at -0.6 -3.2) (size 0.2 0.2) (layers F.Cu F.Paste F.Mask)
    (solder_mask_margin 0.03))
  (pad A15 smd circle (at -0.2 -3.2) (size 0.2 0.2) (layers F.Cu F.Paste F.Mask)
    (solder_mask_margin 0.03))
  (pad A17 smd circle (at 0.2 -3.2) (size 0.2 0.2) (layers F.Cu F.Paste F.Mask)
    (solder_mask_margin 0.03))
  (pad A19 smd circle (at 0.6 -3.2) (size 0.2 0.2) (layers F.Cu F.Paste F.Mask)
    (solder_mask_margin 0.03))
  (pad A21 smd circle (at 1 -3.2) (size 0.2 0.2) (layers F.Cu F.Paste F.Mask)
    (solder_mask_margin 0.03))
  (pad A23 smd circle (at 1.4 -3.2) (size 0.2 0.2) (layers F.Cu F.Paste F.Mask)
    (solder_mask_margin 0.03))
  (pad A25 smd circle (at 1.8 -3.2) (size 0.2 0.2) (layers F.Cu F.Paste F.Mask)
    (solder_mask_margin 0.03))
  (pad A27 smd circle (at 2.2 -3.2) (size 0.2 0.2) (layers F.Cu F.Paste F.Mask)
    (solder_mask_margin 0.03))
  (pad C31 smd circle (at 3.2 -2.6) (size 0.2 0.2) (layers F.Cu F.Paste F.Mask)
    (solder_mask_margin 0.03))
  (pad E31 smd circle (at 3.2 -2.2) (size 0.2 0.2) (layers F.Cu F.Paste F.Mask)
    (solder_mask_margin 0.03))
  (pad G31 smd circle (at 3.2 -1.8) (size 0.2 0.2) (layers F.Cu F.Paste F.Mask)
    (solder_mask_margin 0.03))
  (pad J31 smd circle (at 3.2 -1.4) (size 0.2 0.2) (layers F.Cu F.Paste F.Mask)
    (solder_mask_margin 0.03))
  (pad L31 smd circle (at 3.2 -1) (size 0.2 0.2) (layers F.Cu F.Paste F.Mask)
    (solder_mask_margin 0.03))
  (pad N31 smd circle (at 3.2 -0.6) (size 0.2 0.2) (layers F.Cu F.Paste F.Mask)
    (solder_mask_margin 0.03))
  (pad R31 smd circle (at 3.2 -0.2) (size 0.2 0.2) (layers F.Cu F.Paste F.Mask)
    (solder_mask_margin 0.03))
  (pad U31 smd circle (at 3.2 0.2) (size 0.2 0.2) (layers F.Cu F.Paste F.Mask)
    (solder_mask_margin 0.03))
  (pad W31 smd circle (at 3.2 0.6) (size 0.2 0.2) (layers F.Cu F.Paste F.Mask)
    (solder_mask_margin 0.03))
  (pad AA31 smd circle (at 3.2 1) (size 0.2 0.2) (layers F.Cu F.Paste F.Mask)
    (solder_mask_margin 0.03))
  (pad AC31 smd circle (at 3.2 1.4) (size 0.2 0.2) (layers F.Cu F.Paste F.Mask)
    (solder_mask_margin 0.03))
  (pad AE31 smd circle (at 3.2 1.8) (size 0.2 0.2) (layers F.Cu F.Paste F.Mask)
    (solder_mask_margin 0.03))
  (pad AG31 smd circle (at 3.2 2.2) (size 0.2 0.2) (layers F.Cu F.Paste F.Mask)
    (solder_mask_margin 0.03))
  (pad AJ31 smd circle (at 3.2 2.6) (size 0.2 0.2) (layers F.Cu F.Paste F.Mask)
    (solder_mask_margin 0.03))
  (pad AK4 smd circle (at -2.4 2.8) (size 0.2 0.2) (layers F.Cu F.Paste F.Mask)
    (solder_mask_margin 0.03))
  (pad AK6 smd circle (at -2 2.8) (size 0.2 0.2) (layers F.Cu F.Paste F.Mask)
    (solder_mask_margin 0.03))
  (pad AK8 smd circle (at -1.6 2.8) (size 0.2 0.2) (layers F.Cu F.Paste F.Mask)
    (solder_mask_margin 0.03))
  (pad AK10 smd circle (at -1.2 2.8) (size 0.2 0.2) (layers F.Cu F.Paste F.Mask)
    (solder_mask_margin 0.03))
  (pad AK12 smd circle (at -0.8 2.8) (size 0.2 0.2) (layers F.Cu F.Paste F.Mask)
    (solder_mask_margin 0.03))
  (pad AK14 smd circle (at -0.4 2.8) (size 0.2 0.2) (layers F.Cu F.Paste F.Mask)
    (solder_mask_margin 0.03))
  (pad AK16 smd circle (at 0 2.8) (size 0.2 0.2) (layers F.Cu F.Paste F.Mask)
    (solder_mask_margin 0.03))
  (pad AK18 smd circle (at 0.4 2.8) (size 0.2 0.2) (layers F.Cu F.Paste F.Mask)
    (solder_mask_margin 0.03))
  (pad AK20 smd circle (at 0.8 2.8) (size 0.2 0.2) (layers F.Cu F.Paste F.Mask)
    (solder_mask_margin 0.03))
  (pad AK22 smd circle (at 1.2 2.8) (size 0.2 0.2) (layers F.Cu F.Paste F.Mask)
    (solder_mask_margin 0.03))
  (pad AK24 smd circle (at 1.6 2.8) (size 0.2 0.2) (layers F.Cu F.Paste F.Mask)
    (solder_mask_margin 0.03))
  (pad AK26 smd circle (at 2 2.8) (size 0.2 0.2) (layers F.Cu F.Paste F.Mask)
    (solder_mask_margin 0.03))
  (pad AK28 smd circle (at 2.4 2.8) (size 0.2 0.2) (layers F.Cu F.Paste F.Mask)
    (solder_mask_margin 0.03))
  (pad AK30 smd circle (at 2.8 2.8) (size 0.2 0.2) (layers F.Cu F.Paste F.Mask)
    (solder_mask_margin 0.03))
  (pad AL3 smd circle (at -2.6 3.2) (size 0.2 0.2) (layers F.Cu F.Paste F.Mask)
    (solder_mask_margin 0.03))
  (pad AL5 smd circle (at -2.2 3.2) (size 0.2 0.2) (layers F.Cu F.Paste F.Mask)
    (solder_mask_margin 0.03))
  (pad AL7 smd circle (at -1.8 3.2) (size 0.2 0.2) (layers F.Cu F.Paste F.Mask)
    (solder_mask_margin 0.03))
  (pad AL9 smd circle (at -1.4 3.2) (size 0.2 0.2) (layers F.Cu F.Paste F.Mask)
    (solder_mask_margin 0.03))
  (pad AL11 smd circle (at -1 3.2) (size 0.2 0.2) (layers F.Cu F.Paste F.Mask)
    (solder_mask_margin 0.03))
  (pad AL13 smd circle (at -0.6 3.2) (size 0.2 0.2) (layers F.Cu F.Paste F.Mask)
    (solder_mask_margin 0.03))
  (pad AL15 smd circle (at -0.2 3.2) (size 0.2 0.2) (layers F.Cu F.Paste F.Mask)
    (solder_mask_margin 0.03))
  (pad AL17 smd circle (at 0.2 3.2) (size 0.2 0.2) (layers F.Cu F.Paste F.Mask)
    (solder_mask_margin 0.03))
  (pad AL19 smd circle (at 0.6 3.2) (size 0.2 0.2) (layers F.Cu F.Paste F.Mask)
    (solder_mask_margin 0.03))
  (pad AL21 smd circle (at 1 3.2) (size 0.2 0.2) (layers F.Cu F.Paste F.Mask)
    (solder_mask_margin 0.03))
  (pad AL23 smd circle (at 1.4 3.2) (size 0.2 0.2) (layers F.Cu F.Paste F.Mask)
    (solder_mask_margin 0.03))
  (pad AL25 smd circle (at 1.8 3.2) (size 0.2 0.2) (layers F.Cu F.Paste F.Mask)
    (solder_mask_margin 0.03))
  (pad AL27 smd circle (at 2.2 3.2) (size 0.2 0.2) (layers F.Cu F.Paste F.Mask)
    (solder_mask_margin 0.03))
  (pad AL29 smd circle (at 2.6 3.2) (size 0.2 0.2) (layers F.Cu F.Paste F.Mask)
    (solder_mask_margin 0.03))
  (pad EP smd rect (at 0.2 0) (size 5.4 5) (layers F.Cu F.Mask))
  (pad A31 smd circle (at 3.2 -3.2) (size 0.4 0.4) (layers F.Cu F.Paste F.Mask))
  (pad AL31 smd circle (at 3.2 3.2) (size 0.4 0.4) (layers F.Cu F.Paste F.Mask))
  (pad AL1 smd circle (at -3.2 3.2) (size 0.4 0.4) (layers F.Cu F.Paste F.Mask))
  (pad A1 smd circle (at -3.2 -3.2) (size 0.4 0.4) (layers F.Cu F.Paste F.Mask))
  (pad "" smd rect (at -1 -1.2) (size 2 2) (layers F.Paste))
  (pad "" smd rect (at 1.4 -1.2) (size 2 2) (layers F.Paste))
  (pad "" smd rect (at 1.4 1.2) (size 2 2) (layers F.Paste))
  (pad "" smd rect (at -1 1.2) (size 2 2) (layers F.Paste))
  (model ${KISYS3DMOD}/Package_DFN_QFN.3dshapes/Nordic_AQFN-73-1EP_7x7mm_P0.5mm.wrl
    (at (xyz 0 0 0))
    (scale (xyz 1 1 1))
    (rotate (xyz 0 0 0))
  )
)
