(module SMD_0201_0603Metric_Nordic_RF (layer F.Cu) (tedit 60266928)
  (descr "Passive SMD 0201 (0603 Metric), square (rectangular) end terminal, modified for Nordic RF line")
  (tags "capacitor inductor resistor nRF")
  (attr smd)
  (fp_text reference REF** (at 0 -1.05) (layer F.SilkS)
    (effects (font (size 1 1) (thickness 0.15)))
  )
  (fp_text value SMD_0201_0603Metric_Nordic_RF (at 0 1.05) (layer F.Fab)
    (effects (font (size 1 1) (thickness 0.15)))
  )
  (fp_line (start 0.55 0.25) (end -0.55 0.25) (layer F.CrtYd) (width 0.05))
  (fp_line (start 0.55 -0.25) (end 0.55 0.25) (layer F.CrtYd) (width 0.05))
  (fp_line (start -0.55 -0.25) (end 0.55 -0.25) (layer F.CrtYd) (width 0.05))
  (fp_line (start -0.55 0.25) (end -0.55 -0.25) (layer F.CrtYd) (width 0.05))
  (fp_line (start 0.3 0.15) (end -0.3 0.15) (layer F.Fab) (width 0.1))
  (fp_line (start 0.3 -0.15) (end 0.3 0.15) (layer F.Fab) (width 0.1))
  (fp_line (start -0.3 -0.15) (end 0.3 -0.15) (layer F.Fab) (width 0.1))
  (fp_line (start -0.3 0.15) (end -0.3 -0.15) (layer F.Fab) (width 0.1))
  (fp_text user %R (at 0 -0.68) (layer F.Fab)
    (effects (font (size 0.25 0.25) (thickness 0.04)))
  )
  (pad 1 smd roundrect (at -0.285 0) (size 0.27 0.3) (layers F.Cu F.Paste F.Mask) (roundrect_rratio 0.15))
  (pad 2 smd roundrect (at 0.285 0) (size 0.27 0.3) (layers F.Cu F.Paste F.Mask) (roundrect_rratio 0.15))
  (model ${KISYS3DMOD}/Capacitor_SMD.3dshapes/C_0201_0603Metric.wrl
    (at (xyz 0 0 0))
    (scale (xyz 1 1 1))
    (rotate (xyz 0 0 0))
  )
)
