(module SolderJumper-6_P1.1mm_Open_Pad0.8x0.8mm (layer F.Cu) (tedit 5E4C7146)
  (descr "SMD Solder 6-pad Jumper, 0.8x0.8mm Pads, 0.3mm gap, open")
  (tags "solder jumper open")
  (attr virtual)
  (fp_text reference JP1 (at 0 -1.9) (layer F.SilkS)
    (effects (font (size 1 1) (thickness 0.15)))
  )
  (fp_text value SolderJumper-6_P1.1mm_Open_Pad0.8x0.8mm (at 0 2.1) (layer F.Fab)
    (effects (font (size 1 1) (thickness 0.15)))
  )
  (fp_line (start -1.1 1.3) (end -0.8 1.6) (layer F.SilkS) (width 0.12))
  (fp_line (start -1.4 1.6) (end -0.8 1.6) (layer F.SilkS) (width 0.12))
  (fp_line (start -1.1 1.3) (end -1.4 1.6) (layer F.SilkS) (width 0.12))
  (fp_line (start -1.7 1.15) (end -1.7 -1.15) (layer F.SilkS) (width 0.12))
  (fp_line (start 1.7 1.15) (end -1.7 1.15) (layer F.SilkS) (width 0.12))
  (fp_line (start 1.7 -1.15) (end 1.7 1.15) (layer F.SilkS) (width 0.12))
  (fp_line (start -1.7 -1.15) (end 1.7 -1.15) (layer F.SilkS) (width 0.12))
  (fp_line (start -1.9 -1.4) (end 1.9 -1.4) (layer F.CrtYd) (width 0.05))
  (fp_line (start -1.9 -1.4) (end -1.9 1.4) (layer F.CrtYd) (width 0.05))
  (fp_line (start 1.9 1.4) (end 1.9 -1.4) (layer F.CrtYd) (width 0.05))
  (fp_line (start 1.9 1.4) (end -1.9 1.4) (layer F.CrtYd) (width 0.05))
  (pad 1 smd rect (at -1.1 0.55) (size 0.8 0.8) (layers F.Cu F.Mask))
  (pad 3 smd rect (at 0 0.55) (size 0.8 0.8) (layers F.Cu F.Mask))
  (pad 6 smd rect (at 1.1 -0.55) (size 0.8 0.8) (layers F.Cu F.Mask))
  (pad 5 smd rect (at 1.1 0.55) (size 0.8 0.8) (layers F.Cu F.Mask)
    (zone_connect 0))
  (pad 4 smd rect (at 0 -0.55) (size 0.8 0.8) (layers F.Cu F.Mask)
    (zone_connect 0))
  (pad 2 smd rect (at -1.1 -0.55) (size 0.8 0.8) (layers F.Cu F.Mask))
)
