EESchema Schematic File Version 4
EELAYER 30 0
EELAYER END
$Descr A4 11693 8268
encoding utf-8
Sheet 1 1
Title "rayStack Fringe Mother Board"
Date ""
Rev "0.1"
Comp "Raytrails, Pvt."
Comment1 "Copyright (c) 2020. All rights reserved."
Comment2 "License: BSD"
Comment3 ""
Comment4 ""
$EndDescr
$Comp
L power:GND #PWR02
U 1 1 5E8979CA
P 2200 6550
F 0 "#PWR02" H 2200 6300 50  0001 C CNN
F 1 "GND" V 2200 6350 50  0000 C CNN
F 2 "" H 2200 6550 50  0001 C CNN
F 3 "" H 2200 6550 50  0001 C CNN
	1    2200 6550
	0    1    1    0   
$EndComp
Text Label 2600 7150 2    50   ~ 0
USB_D-
Text Label 2600 7050 2    50   ~ 0
USB_D+
Text Notes 3650 7450 0    50   ~ 0
SCK
Text Notes 3650 7350 0    50   ~ 0
MISO
Text Notes 3650 7250 0    50   ~ 0
MOSI
Text Notes 3650 7150 0    50   ~ 0
SS | RX
Text Notes 2050 7450 2    50   ~ 0
SCL
Text Notes 2050 7350 2    50   ~ 0
SDA
Text Notes 2050 6050 2    50   ~ 0
AIN
Text Notes 2050 6150 2    50   ~ 0
AIN
Text Notes 2050 6250 2    50   ~ 0
AIN
Wire Wire Line
	3500 6950 3100 6950
$Comp
L Connector_Generic:Conn_02x15_Counter_Clockwise F.J1
U 1 1 5E881662
P 2800 6750
F 0 "F.J1" H 2850 7667 50  0000 C CNN
F 1 "DF40S-30" H 2850 7576 50  0000 C CNN
F 2 "rayStack:Hirose_DF40_C_30DS_P0.4_Vertical" H 2800 6750 50  0001 C CNN
F 3 "~" H 2800 6750 50  0001 C CNN
	1    2800 6750
	1    0    0    -1  
$EndComp
Wire Wire Line
	2600 6950 2200 6950
Text Label 2600 6450 2    50   ~ 0
~RESET
Text Label 3100 7250 0    50   ~ 0
GPIO_M
Text Label 2600 7250 2    50   ~ 0
GPIO_H
Text Label 2600 7350 2    50   ~ 0
GPIO_I
Text Label 2600 7450 2    50   ~ 0
GPIO_J
Text Label 3100 7450 0    50   ~ 0
GPIO_K
Text Label 3100 7350 0    50   ~ 0
GPIO_L
Text Label 2600 6150 2    50   ~ 0
GPIO_B
Text Label 2600 6250 2    50   ~ 0
GPIO_C
Text Label 2600 6350 2    50   ~ 0
CUSTOM_D
Text Label 3100 7150 0    50   ~ 0
GPIO_N
Wire Wire Line
	3100 6550 3500 6550
$Comp
L power:VBUS #PWR012
U 1 1 5EB8EE2F
P 3500 6850
F 0 "#PWR012" H 3500 6700 50  0001 C CNN
F 1 "VBUS" V 3500 7000 50  0000 L CNN
F 2 "" H 3500 6850 50  0001 C CNN
F 3 "" H 3500 6850 50  0001 C CNN
	1    3500 6850
	0    1    1    0   
$EndComp
Wire Wire Line
	3500 6850 3100 6850
Wire Wire Line
	2200 6550 2600 6550
$Comp
L power:+2V8 #PWR011
U 1 1 5EB91478
P 3500 6750
F 0 "#PWR011" H 3500 6600 50  0001 C CNN
F 1 "+2V8" V 3500 6900 50  0000 L CNN
F 2 "" H 3500 6750 50  0001 C CNN
F 3 "" H 3500 6750 50  0001 C CNN
	1    3500 6750
	0    1    1    0   
$EndComp
Wire Wire Line
	3500 6750 3100 6750
$Comp
L power:VAA #PWR010
U 1 1 5EB92D5F
P 3500 6650
F 0 "#PWR010" H 3500 6500 50  0001 C CNN
F 1 "VAA" V 3500 6800 50  0000 L CNN
F 2 "" H 3500 6650 50  0001 C CNN
F 3 "" H 3500 6650 50  0001 C CNN
	1    3500 6650
	0    1    1    0   
$EndComp
Wire Wire Line
	3500 6650 3100 6650
$Comp
L power:GND #PWR06
U 1 1 5EB9F4B4
P 2200 6950
F 0 "#PWR06" H 2200 6700 50  0001 C CNN
F 1 "GND" V 2200 6750 50  0000 C CNN
F 2 "" H 2200 6950 50  0001 C CNN
F 3 "" H 2200 6950 50  0001 C CNN
	1    2200 6950
	0    1    1    0   
$EndComp
$Comp
L power:VAA #PWR03
U 1 1 5EB9FBB2
P 2200 6650
F 0 "#PWR03" H 2200 6500 50  0001 C CNN
F 1 "VAA" V 2200 6800 50  0000 L CNN
F 2 "" H 2200 6650 50  0001 C CNN
F 3 "" H 2200 6650 50  0001 C CNN
	1    2200 6650
	0    -1   -1   0   
$EndComp
Wire Wire Line
	2200 6650 2600 6650
$Comp
L power:+2V8 #PWR04
U 1 1 5EBA0C3E
P 2200 6750
F 0 "#PWR04" H 2200 6600 50  0001 C CNN
F 1 "+2V8" V 2200 6900 50  0000 L CNN
F 2 "" H 2200 6750 50  0001 C CNN
F 3 "" H 2200 6750 50  0001 C CNN
	1    2200 6750
	0    -1   -1   0   
$EndComp
Wire Wire Line
	2200 6750 2600 6750
$Comp
L power:VBUS #PWR05
U 1 1 5EBA1BD2
P 2200 6850
F 0 "#PWR05" H 2200 6700 50  0001 C CNN
F 1 "VBUS" V 2200 7000 50  0000 L CNN
F 2 "" H 2200 6850 50  0001 C CNN
F 3 "" H 2200 6850 50  0001 C CNN
	1    2200 6850
	0    -1   -1   0   
$EndComp
Wire Wire Line
	2200 6850 2600 6850
$Comp
L power:GND #PWR013
U 1 1 5EBA685A
P 3500 6950
F 0 "#PWR013" H 3500 6700 50  0001 C CNN
F 1 "GND" V 3500 6750 50  0000 C CNN
F 2 "" H 3500 6950 50  0001 C CNN
F 3 "" H 3500 6950 50  0001 C CNN
	1    3500 6950
	0    -1   -1   0   
$EndComp
$Comp
L power:GND #PWR09
U 1 1 5EBA7F5D
P 3500 6550
F 0 "#PWR09" H 3500 6300 50  0001 C CNN
F 1 "GND" V 3500 6400 50  0000 R CNN
F 2 "" H 3500 6550 50  0001 C CNN
F 3 "" H 3500 6550 50  0001 C CNN
	1    3500 6550
	0    -1   -1   0   
$EndComp
Text Notes 3650 6050 0    50   ~ 0
NFC1
Text Notes 3650 6150 0    50   ~ 0
NFC2
Text Notes 3650 6450 0    50   ~ 0
SWD_IO
Text Notes 3650 6350 0    50   ~ 0
SWD_CLK
Text Notes 3650 6250 0    50   ~ 0
SWD_SWO
Text Notes 2050 6450 2    50   ~ 0
RESET
Text Label 2600 6050 2    50   ~ 0
GPIO_A
Text Label 3100 6050 0    50   ~ 0
GPIO_T
Text Notes 3650 7050 0    50   ~ 0
CUSTOM
Text Label 3100 7050 0    50   ~ 0
CUSTOM_O
Text Label 3100 6450 0    50   ~ 0
GPIO_P
Text Label 3100 6350 0    50   ~ 0
GPIO_Q
Text Notes 2050 6350 2    50   ~ 0
CUSTOM
Wire Notes Line
	1550 7600 1550 5700
Wire Notes Line
	4250 5700 4250 7600
Text Notes 1650 5850 0    50   ~ 0
Stacking Sockets
$Comp
L Connector:Conn_ARM_JTAG_SWD_10 J2
U 1 1 5EEFE2EB
P 3050 4500
F 0 "J2" H 2607 4546 50  0000 R CNN
F 1 "Conn_ARM_JTAG_SWD_10" H 2607 4455 50  0000 R CNN
F 2 "Connector_PinHeader_1.27mm:PinHeader_2x05_P1.27mm_Vertical_SMD" H 3050 4500 50  0001 C CNN
F 3 "http://infocenter.arm.com/help/topic/com.arm.doc.ddi0314h/DDI0314H_coresight_components_trm.pdf" V 2700 3250 50  0001 C CNN
	1    3050 4500
	1    0    0    -1  
$EndComp
$Comp
L Switch:SW_Push SW4
U 1 1 5EF01330
P 8150 4750
F 0 "SW4" H 8150 5035 50  0000 C CNN
F 1 "User" H 8150 4944 50  0000 C CNN
F 2 "Button_Switch_SMD:SW_Push_1P1T_NO_CK_KMR2" H 8150 4950 50  0001 C CNN
F 3 "~" H 8150 4950 50  0001 C CNN
	1    8150 4750
	1    0    0    -1  
$EndComp
$Comp
L Power_Protection:USBLC6-2SC6 U1
U 1 1 5EF16E76
P 3200 1750
F 0 "U1" V 3246 2194 50  0000 L CNN
F 1 "USBLC6-2SC6" V 3155 2194 50  0000 L CNN
F 2 "Package_TO_SOT_SMD:SOT-23-6" H 3200 1250 50  0001 C CNN
F 3 "https://www.st.com/resource/en/datasheet/usblc6-2.pdf" H 3400 2100 50  0001 C CNN
	1    3200 1750
	0    1    -1   0   
$EndComp
$Comp
L Regulator_Linear:SPX3819M5-L-3-0 U3
U 1 1 5EF222C0
P 8000 1850
F 0 "U3" H 8000 2192 50  0000 C CNN
F 1 "SPX3819M5-L-3-0" H 8000 2101 50  0000 C CNN
F 2 "Package_TO_SOT_SMD:SOT-23-5" H 8000 2175 50  0001 C CNN
F 3 "https://www.exar.com/content/document.ashx?id=22106&languageid=1033&type=Datasheet&partnumber=SPX3819&filename=SPX3819.pdf&part=SPX3819" H 8000 1850 50  0001 C CNN
F 4 "LDO" H 8000 1850 50  0001 C CNN "Description"
F 5 "SPX3819M5-L-3-0/TR" H 8000 1850 50  0001 C CNN "MPN"
	1    8000 1850
	1    0    0    -1  
$EndComp
$Comp
L Device:C C3
U 1 1 5EF2E0BC
P 8500 2150
F 0 "C3" H 8615 2196 50  0000 L CNN
F 1 "10n" H 8615 2105 50  0000 L CNN
F 2 "Capacitor_SMD:C_0603_1608Metric" H 8538 2000 50  0001 C CNN
F 3 "~" H 8500 2150 50  0001 C CNN
	1    8500 2150
	1    0    0    -1  
$EndComp
Wire Wire Line
	3100 1350 3100 1300
Wire Wire Line
	3100 2200 3100 2150
Wire Wire Line
	3600 1750 3950 1750
Connection ~ 3950 1750
$Comp
L Device:C C1
U 1 1 5EF15755
P 3950 2150
F 0 "C1" H 4065 2196 50  0000 L CNN
F 1 "22u" H 4065 2105 50  0000 L CNN
F 2 "Capacitor_SMD:C_0603_1608Metric" H 3988 2000 50  0001 C CNN
F 3 "~" H 3950 2150 50  0001 C CNN
	1    3950 2150
	1    0    0    -1  
$EndComp
Wire Wire Line
	8500 1850 8300 1850
$Comp
L power:VAA #PWR029
U 1 1 5EF46CC0
P 6700 1100
F 0 "#PWR029" H 6700 950 50  0001 C CNN
F 1 "VAA" H 6715 1273 50  0000 C CNN
F 2 "" H 6700 1100 50  0001 C CNN
F 3 "" H 6700 1100 50  0001 C CNN
	1    6700 1100
	1    0    0    -1  
$EndComp
$Comp
L power:GND #PWR015
U 1 1 5EF497CB
P 3950 2450
F 0 "#PWR015" H 3950 2200 50  0001 C CNN
F 1 "GND" H 3955 2277 50  0000 C CNN
F 2 "" H 3950 2450 50  0001 C CNN
F 3 "" H 3950 2450 50  0001 C CNN
	1    3950 2450
	1    0    0    -1  
$EndComp
$Comp
L power:GND #PWR031
U 1 1 5EF49CF6
P 8000 2450
F 0 "#PWR031" H 8000 2200 50  0001 C CNN
F 1 "GND" H 8005 2277 50  0000 C CNN
F 2 "" H 8000 2450 50  0001 C CNN
F 3 "" H 8000 2450 50  0001 C CNN
	1    8000 2450
	1    0    0    -1  
$EndComp
$Comp
L power:GND #PWR033
U 1 1 5EF4A1E6
P 8500 2450
F 0 "#PWR033" H 8500 2200 50  0001 C CNN
F 1 "GND" H 8505 2277 50  0000 C CNN
F 2 "" H 8500 2450 50  0001 C CNN
F 3 "" H 8500 2450 50  0001 C CNN
	1    8500 2450
	1    0    0    -1  
$EndComp
Wire Wire Line
	3950 2300 3950 2450
Wire Wire Line
	8500 2300 8500 2450
Wire Wire Line
	8500 2000 8500 1850
$Comp
L power:VBUS #PWR014
U 1 1 5EF52031
P 3950 1100
F 0 "#PWR014" H 3950 950 50  0001 C CNN
F 1 "VBUS" H 3965 1273 50  0000 C CNN
F 2 "" H 3950 1100 50  0001 C CNN
F 3 "" H 3950 1100 50  0001 C CNN
	1    3950 1100
	1    0    0    -1  
$EndComp
$Comp
L power:+2V8 #PWR032
U 1 1 5EF7C459
P 8500 1100
F 0 "#PWR032" H 8500 950 50  0001 C CNN
F 1 "+2V8" H 8515 1273 50  0000 C CNN
F 2 "" H 8500 1100 50  0001 C CNN
F 3 "" H 8500 1100 50  0001 C CNN
	1    8500 1100
	1    0    0    -1  
$EndComp
Wire Wire Line
	8500 1250 8500 1150
Wire Wire Line
	8500 1550 8500 1750
Wire Wire Line
	8500 1750 8300 1750
Connection ~ 8500 1750
Text Label 3400 2200 0    50   ~ 0
USB_D-
Wire Wire Line
	3300 1350 3300 1300
Text Label 3400 1300 0    50   ~ 0
USB_D+
Wire Wire Line
	3950 1100 3950 1150
Wire Wire Line
	6700 1100 6700 1150
Wire Wire Line
	3950 1750 3950 2000
$Comp
L Device:D_Schottky D3
U 1 1 5EFED6D9
P 6700 1400
F 0 "D3" V 6746 1320 50  0000 R CNN
F 1 "PMEG2005" V 6655 1320 50  0000 R CNN
F 2 "Diode_SMD:D_SOD-323F" H 6700 1400 50  0001 C CNN
F 3 "~" H 6700 1400 50  0001 C CNN
	1    6700 1400
	0    -1   -1   0   
$EndComp
$Comp
L Device:D_Schottky D1
U 1 1 5EFEF104
P 6200 1750
F 0 "D1" H 6200 1533 50  0000 C CNN
F 1 "PMEG2005" H 6200 1624 50  0000 C CNN
F 2 "Diode_SMD:D_SOD-323F" H 6200 1750 50  0001 C CNN
F 3 "~" H 6200 1750 50  0001 C CNN
	1    6200 1750
	-1   0    0    1   
$EndComp
Wire Wire Line
	6700 1550 6700 1750
Wire Wire Line
	6700 1750 6350 1750
$Comp
L Device:D_Schottky D4
U 1 1 5EFDEDCB
P 8500 1400
F 0 "D4" V 8454 1480 50  0000 L CNN
F 1 "PMEG2005" V 8545 1480 50  0000 L CNN
F 2 "Diode_SMD:D_SOD-323F" H 8500 1400 50  0001 C CNN
F 3 "~" H 8500 1400 50  0001 C CNN
	1    8500 1400
	0    1    1    0   
$EndComp
$Comp
L Device:LED D6
U 1 1 5EF09263
P 9500 1800
F 0 "D6" V 9539 1682 50  0000 R CNN
F 1 "Power" V 9448 1682 50  0000 R CNN
F 2 "LED_SMD:LED_0603_1608Metric" H 9500 1800 50  0001 C CNN
F 3 "~" H 9500 1800 50  0001 C CNN
	1    9500 1800
	0    -1   -1   0   
$EndComp
$Comp
L power:GND #PWR035
U 1 1 5EF81B12
P 9000 2450
F 0 "#PWR035" H 9000 2200 50  0001 C CNN
F 1 "GND" H 9005 2277 50  0000 C CNN
F 2 "" H 9000 2450 50  0001 C CNN
F 3 "" H 9000 2450 50  0001 C CNN
	1    9000 2450
	1    0    0    -1  
$EndComp
Wire Wire Line
	9000 2300 9000 2450
Wire Wire Line
	9000 1750 8500 1750
$Comp
L Device:C C4
U 1 1 5EF7F4CA
P 9000 2150
F 0 "C4" H 9115 2196 50  0000 L CNN
F 1 "4.7u" H 9115 2105 50  0000 L CNN
F 2 "Capacitor_SMD:C_0603_1608Metric" H 9038 2000 50  0001 C CNN
F 3 "~" H 9000 2150 50  0001 C CNN
	1    9000 2150
	1    0    0    -1  
$EndComp
Wire Wire Line
	9000 2000 9000 1750
$Comp
L Device:R_US R6
U 1 1 5EF177D7
P 9500 2150
F 0 "R6" H 9568 2196 50  0000 L CNN
F 1 "1.5k" H 9568 2105 50  0000 L CNN
F 2 "Resistor_SMD:R_0603_1608Metric" V 9540 2140 50  0001 C CNN
F 3 "~" H 9500 2150 50  0001 C CNN
	1    9500 2150
	1    0    0    -1  
$EndComp
Wire Wire Line
	9500 1950 9500 2000
$Comp
L power:GND #PWR037
U 1 1 5EF1A0A9
P 9500 2450
F 0 "#PWR037" H 9500 2200 50  0001 C CNN
F 1 "GND" H 9505 2277 50  0000 C CNN
F 2 "" H 9500 2450 50  0001 C CNN
F 3 "" H 9500 2450 50  0001 C CNN
	1    9500 2450
	1    0    0    -1  
$EndComp
Wire Wire Line
	9500 2450 9500 2300
Wire Wire Line
	9500 1650 9500 1150
Wire Wire Line
	9500 1150 8500 1150
Connection ~ 8500 1150
Wire Wire Line
	8500 1150 8500 1100
$Comp
L Device:LED D5
U 1 1 5EF1DE3C
P 9100 4200
F 0 "D5" V 9139 4082 50  0000 R CNN
F 1 "LED" V 9048 4082 50  0000 R CNN
F 2 "LED_SMD:LED_0603_1608Metric" H 9100 4200 50  0001 C CNN
F 3 "~" H 9100 4200 50  0001 C CNN
	1    9100 4200
	0    -1   -1   0   
$EndComp
$Comp
L Device:R_US R5
U 1 1 5EF1E273
P 9100 4700
F 0 "R5" H 9168 4746 50  0000 L CNN
F 1 "1.5k" H 9168 4655 50  0000 L CNN
F 2 "Resistor_SMD:R_0603_1608Metric" V 9140 4690 50  0001 C CNN
F 3 "~" H 9100 4700 50  0001 C CNN
	1    9100 4700
	1    0    0    -1  
$EndComp
Text Label 7750 4250 2    50   ~ 0
~RESET
Wire Wire Line
	7750 4250 7950 4250
Text Label 9100 3950 1    50   ~ 0
GPIO_H
Wire Wire Line
	9100 3950 9100 4050
Wire Wire Line
	9100 4350 9100 4550
$Comp
L power:GND #PWR036
U 1 1 5EF29285
P 9100 4950
F 0 "#PWR036" H 9100 4700 50  0001 C CNN
F 1 "GND" H 9105 4777 50  0000 C CNN
F 2 "" H 9100 4950 50  0001 C CNN
F 3 "" H 9100 4950 50  0001 C CNN
	1    9100 4950
	1    0    0    -1  
$EndComp
Wire Wire Line
	9100 4950 9100 4850
$Comp
L Switch:SW_Push SW3
U 1 1 5EF00A2F
P 8150 4250
F 0 "SW3" H 8150 4535 50  0000 C CNN
F 1 "Reset" H 8150 4444 50  0000 C CNN
F 2 "Button_Switch_SMD:SW_Push_1P1T_NO_CK_KMR2" H 8150 4450 50  0001 C CNN
F 3 "~" H 8150 4450 50  0001 C CNN
	1    8150 4250
	1    0    0    -1  
$EndComp
Wire Wire Line
	8550 4250 8350 4250
$Comp
L power:GND #PWR034
U 1 1 5EF37762
P 8550 4950
F 0 "#PWR034" H 8550 4700 50  0001 C CNN
F 1 "GND" H 8555 4777 50  0000 C CNN
F 2 "" H 8550 4950 50  0001 C CNN
F 3 "" H 8550 4950 50  0001 C CNN
	1    8550 4950
	1    0    0    -1  
$EndComp
Wire Wire Line
	8350 4750 8550 4750
Text Label 7750 4750 2    50   ~ 0
GPIO_R
Wire Wire Line
	7750 4750 7950 4750
$Comp
L Connector_Generic:Conn_01x02 J4
U 1 1 5EF40B19
P 5500 4450
F 0 "J4" H 5580 4442 50  0000 L CNN
F 1 "Conn_01x02" H 5580 4351 50  0000 L CNN
F 2 "Connector_JST:JST_PH_S2B-PH-SM4-TB_1x02-1MP_P2.00mm_Horizontal" H 5500 4450 50  0001 C CNN
F 3 "~" H 5500 4450 50  0001 C CNN
	1    5500 4450
	1    0    0    -1  
$EndComp
$Comp
L power:GND #PWR023
U 1 1 5EF43CA7
P 5200 4650
F 0 "#PWR023" H 5200 4400 50  0001 C CNN
F 1 "GND" H 5205 4477 50  0000 C CNN
F 2 "" H 5200 4650 50  0001 C CNN
F 3 "" H 5200 4650 50  0001 C CNN
	1    5200 4650
	1    0    0    -1  
$EndComp
Wire Wire Line
	5300 4550 5200 4550
Wire Wire Line
	5200 4550 5200 4650
$Comp
L power:VAA #PWR022
U 1 1 5EF467D8
P 5200 4350
F 0 "#PWR022" H 5200 4200 50  0001 C CNN
F 1 "VAA" H 5215 4523 50  0000 C CNN
F 2 "" H 5200 4350 50  0001 C CNN
F 3 "" H 5200 4350 50  0001 C CNN
	1    5200 4350
	1    0    0    -1  
$EndComp
Wire Wire Line
	5200 4350 5200 4450
Wire Wire Line
	5200 4450 5300 4450
Text Notes 2050 7250 2    50   ~ 0
TX
$Comp
L Connector:Conn_01x16_Male J3
U 1 1 5EF5603E
P 4550 6700
F 0 "J3" H 4658 7581 50  0000 C CNN
F 1 "x16" H 4658 7490 50  0000 C CNN
F 2 "Connector_PinHeader_2.54mm:PinHeader_1x16_P2.54mm_Vertical" H 4550 6700 50  0001 C CNN
F 3 "~" H 4550 6700 50  0001 C CNN
	1    4550 6700
	1    0    0    -1  
$EndComp
$Comp
L Connector:Conn_01x12_Male J5
U 1 1 5EF5819D
P 5600 6900
F 0 "J5" H 5708 7581 50  0000 C CNN
F 1 "x12" H 5708 7490 50  0000 C CNN
F 2 "Connector_PinHeader_2.54mm:PinHeader_1x12_P2.54mm_Vertical" H 5600 6900 50  0001 C CNN
F 3 "~" H 5600 6900 50  0001 C CNN
	1    5600 6900
	1    0    0    -1  
$EndComp
$Comp
L power:+2V8 #PWR07
U 1 1 5EF39AEC
P 3050 3800
F 0 "#PWR07" H 3050 3650 50  0001 C CNN
F 1 "+2V8" H 3065 3973 50  0000 C CNN
F 2 "" H 3050 3800 50  0001 C CNN
F 3 "" H 3050 3800 50  0001 C CNN
	1    3050 3800
	1    0    0    -1  
$EndComp
Wire Wire Line
	3050 3800 3050 3900
Text Label 3650 4200 0    50   ~ 0
~RESET
Wire Wire Line
	3650 4200 3550 4200
Text Label 3650 4400 0    50   ~ 0
GPIO_Q
Wire Wire Line
	3650 4400 3550 4400
Text Label 3100 6250 0    50   ~ 0
GPIO_R
Text Label 3650 4500 0    50   ~ 0
GPIO_P
Wire Wire Line
	3650 4500 3550 4500
Text Label 3650 4600 0    50   ~ 0
GPIO_R
Wire Wire Line
	3650 4600 3550 4600
$Comp
L power:GND #PWR08
U 1 1 5EF4377A
P 3050 5200
F 0 "#PWR08" H 3050 4950 50  0001 C CNN
F 1 "GND" H 3055 5027 50  0000 C CNN
F 2 "" H 3050 5200 50  0001 C CNN
F 3 "" H 3050 5200 50  0001 C CNN
	1    3050 5200
	1    0    0    -1  
$EndComp
Wire Wire Line
	3050 5200 3050 5150
Wire Wire Line
	2950 5100 2950 5150
Wire Wire Line
	2950 5150 3050 5150
Connection ~ 3050 5150
Wire Wire Line
	3050 5150 3050 5100
NoConn ~ 3550 4700
$Comp
L Device:R_US R4
U 1 1 5EF4EA6F
P 7350 2150
F 0 "R4" V 7555 2150 50  0000 C CNN
F 1 "100k" V 7464 2150 50  0000 C CNN
F 2 "Resistor_SMD:R_0603_1608Metric" V 7390 2140 50  0001 C CNN
F 3 "~" H 7350 2150 50  0001 C CNN
	1    7350 2150
	0    -1   -1   0   
$EndComp
$Comp
L power:GND #PWR030
U 1 1 5EF5158B
P 6700 2450
F 0 "#PWR030" H 6700 2200 50  0001 C CNN
F 1 "GND" H 6705 2277 50  0000 C CNN
F 2 "" H 6700 2450 50  0001 C CNN
F 3 "" H 6700 2450 50  0001 C CNN
	1    6700 2450
	1    0    0    -1  
$EndComp
Wire Wire Line
	6700 2250 6700 2450
$Comp
L Switch:SW_SPDT SW2
U 1 1 5EF55028
P 7000 2150
F 0 "SW2" H 7000 2435 50  0000 C CNN
F 1 "SLIDE_PWR" H 7000 2344 50  0000 C CNN
F 2 "Button_Switch_SMD:SW_SPDT_PCM12" H 7000 2150 50  0001 C CNN
F 3 "~" H 7000 2150 50  0001 C CNN
	1    7000 2150
	-1   0    0    1   
$EndComp
Wire Wire Line
	7700 1850 7600 1850
Wire Wire Line
	7600 1850 7600 2150
Wire Wire Line
	7600 2150 7500 2150
Connection ~ 6700 1750
Wire Wire Line
	6800 2050 6700 2050
Wire Wire Line
	6700 2050 6700 1750
Wire Wire Line
	6800 2250 6700 2250
Wire Wire Line
	8000 2150 8000 2450
$Comp
L Battery_Management:MCP73831-2-OT U2
U 1 1 5EFB0629
P 5200 2050
F 0 "U2" H 5200 2531 50  0000 C CNN
F 1 "MCP73831-2-OT" H 5200 2440 50  0000 C CNN
F 2 "Package_TO_SOT_SMD:SOT-23-5" H 5250 1800 50  0001 L CIN
F 3 "http://ww1.microchip.com/downloads/en/DeviceDoc/20001984g.pdf" H 5050 2000 50  0001 C CNN
	1    5200 2050
	1    0    0    -1  
$EndComp
Text Label 7500 1850 2    50   ~ 0
PWR_EN
Wire Wire Line
	7500 1850 7600 1850
Connection ~ 7600 1850
$Comp
L Device:R_US R2
U 1 1 5EFC7341
P 4400 2700
F 0 "R2" H 4468 2746 50  0000 L CNN
F 1 "8.06k" H 4468 2655 50  0000 L CNN
F 2 "Resistor_SMD:R_0603_1608Metric" V 4440 2690 50  0001 C CNN
F 3 "~" H 4400 2700 50  0001 C CNN
	1    4400 2700
	1    0    0    -1  
$EndComp
$Comp
L Device:R_US R1
U 1 1 5EFC8FEF
P 4400 2350
F 0 "R1" H 4468 2396 50  0000 L CNN
F 1 "2k" H 4468 2305 50  0000 L CNN
F 2 "Resistor_SMD:R_0603_1608Metric" V 4440 2340 50  0001 C CNN
F 3 "~" H 4400 2350 50  0001 C CNN
	1    4400 2350
	1    0    0    -1  
$EndComp
$Comp
L Switch:SW_SPST SW1
U 1 1 5EFCD11F
P 4800 2700
F 0 "SW1" V 4846 2612 50  0000 R CNN
F 1 "DIP_CC" V 4755 2612 50  0000 R CNN
F 2 "Button_Switch_SMD:SW_DIP_SPSTx01_Slide_Copal_CHS-01B_W7.62mm_P1.27mm" H 4800 2700 50  0001 C CNN
F 3 "~" H 4800 2700 50  0001 C CNN
	1    4800 2700
	0    -1   -1   0   
$EndComp
Wire Wire Line
	4800 2500 4400 2500
Wire Wire Line
	4400 2950 4400 2900
$Comp
L power:GND #PWR021
U 1 1 5EFDCC95
P 5200 2450
F 0 "#PWR021" H 5200 2200 50  0001 C CNN
F 1 "GND" H 5205 2277 50  0000 C CNN
F 2 "" H 5200 2450 50  0001 C CNN
F 3 "" H 5200 2450 50  0001 C CNN
	1    5200 2450
	1    0    0    -1  
$EndComp
$Comp
L Device:R_US R3
U 1 1 5EFE4D77
P 5850 2150
F 0 "R3" V 5645 2150 50  0000 C CNN
F 1 "1.5k" V 5736 2150 50  0000 C CNN
F 2 "Resistor_SMD:R_0603_1608Metric" V 5890 2140 50  0001 C CNN
F 3 "~" H 5850 2150 50  0001 C CNN
	1    5850 2150
	0    1    1    0   
$EndComp
$Comp
L Device:LED D2
U 1 1 5EFE5531
P 6200 2150
F 0 "D2" H 6193 2367 50  0000 C CNN
F 1 "Charge" H 6193 2276 50  0000 C CNN
F 2 "LED_SMD:LED_0603_1608Metric" H 6200 2150 50  0001 C CNN
F 3 "~" H 6200 2150 50  0001 C CNN
	1    6200 2150
	1    0    0    -1  
$EndComp
Wire Wire Line
	5700 1950 5600 1950
Wire Wire Line
	4800 2900 4400 2900
Connection ~ 4400 2900
Wire Wire Line
	4400 2900 4400 2850
$Comp
L power:GND #PWR016
U 1 1 5EFFAA07
P 4400 2950
F 0 "#PWR016" H 4400 2700 50  0001 C CNN
F 1 "GND" H 4405 2777 50  0000 C CNN
F 2 "" H 4400 2950 50  0001 C CNN
F 3 "" H 4400 2950 50  0001 C CNN
	1    4400 2950
	1    0    0    -1  
$EndComp
Wire Wire Line
	5600 2150 5700 2150
Wire Wire Line
	6050 2150 6000 2150
$Comp
L power:VBUS #PWR028
U 1 1 5F00C5DF
P 6450 2100
F 0 "#PWR028" H 6450 1950 50  0001 C CNN
F 1 "VBUS" H 6465 2273 50  0000 C CNN
F 2 "" H 6450 2100 50  0001 C CNN
F 3 "" H 6450 2100 50  0001 C CNN
	1    6450 2100
	1    0    0    -1  
$EndComp
Wire Wire Line
	6450 2100 6450 2150
Wire Wire Line
	6450 2150 6350 2150
Wire Wire Line
	3950 1750 5200 1750
Wire Wire Line
	5200 1750 6050 1750
Connection ~ 5200 1750
Wire Wire Line
	5200 2450 5200 2350
Wire Wire Line
	4400 2200 4400 2150
Wire Wire Line
	4400 2150 4800 2150
Wire Wire Line
	4400 2550 4400 2500
Connection ~ 4400 2500
Wire Wire Line
	1900 2350 1900 2200
Wire Wire Line
	2000 2350 2000 2200
Wire Wire Line
	2000 2350 1900 2350
Connection ~ 2000 2350
Wire Wire Line
	2000 2450 2000 2350
$Comp
L power:GND #PWR01
U 1 1 5EF48EE7
P 2000 2450
F 0 "#PWR01" H 2000 2200 50  0001 C CNN
F 1 "GND" H 2005 2277 50  0000 C CNN
F 2 "" H 2000 2450 50  0001 C CNN
F 3 "" H 2000 2450 50  0001 C CNN
	1    2000 2450
	1    0    0    -1  
$EndComp
Wire Wire Line
	2300 1900 2550 1900
Wire Wire Line
	2550 2200 3100 2200
Wire Wire Line
	2550 1900 2550 2200
$Comp
L Connector:USB_B_Micro J1
U 1 1 5EF13358
P 2000 1800
F 0 "J1" H 2057 2267 50  0000 C CNN
F 1 "USB_B_Micro" H 2057 2176 50  0000 C CNN
F 2 "Connector_USB:USB_Micro-B_Amphenol_10103594-0001LF_Horizontal" H 2150 1750 50  0001 C CNN
F 3 "~" H 2150 1750 50  0001 C CNN
	1    2000 1800
	1    0    0    -1  
$EndComp
NoConn ~ 2300 2000
Wire Wire Line
	6700 1150 5700 1150
Connection ~ 6700 1150
Wire Wire Line
	6700 1150 6700 1250
Wire Wire Line
	5700 1150 5700 1950
Text Notes 4900 3000 0    50   ~ 0
2k: 500mA\n10k: 100mA
$Comp
L Device:C C2
U 1 1 5F0D9C34
P 5450 1150
F 0 "C2" V 5198 1150 50  0000 C CNN
F 1 "4.7u" V 5289 1150 50  0000 C CNN
F 2 "Capacitor_SMD:C_0603_1608Metric" H 5488 1000 50  0001 C CNN
F 3 "~" H 5450 1150 50  0001 C CNN
	1    5450 1150
	0    1    1    0   
$EndComp
$Comp
L power:GND #PWR020
U 1 1 5F0DC816
P 5200 1200
F 0 "#PWR020" H 5200 950 50  0001 C CNN
F 1 "GND" H 5205 1027 50  0000 C CNN
F 2 "" H 5200 1200 50  0001 C CNN
F 3 "" H 5200 1200 50  0001 C CNN
	1    5200 1200
	1    0    0    -1  
$EndComp
Wire Wire Line
	5200 1200 5200 1150
Wire Wire Line
	5200 1150 5300 1150
Wire Wire Line
	5600 1150 5700 1150
Connection ~ 5700 1150
Wire Notes Line
	4250 3250 4250 650 
Wire Notes Line
	6600 3250 6600 650 
Wire Notes Line
	1550 3250 10050 3250
Wire Notes Line
	10050 3250 10050 650 
Wire Notes Line
	10050 650  1550 650 
Wire Notes Line
	1550 650  1550 3250
Text Label 4750 6000 0    50   ~ 0
~RESET
$Comp
L power:+2V8 #PWR017
U 1 1 5F11C1E3
P 5050 6200
F 0 "#PWR017" H 5050 6050 50  0001 C CNN
F 1 "+2V8" V 5050 6350 50  0000 L CNN
F 2 "" H 5050 6200 50  0001 C CNN
F 3 "" H 5050 6200 50  0001 C CNN
	1    5050 6200
	0    1    1    0   
$EndComp
$Comp
L power:GND #PWR018
U 1 1 5F11CA80
P 5050 6300
F 0 "#PWR018" H 5050 6050 50  0001 C CNN
F 1 "GND" V 5050 6150 50  0000 R CNN
F 2 "" H 5050 6300 50  0001 C CNN
F 3 "" H 5050 6300 50  0001 C CNN
	1    5050 6300
	0    -1   -1   0   
$EndComp
Wire Wire Line
	5050 6300 4750 6300
Text Label 4750 6400 0    50   ~ 0
GPIO_A
Text Label 4750 6500 0    50   ~ 0
GPIO_B
Text Label 4750 6600 0    50   ~ 0
GPIO_C
Text Label 4750 7200 0    50   ~ 0
GPIO_L
Text Label 4750 7100 0    50   ~ 0
GPIO_M
Text Label 4750 7300 0    50   ~ 0
GPIO_N
Text Label 4750 7400 0    50   ~ 0
GPIO_H
Text Label 4750 7000 0    50   ~ 0
GPIO_K
Wire Wire Line
	4750 6100 5000 6100
Wire Wire Line
	4750 6200 5000 6200
Wire Wire Line
	5000 6200 5000 6100
Text Label 5800 6500 0    50   ~ 0
PWR_EN
Text Label 5800 7500 0    50   ~ 0
GPIO_I
Text Label 5800 7400 0    50   ~ 0
GPIO_J
Text Notes 4500 6000 2    50   ~ 0
RST
Text Notes 4500 6100 2    50   ~ 0
3.3V
Text Notes 4500 6200 2    50   ~ 0
3.3V
Text Notes 4500 6300 2    50   ~ 0
GND
Text Notes 4500 6400 2    50   ~ 0
A0
Text Notes 4500 6500 2    50   ~ 0
A1
Text Notes 4500 6600 2    50   ~ 0
A2
Text Notes 4500 6700 2    50   ~ 0
A3
Text Notes 4500 6800 2    50   ~ 0
A4
Text Notes 4500 6900 2    50   ~ 0
A5
Text Notes 4500 7000 2    50   ~ 0
SCK
Text Notes 4500 7100 2    50   ~ 0
MO
Text Notes 4500 7200 2    50   ~ 0
MI
Text Notes 4500 7300 2    50   ~ 0
RX
Text Notes 4500 7400 2    50   ~ 0
TX
Text Notes 4500 7500 2    50   ~ 0
B0
Text Notes 5550 6400 2    50   ~ 0
BAT
Text Notes 5550 6500 2    50   ~ 0
EN
Text Notes 5550 6600 2    50   ~ 0
USB
Text Notes 5550 6700 2    50   ~ 0
13
Text Notes 5550 6800 2    50   ~ 0
12
Text Notes 5550 6900 2    50   ~ 0
11
Text Notes 5550 7000 2    50   ~ 0
10
Text Notes 5550 7100 2    50   ~ 0
9
Text Notes 5550 7200 2    50   ~ 0
6
Text Notes 5550 7300 2    50   ~ 0
5
Text Notes 5550 7400 2    50   ~ 0
SCL
Text Notes 5550 7500 2    50   ~ 0
SDA
Wire Notes Line
	6500 7600 6500 5700
Wire Notes Line
	1550 5700 6500 5700
Wire Notes Line
	1550 7600 6500 7600
Text Label 4750 7500 0    50   ~ 0
CUSTOM_D
Text Label 4750 6900 0    50   ~ 0
CUSTOM_O
Text Label 3100 6150 0    50   ~ 0
GPIO_S
Text Label 5800 7300 0    50   ~ 0
GPIO_P
Text Label 5800 7200 0    50   ~ 0
GPIO_Q
Text Label 5800 7100 0    50   ~ 0
GPIO_R
Text Label 5800 6900 0    50   ~ 0
GPIO_S
Text Label 5800 6800 0    50   ~ 0
GPIO_T
$Comp
L power:GND #PWR019
U 1 1 5F1FB840
P 5050 6750
F 0 "#PWR019" H 5050 6500 50  0001 C CNN
F 1 "GND" V 5050 6600 50  0000 R CNN
F 2 "" H 5050 6750 50  0001 C CNN
F 3 "" H 5050 6750 50  0001 C CNN
	1    5050 6750
	0    -1   -1   0   
$EndComp
Wire Wire Line
	4750 6700 5000 6700
Wire Wire Line
	5000 6700 5000 6750
Wire Wire Line
	5000 6800 4750 6800
Wire Wire Line
	5050 6750 5000 6750
Connection ~ 5000 6750
Wire Wire Line
	5000 6750 5000 6800
$Comp
L power:GND #PWR027
U 1 1 5F20419F
P 6050 7000
F 0 "#PWR027" H 6050 6750 50  0001 C CNN
F 1 "GND" V 6050 6850 50  0000 R CNN
F 2 "" H 6050 7000 50  0001 C CNN
F 3 "" H 6050 7000 50  0001 C CNN
	1    6050 7000
	0    -1   -1   0   
$EndComp
$Comp
L power:GND #PWR026
U 1 1 5F22BF9B
P 6050 6700
F 0 "#PWR026" H 6050 6450 50  0001 C CNN
F 1 "GND" V 6050 6550 50  0000 R CNN
F 2 "" H 6050 6700 50  0001 C CNN
F 3 "" H 6050 6700 50  0001 C CNN
	1    6050 6700
	0    -1   -1   0   
$EndComp
Wire Wire Line
	5800 6400 6050 6400
Wire Wire Line
	5800 6700 6050 6700
$Comp
L power:VAA #PWR024
U 1 1 5F14022B
P 6050 6400
F 0 "#PWR024" H 6050 6250 50  0001 C CNN
F 1 "VAA" V 6050 6550 50  0000 L CNN
F 2 "" H 6050 6400 50  0001 C CNN
F 3 "" H 6050 6400 50  0001 C CNN
	1    6050 6400
	0    1    1    0   
$EndComp
$Comp
L power:VBUS #PWR025
U 1 1 5F144C50
P 6050 6600
F 0 "#PWR025" H 6050 6450 50  0001 C CNN
F 1 "VBUS" V 6050 6750 50  0000 L CNN
F 2 "" H 6050 6600 50  0001 C CNN
F 3 "" H 6050 6600 50  0001 C CNN
	1    6050 6600
	0    1    1    0   
$EndComp
Wire Wire Line
	5800 6600 6050 6600
Wire Wire Line
	5800 7000 6050 7000
Wire Wire Line
	5050 6200 5000 6200
Connection ~ 5000 6200
Wire Wire Line
	8550 4750 8550 4950
Wire Wire Line
	8550 4250 8550 4750
Connection ~ 8550 4750
Wire Notes Line
	1550 3450 4150 3450
Wire Notes Line
	4150 3450 4150 5500
Wire Notes Line
	4150 5500 1550 5500
Wire Notes Line
	1550 5500 1550 3450
Wire Notes Line
	4350 3450 6500 3450
Wire Notes Line
	6500 3450 6500 5500
Wire Notes Line
	6500 5500 4350 5500
Wire Notes Line
	4350 5500 4350 3450
Wire Notes Line
	6700 3450 10050 3450
Wire Notes Line
	10050 3450 10050 5500
Wire Notes Line
	10050 5500 6700 5500
Wire Notes Line
	6700 5500 6700 3450
Wire Wire Line
	6700 1750 7700 1750
$Comp
L power:+2V8 #PWR0102
U 1 1 5F39DD4A
P 7400 6050
F 0 "#PWR0102" H 7400 5900 50  0001 C CNN
F 1 "+2V8" V 7400 6200 50  0000 L CNN
F 2 "" H 7400 6050 50  0001 C CNN
F 3 "" H 7400 6050 50  0001 C CNN
	1    7400 6050
	0    1    1    0   
$EndComp
$Comp
L power:VBUS #PWR0103
U 1 1 5F39E530
P 7400 6200
F 0 "#PWR0103" H 7400 6050 50  0001 C CNN
F 1 "VBUS" V 7400 6350 50  0000 L CNN
F 2 "" H 7400 6200 50  0001 C CNN
F 3 "" H 7400 6200 50  0001 C CNN
	1    7400 6200
	0    1    1    0   
$EndComp
$Comp
L power:PWR_FLAG #FLG0101
U 1 1 5F39F363
P 7400 5900
F 0 "#FLG0101" H 7400 5975 50  0001 C CNN
F 1 "PWR_FLAG" V 7400 6027 50  0000 L CNN
F 2 "" H 7400 5900 50  0001 C CNN
F 3 "~" H 7400 5900 50  0001 C CNN
	1    7400 5900
	0    -1   -1   0   
$EndComp
$Comp
L power:PWR_FLAG #FLG0102
U 1 1 5F39F8EA
P 7400 6050
F 0 "#FLG0102" H 7400 6125 50  0001 C CNN
F 1 "PWR_FLAG" V 7400 6177 50  0000 L CNN
F 2 "" H 7400 6050 50  0001 C CNN
F 3 "~" H 7400 6050 50  0001 C CNN
	1    7400 6050
	0    -1   -1   0   
$EndComp
Wire Notes Line
	6700 5700 8000 5700
Wire Notes Line
	8000 5700 8000 6400
Wire Notes Line
	8000 6400 6700 6400
Wire Notes Line
	6700 6400 6700 5700
Text Label 6750 1750 0    50   ~ 0
VAARECT
Text Label 7550 5900 0    50   ~ 0
VAARECT
Wire Wire Line
	7550 5900 7400 5900
Wire Wire Line
	3100 1300 2550 1300
Wire Wire Line
	2550 1300 2550 1800
Wire Wire Line
	2550 1800 2300 1800
Wire Wire Line
	2400 1150 2400 1600
Wire Wire Line
	2400 1600 2300 1600
$Comp
L power:GND #PWR0101
U 1 1 5F4297A3
P 2700 1850
F 0 "#PWR0101" H 2700 1600 50  0001 C CNN
F 1 "GND" H 2705 1677 50  0000 C CNN
F 2 "" H 2700 1850 50  0001 C CNN
F 3 "" H 2700 1850 50  0001 C CNN
	1    2700 1850
	1    0    0    -1  
$EndComp
Wire Wire Line
	2800 1750 2700 1750
Wire Wire Line
	2700 1750 2700 1850
Wire Wire Line
	3400 1300 3300 1300
Connection ~ 3950 1150
Wire Wire Line
	3950 1150 3950 1750
Wire Wire Line
	2400 1150 3950 1150
Wire Wire Line
	3400 2200 3300 2200
Wire Wire Line
	3300 2200 3300 2150
$Comp
L Device:C C5
U 1 1 5F46971E
P 2150 1150
F 0 "C5" V 2402 1150 50  0000 C CNN
F 1 "100n" V 2311 1150 50  0000 C CNN
F 2 "Capacitor_SMD:C_0603_1608Metric" H 2188 1000 50  0001 C CNN
F 3 "~" H 2150 1150 50  0001 C CNN
	1    2150 1150
	0    -1   -1   0   
$EndComp
Wire Wire Line
	2400 1150 2300 1150
Connection ~ 2400 1150
$Comp
L power:GND #PWR038
U 1 1 5F46F8C6
P 2000 1150
F 0 "#PWR038" H 2000 900 50  0001 C CNN
F 1 "GND" H 2005 977 50  0000 C CNN
F 2 "" H 2000 1150 50  0001 C CNN
F 3 "" H 2000 1150 50  0001 C CNN
	1    2000 1150
	0    1    1    0   
$EndComp
$EndSCHEMATC
