EESchema Schematic File Version 4
EELAYER 30 0
EELAYER END
$Descr A4 11693 8268
encoding utf-8
Sheet 1 1
Title "rayStack Template"
Date ""
Rev "0.2"
Comp "Raytrails, Pvt."
Comment1 "Copyright (c) 2020-2021. All rights reserved."
Comment2 "License: BSD"
Comment3 ""
Comment4 ""
$EndDescr
$Comp
L power:GND #PWR02
U 1 1 5E8979CA
P 1350 6250
F 0 "#PWR02" H 1350 6000 50  0001 C CNN
F 1 "GND" V 1355 6122 50  0000 R CNN
F 2 "" H 1350 6250 50  0001 C CNN
F 3 "" H 1350 6250 50  0001 C CNN
	1    1350 6250
	0    1    1    0   
$EndComp
Text Label 1750 6950 2    50   ~ 0
USB_D-
Text Label 1750 6850 2    50   ~ 0
USB_D+
Text Notes 2800 6150 0    50   ~ 0
SCLK
Text Notes 2800 6050 0    50   ~ 0
MISO
Text Notes 2800 5950 0    50   ~ 0
MOSI
Text Notes 2800 5850 0    50   ~ 0
CS
Text Notes 1200 7450 2    50   ~ 0
SCL
Text Notes 1200 7350 2    50   ~ 0
SDA
Text Notes 1200 5550 2    50   ~ 0
ANALOG
Text Notes 1200 5650 2    50   ~ 0
ANALOG
Text Notes 1200 5750 2    50   ~ 0
ANALOG
Wire Wire Line
	2650 6750 2250 6750
Wire Wire Line
	1750 6750 1350 6750
Text Label 1750 6150 2    50   ~ 0
RESET
Text Label 1750 7050 2    50   ~ 0
IO_16
Text Label 1750 7150 2    50   ~ 0
IO_17
Text Label 1750 7250 2    50   ~ 0
IO_18
Text Label 1750 5850 2    50   ~ 0
IO_4
Text Label 1750 5950 2    50   ~ 0
IO_5
Text Label 1750 6050 2    50   ~ 0
IO_6
Wire Wire Line
	2250 6250 2650 6250
$Comp
L power:VBUS #PWR09
U 1 1 5EB8EE2F
P 2650 6650
F 0 "#PWR09" H 2650 6500 50  0001 C CNN
F 1 "VBUS" V 2650 6800 50  0000 L CNN
F 2 "" H 2650 6650 50  0001 C CNN
F 3 "" H 2650 6650 50  0001 C CNN
	1    2650 6650
	0    1    1    0   
$EndComp
Wire Wire Line
	2650 6650 2250 6650
Wire Wire Line
	1350 6250 1750 6250
$Comp
L power:+2V8 #PWR08
U 1 1 5EB91478
P 2650 6450
F 0 "#PWR08" H 2650 6300 50  0001 C CNN
F 1 "+2V8" V 2650 6600 50  0000 L CNN
F 2 "" H 2650 6450 50  0001 C CNN
F 3 "" H 2650 6450 50  0001 C CNN
	1    2650 6450
	0    1    1    0   
$EndComp
Wire Wire Line
	2650 6450 2250 6450
$Comp
L power:VAA #PWR07
U 1 1 5EB92D5F
P 2650 6550
F 0 "#PWR07" H 2650 6400 50  0001 C CNN
F 1 "VAA" V 2650 6700 50  0000 L CNN
F 2 "" H 2650 6550 50  0001 C CNN
F 3 "" H 2650 6550 50  0001 C CNN
	1    2650 6550
	0    1    1    0   
$EndComp
Wire Wire Line
	2650 6350 2250 6350
$Comp
L power:GND #PWR05
U 1 1 5EB9F4B4
P 1350 6750
F 0 "#PWR05" H 1350 6500 50  0001 C CNN
F 1 "GND" V 1355 6622 50  0000 R CNN
F 2 "" H 1350 6750 50  0001 C CNN
F 3 "" H 1350 6750 50  0001 C CNN
	1    1350 6750
	0    1    1    0   
$EndComp
$Comp
L power:VAA #PWR01
U 1 1 5EB9FBB2
P 1350 6550
F 0 "#PWR01" H 1350 6400 50  0001 C CNN
F 1 "VAA" V 1350 6700 50  0000 L CNN
F 2 "" H 1350 6550 50  0001 C CNN
F 3 "" H 1350 6550 50  0001 C CNN
	1    1350 6550
	0    -1   -1   0   
$EndComp
Wire Wire Line
	1350 6550 1750 6550
$Comp
L power:+2V8 #PWR03
U 1 1 5EBA0C3E
P 1350 6450
F 0 "#PWR03" H 1350 6300 50  0001 C CNN
F 1 "+2V8" V 1350 6600 50  0000 L CNN
F 2 "" H 1350 6450 50  0001 C CNN
F 3 "" H 1350 6450 50  0001 C CNN
	1    1350 6450
	0    -1   -1   0   
$EndComp
Wire Wire Line
	1350 6450 1750 6450
$Comp
L power:VBUS #PWR04
U 1 1 5EBA1BD2
P 1350 6650
F 0 "#PWR04" H 1350 6500 50  0001 C CNN
F 1 "VBUS" V 1350 6800 50  0000 L CNN
F 2 "" H 1350 6650 50  0001 C CNN
F 3 "" H 1350 6650 50  0001 C CNN
	1    1350 6650
	0    -1   -1   0   
$EndComp
Wire Wire Line
	1350 6650 1750 6650
$Comp
L power:GND #PWR010
U 1 1 5EBA685A
P 2650 6750
F 0 "#PWR010" H 2650 6500 50  0001 C CNN
F 1 "GND" V 2655 6622 50  0000 R CNN
F 2 "" H 2650 6750 50  0001 C CNN
F 3 "" H 2650 6750 50  0001 C CNN
	1    2650 6750
	0    -1   -1   0   
$EndComp
$Comp
L power:GND #PWR06
U 1 1 5EBA7F5D
P 2650 6250
F 0 "#PWR06" H 2650 6000 50  0001 C CNN
F 1 "GND" V 2655 6122 50  0000 R CNN
F 2 "" H 2650 6250 50  0001 C CNN
F 3 "" H 2650 6250 50  0001 C CNN
	1    2650 6250
	0    -1   -1   0   
$EndComp
Text Notes 2800 5550 0    50   ~ 0
MPP1/NFC
Text Notes 2800 5650 0    50   ~ 0
MPP2/NFC
Text Notes 2800 6850 0    50   ~ 0
SWDIO/TMS
Text Notes 2800 6950 0    50   ~ 0
SWDCLK/TCLK
Text Notes 2800 7050 0    50   ~ 0
SWO/TDO
Text Notes 1200 6150 2    50   ~ 0
RESET
Text Label 1750 5750 2    50   ~ 0
IO_3
$Comp
L power:GND #PWR0101
U 1 1 5EBB294F
P 3850 6250
F 0 "#PWR0101" H 3850 6000 50  0001 C CNN
F 1 "GND" V 3850 6050 50  0000 C CNN
F 2 "" H 3850 6250 50  0001 C CNN
F 3 "" H 3850 6250 50  0001 C CNN
	1    3850 6250
	0    1    1    0   
$EndComp
Text Label 4250 6950 2    50   ~ 0
USB_D-
Text Label 4250 6850 2    50   ~ 0
USB_D+
Wire Wire Line
	5150 6750 4750 6750
Text Label 4250 6150 2    50   ~ 0
RESET
Wire Wire Line
	4750 6250 5150 6250
$Comp
L power:VBUS #PWR0102
U 1 1 5EBB297C
P 5150 6650
F 0 "#PWR0102" H 5150 6500 50  0001 C CNN
F 1 "VBUS" V 5150 6800 50  0000 L CNN
F 2 "" H 5150 6650 50  0001 C CNN
F 3 "" H 5150 6650 50  0001 C CNN
	1    5150 6650
	0    1    1    0   
$EndComp
Wire Wire Line
	5150 6650 4750 6650
$Comp
L power:+2V8 #PWR0103
U 1 1 5EBB2988
P 5150 6450
F 0 "#PWR0103" H 5150 6300 50  0001 C CNN
F 1 "+2V8" V 5150 6600 50  0000 L CNN
F 2 "" H 5150 6450 50  0001 C CNN
F 3 "" H 5150 6450 50  0001 C CNN
	1    5150 6450
	0    1    1    0   
$EndComp
Wire Wire Line
	5150 6450 4750 6450
$Comp
L power:VAA #PWR0104
U 1 1 5EBB2993
P 5150 6550
F 0 "#PWR0104" H 5150 6400 50  0001 C CNN
F 1 "VAA" V 5150 6700 50  0000 L CNN
F 2 "" H 5150 6550 50  0001 C CNN
F 3 "" H 5150 6550 50  0001 C CNN
	1    5150 6550
	0    1    1    0   
$EndComp
Wire Wire Line
	5150 6550 4750 6550
$Comp
L power:GND #PWR0105
U 1 1 5EBB299E
P 3850 6750
F 0 "#PWR0105" H 3850 6500 50  0001 C CNN
F 1 "GND" V 3850 6550 50  0000 C CNN
F 2 "" H 3850 6750 50  0001 C CNN
F 3 "" H 3850 6750 50  0001 C CNN
	1    3850 6750
	0    1    1    0   
$EndComp
$Comp
L power:VAA #PWR0106
U 1 1 5EBB29A8
P 3850 6550
F 0 "#PWR0106" H 3850 6400 50  0001 C CNN
F 1 "VAA" V 3850 6700 50  0000 L CNN
F 2 "" H 3850 6550 50  0001 C CNN
F 3 "" H 3850 6550 50  0001 C CNN
	1    3850 6550
	0    -1   -1   0   
$EndComp
$Comp
L power:+2V8 #PWR0107
U 1 1 5EBB29B3
P 3850 6450
F 0 "#PWR0107" H 3850 6300 50  0001 C CNN
F 1 "+2V8" V 3850 6600 50  0000 L CNN
F 2 "" H 3850 6450 50  0001 C CNN
F 3 "" H 3850 6450 50  0001 C CNN
	1    3850 6450
	0    -1   -1   0   
$EndComp
$Comp
L power:VBUS #PWR0108
U 1 1 5EBB29BE
P 3850 6650
F 0 "#PWR0108" H 3850 6500 50  0001 C CNN
F 1 "VBUS" V 3850 6800 50  0000 L CNN
F 2 "" H 3850 6650 50  0001 C CNN
F 3 "" H 3850 6650 50  0001 C CNN
	1    3850 6650
	0    -1   -1   0   
$EndComp
$Comp
L power:GND #PWR0109
U 1 1 5EBB29C9
P 5150 6750
F 0 "#PWR0109" H 5150 6500 50  0001 C CNN
F 1 "GND" V 5150 6550 50  0000 C CNN
F 2 "" H 5150 6750 50  0001 C CNN
F 3 "" H 5150 6750 50  0001 C CNN
	1    5150 6750
	0    -1   -1   0   
$EndComp
$Comp
L power:GND #PWR0110
U 1 1 5EBB29D3
P 5150 6250
F 0 "#PWR0110" H 5150 6000 50  0001 C CNN
F 1 "GND" V 5150 6100 50  0000 R CNN
F 2 "" H 5150 6250 50  0001 C CNN
F 3 "" H 5150 6250 50  0001 C CNN
	1    5150 6250
	0    -1   -1   0   
$EndComp
Wire Wire Line
	3850 6750 4250 6750
Wire Wire Line
	3850 6250 4250 6250
Wire Wire Line
	3850 6550 4250 6550
Wire Wire Line
	3850 6450 4250 6450
Wire Wire Line
	3850 6650 4250 6650
Wire Notes Line
	850  7600 850  5200
Text Notes 2900 5300 0    50   ~ 10
Stacking Connectors
$Comp
L Mechanical:MountingHole_Pad H1
U 1 1 5FCEED23
P 6200 5500
F 0 "H1" H 6300 5549 50  0000 L CNN
F 1 "Hole1.6" H 6300 5458 50  0000 L CNN
F 2 "rayStack:MountingHole_1.6mm_Pad" H 6200 5500 50  0001 C CNN
F 3 "~" H 6200 5500 50  0001 C CNN
	1    6200 5500
	1    0    0    -1  
$EndComp
$Comp
L Mechanical:MountingHole_Pad H2
U 1 1 5FCEF611
P 6200 6050
F 0 "H2" H 6300 6099 50  0000 L CNN
F 1 "Hole1.6" H 6300 6008 50  0000 L CNN
F 2 "rayStack:MountingHole_1.6mm_Pad" H 6200 6050 50  0001 C CNN
F 3 "~" H 6200 6050 50  0001 C CNN
	1    6200 6050
	1    0    0    -1  
$EndComp
$Comp
L power:GND #PWR011
U 1 1 5FCF03AC
P 6200 5600
F 0 "#PWR011" H 6200 5350 50  0001 C CNN
F 1 "GND" H 6205 5427 50  0000 C CNN
F 2 "" H 6200 5600 50  0001 C CNN
F 3 "" H 6200 5600 50  0001 C CNN
	1    6200 5600
	1    0    0    -1  
$EndComp
$Comp
L power:GND #PWR012
U 1 1 5FCF0811
P 6200 6150
F 0 "#PWR012" H 6200 5900 50  0001 C CNN
F 1 "GND" H 6205 5977 50  0000 C CNN
F 2 "" H 6200 6150 50  0001 C CNN
F 3 "" H 6200 6150 50  0001 C CNN
	1    6200 6150
	1    0    0    -1  
$EndComp
Text Label 1750 5550 2    50   ~ 0
IO_1
$Comp
L Connector_Generic:Conn_02x20_Counter_Clockwise XS1
U 1 1 5FD0D152
P 1950 6450
F 0 "XS1" H 2000 7567 50  0000 C CNN
F 1 "DF40S-40" H 2000 7476 50  0000 C CNN
F 2 "rayStack:Hirose_DF40_C_40DS_P0.4_Vertical" H 1950 6450 50  0001 C CNN
F 3 "~" H 1950 6450 50  0001 C CNN
	1    1950 6450
	1    0    0    -1  
$EndComp
$Comp
L Connector_Generic:Conn_02x20_Counter_Clockwise XS2
U 1 1 5FD15730
P 4450 6450
F 0 "XS2" H 4500 7567 50  0000 C CNN
F 1 "DF40P-40" H 4500 7476 50  0000 C CNN
F 2 "rayStack:Hirose_DF40_C_40DP_P0.4_Vertical" H 4450 6450 50  0001 C CNN
F 3 "~" H 4450 6450 50  0001 C CNN
	1    4450 6450
	1    0    0    -1  
$EndComp
Text Label 1750 5650 2    50   ~ 0
IO_2
Text Label 2250 5550 0    50   ~ 0
IO_40
Text Label 2250 5650 0    50   ~ 0
IO_39
$Comp
L power:+BATT #PWR0111
U 1 1 5FD09E57
P 1350 6350
F 0 "#PWR0111" H 1350 6200 50  0001 C CNN
F 1 "+BATT" V 1350 6500 50  0000 L CNN
F 2 "" H 1350 6350 50  0001 C CNN
F 3 "" H 1350 6350 50  0001 C CNN
	1    1350 6350
	0    -1   -1   0   
$EndComp
Wire Wire Line
	1350 6350 1750 6350
Text Label 1750 7350 2    50   ~ 0
IO_19
Text Label 1750 7450 2    50   ~ 0
IO_20
Text Label 2250 5750 0    50   ~ 0
IO_38
Text Label 2250 5850 0    50   ~ 0
IO_37
Text Label 2250 5950 0    50   ~ 0
IO_36
Text Label 2250 6050 0    50   ~ 0
IO_35
Text Label 2250 6150 0    50   ~ 0
IO_34
Text Label 2250 6850 0    50   ~ 0
IO_27
Text Label 2250 6950 0    50   ~ 0
IO_26
Text Label 2250 7050 0    50   ~ 0
IO_25
Text Label 2250 7150 0    50   ~ 0
IO_24
Text Label 2250 7250 0    50   ~ 0
IO_23
Text Label 2250 7450 0    50   ~ 0
IO_21
Text Label 2250 7350 0    50   ~ 0
IO_22
Wire Wire Line
	2650 6550 2250 6550
$Comp
L power:+BATT #PWR0112
U 1 1 5FD1185C
P 2650 6350
F 0 "#PWR0112" H 2650 6200 50  0001 C CNN
F 1 "+BATT" V 2650 6500 50  0000 L CNN
F 2 "" H 2650 6350 50  0001 C CNN
F 3 "" H 2650 6350 50  0001 C CNN
	1    2650 6350
	0    1    1    0   
$EndComp
Text Label 4750 5550 0    50   ~ 0
IO_40
Text Label 4750 5650 0    50   ~ 0
IO_39
Text Label 4750 5750 0    50   ~ 0
IO_38
Text Label 4750 5850 0    50   ~ 0
IO_37
Text Label 4750 5950 0    50   ~ 0
IO_36
Text Label 4750 6050 0    50   ~ 0
IO_35
Text Label 4750 6150 0    50   ~ 0
IO_34
Text Label 4250 5850 2    50   ~ 0
IO_4
Text Label 4250 5950 2    50   ~ 0
IO_5
Text Label 4250 6050 2    50   ~ 0
IO_6
Text Label 4250 5750 2    50   ~ 0
IO_3
Text Label 4250 5550 2    50   ~ 0
IO_1
Text Label 4250 5650 2    50   ~ 0
IO_2
Text Label 4250 7050 2    50   ~ 0
IO_16
Text Label 4250 7150 2    50   ~ 0
IO_17
Text Label 4250 7250 2    50   ~ 0
IO_18
Text Label 4250 7350 2    50   ~ 0
IO_19
Text Label 4250 7450 2    50   ~ 0
IO_20
Text Label 4750 6850 0    50   ~ 0
IO_27
Text Label 4750 6950 0    50   ~ 0
IO_26
Text Label 4750 7050 0    50   ~ 0
IO_25
Text Label 4750 7150 0    50   ~ 0
IO_24
Text Label 4750 7250 0    50   ~ 0
IO_23
Text Label 4750 7450 0    50   ~ 0
IO_21
Text Label 4750 7350 0    50   ~ 0
IO_22
$Comp
L power:+BATT #PWR0113
U 1 1 5FD1823F
P 5150 6350
F 0 "#PWR0113" H 5150 6200 50  0001 C CNN
F 1 "+BATT" V 5150 6500 50  0000 L CNN
F 2 "" H 5150 6350 50  0001 C CNN
F 3 "" H 5150 6350 50  0001 C CNN
	1    5150 6350
	0    1    1    0   
$EndComp
Wire Wire Line
	5150 6350 4750 6350
$Comp
L power:+BATT #PWR0114
U 1 1 5FD19C12
P 3850 6350
F 0 "#PWR0114" H 3850 6200 50  0001 C CNN
F 1 "+BATT" V 3850 6500 50  0000 L CNN
F 2 "" H 3850 6350 50  0001 C CNN
F 3 "" H 3850 6350 50  0001 C CNN
	1    3850 6350
	0    -1   -1   0   
$EndComp
Wire Wire Line
	3850 6350 4250 6350
Text Notes 2800 7350 0    50   ~ 0
ANALOG
Text Notes 2800 7450 0    50   ~ 0
ANALOG
Wire Notes Line
	5900 5200 5900 7600
Text Notes 1200 7150 2    50   ~ 0
TX
Text Notes 1200 7250 2    50   ~ 0
RX
Text Notes 5300 5550 0    50   ~ 0
MPP1/NFC
Text Notes 5300 5650 0    50   ~ 0
MPP2/NFC
Text Notes 5300 6850 0    50   ~ 0
SWDIO/TMS
Text Notes 5300 6950 0    50   ~ 0
SWDCLK/TCLK
Text Notes 5300 7050 0    50   ~ 0
SWO/TDO
Text Notes 5300 6150 0    50   ~ 0
SCLK
Text Notes 5300 6050 0    50   ~ 0
MISO
Text Notes 5300 5950 0    50   ~ 0
MOSI
Text Notes 5300 5850 0    50   ~ 0
CS
Text Notes 5300 7350 0    50   ~ 0
ANALOG
Text Notes 5300 7450 0    50   ~ 0
ANALOG
Text Notes 3750 7450 2    50   ~ 0
SCL
Text Notes 3750 7350 2    50   ~ 0
SDA
Text Notes 3750 7150 2    50   ~ 0
TX
Text Notes 3750 7250 2    50   ~ 0
RX
Text Notes 3750 5550 2    50   ~ 0
ANALOG
Text Notes 3750 5650 2    50   ~ 0
ANALOG
Text Notes 3750 5750 2    50   ~ 0
ANALOG
Text Notes 3750 6150 2    50   ~ 0
RESET
$Comp
L Mechanical:MountingHole_Pad H3
U 1 1 5FDE83A5
P 6200 6600
F 0 "H3" H 6300 6649 50  0000 L CNN
F 1 "Hole1.6" H 6300 6558 50  0000 L CNN
F 2 "rayStack:MountingHole_1.6mm_Pad" H 6200 6600 50  0001 C CNN
F 3 "~" H 6200 6600 50  0001 C CNN
	1    6200 6600
	1    0    0    -1  
$EndComp
$Comp
L power:GND #PWR0115
U 1 1 5FDE88DD
P 6200 6700
F 0 "#PWR0115" H 6200 6450 50  0001 C CNN
F 1 "GND" H 6205 6527 50  0000 C CNN
F 2 "" H 6200 6700 50  0001 C CNN
F 3 "" H 6200 6700 50  0001 C CNN
	1    6200 6700
	1    0    0    -1  
$EndComp
$Comp
L Mechanical:MountingHole_Pad H4
U 1 1 5FE12116
P 6200 7150
F 0 "H4" H 6300 7199 50  0000 L CNN
F 1 "Hole1.6" H 6300 7108 50  0000 L CNN
F 2 "rayStack:MountingHole_1.6mm_Pad" H 6200 7150 50  0001 C CNN
F 3 "~" H 6200 7150 50  0001 C CNN
	1    6200 7150
	1    0    0    -1  
$EndComp
$Comp
L power:GND #PWR0116
U 1 1 5FE12602
P 6200 7250
F 0 "#PWR0116" H 6200 7000 50  0001 C CNN
F 1 "GND" H 6205 7077 50  0000 C CNN
F 2 "" H 6200 7250 50  0001 C CNN
F 3 "" H 6200 7250 50  0001 C CNN
	1    6200 7250
	1    0    0    -1  
$EndComp
Text Notes 2800 7150 0    50   ~ 0
AREF
Text Notes 5300 7150 0    50   ~ 0
AREF
Text Notes 2800 7250 0    50   ~ 0
ANALOG
Text Notes 5300 7250 0    50   ~ 0
ANALOG
Wire Notes Line
	6800 5200 6800 7600
Wire Notes Line
	850  7600 6800 7600
Wire Notes Line
	850  5200 6800 5200
Text Notes 3750 7050 2    50   ~ 0
TDI
Text Notes 1200 7050 2    50   ~ 0
TDI
$EndSCHEMATC
