EESchema Schematic File Version 4
EELAYER 30 0
EELAYER END
$Descr A4 11693 8268
encoding utf-8
Sheet 1 1
Title "rayStack nRF5340 Module"
Date ""
Rev "0.4"
Comp "Raytrails, Pvt."
Comment1 "Copyright (c) 2020-2021. All rights reserved."
Comment2 "License: BSD"
Comment3 ""
Comment4 "Configuration: normal voltage mode DCDC, QSPI flash, USB, NFC"
$EndDescr
$Comp
L power:GND #PWR02
U 1 1 5E8979CA
P 1250 6400
F 0 "#PWR02" H 1250 6150 50  0001 C CNN
F 1 "GND" V 1255 6272 50  0000 R CNN
F 2 "" H 1250 6400 50  0001 C CNN
F 3 "" H 1250 6400 50  0001 C CNN
	1    1250 6400
	0    1    1    0   
$EndComp
Text Label 1650 7100 2    50   ~ 0
USB_D-
Text Label 1650 7000 2    50   ~ 0
USB_D+
Text Notes 2700 6300 0    50   ~ 0
SCLK
Text Notes 2700 6200 0    50   ~ 0
MISO/SIO1
Text Notes 2700 6100 0    50   ~ 0
MOSI/SIO0
Text Notes 2700 6000 0    50   ~ 0
CS
Text Notes 1100 7600 2    50   ~ 0
SCL
Text Notes 1100 7500 2    50   ~ 0
SDA
Text Notes 1100 5700 2    50   ~ 0
ANALOG
Text Notes 1100 5800 2    50   ~ 0
ANALOG
Text Notes 1100 5900 2    50   ~ 0
ANALOG
Wire Wire Line
	2550 6900 2150 6900
Wire Wire Line
	1650 6900 1250 6900
Text Label 1650 6300 2    50   ~ 0
RESET
Text Label 1650 7200 2    50   ~ 0
IO_16
Text Label 1650 7300 2    50   ~ 0
IO_17
Text Label 1650 7400 2    50   ~ 0
IO_18
Text Label 1650 6000 2    50   ~ 0
IO_4
Text Label 1650 6100 2    50   ~ 0
IO_5
Text Label 1650 6200 2    50   ~ 0
IO_6
Wire Wire Line
	2150 6400 2550 6400
$Comp
L power:VBUS #PWR09
U 1 1 5EB8EE2F
P 2550 6800
F 0 "#PWR09" H 2550 6650 50  0001 C CNN
F 1 "VBUS" V 2550 6950 50  0000 L CNN
F 2 "" H 2550 6800 50  0001 C CNN
F 3 "" H 2550 6800 50  0001 C CNN
	1    2550 6800
	0    1    1    0   
$EndComp
Wire Wire Line
	2550 6800 2150 6800
Wire Wire Line
	1250 6400 1650 6400
$Comp
L power:+2V8 #PWR08
U 1 1 5EB91478
P 2550 6600
F 0 "#PWR08" H 2550 6450 50  0001 C CNN
F 1 "+2V8" V 2550 6750 50  0000 L CNN
F 2 "" H 2550 6600 50  0001 C CNN
F 3 "" H 2550 6600 50  0001 C CNN
	1    2550 6600
	0    1    1    0   
$EndComp
Wire Wire Line
	2550 6600 2150 6600
$Comp
L power:VAA #PWR07
U 1 1 5EB92D5F
P 2550 6700
F 0 "#PWR07" H 2550 6550 50  0001 C CNN
F 1 "VAA" V 2550 6850 50  0000 L CNN
F 2 "" H 2550 6700 50  0001 C CNN
F 3 "" H 2550 6700 50  0001 C CNN
	1    2550 6700
	0    1    1    0   
$EndComp
Wire Wire Line
	2550 6500 2150 6500
$Comp
L power:GND #PWR05
U 1 1 5EB9F4B4
P 1250 6900
F 0 "#PWR05" H 1250 6650 50  0001 C CNN
F 1 "GND" V 1255 6772 50  0000 R CNN
F 2 "" H 1250 6900 50  0001 C CNN
F 3 "" H 1250 6900 50  0001 C CNN
	1    1250 6900
	0    1    1    0   
$EndComp
$Comp
L power:VAA #PWR01
U 1 1 5EB9FBB2
P 1250 6700
F 0 "#PWR01" H 1250 6550 50  0001 C CNN
F 1 "VAA" V 1250 6850 50  0000 L CNN
F 2 "" H 1250 6700 50  0001 C CNN
F 3 "" H 1250 6700 50  0001 C CNN
	1    1250 6700
	0    -1   -1   0   
$EndComp
Wire Wire Line
	1250 6700 1650 6700
$Comp
L power:+2V8 #PWR03
U 1 1 5EBA0C3E
P 1250 6600
F 0 "#PWR03" H 1250 6450 50  0001 C CNN
F 1 "+2V8" V 1250 6750 50  0000 L CNN
F 2 "" H 1250 6600 50  0001 C CNN
F 3 "" H 1250 6600 50  0001 C CNN
	1    1250 6600
	0    -1   -1   0   
$EndComp
Wire Wire Line
	1250 6600 1650 6600
$Comp
L power:VBUS #PWR04
U 1 1 5EBA1BD2
P 1250 6800
F 0 "#PWR04" H 1250 6650 50  0001 C CNN
F 1 "VBUS" V 1250 6950 50  0000 L CNN
F 2 "" H 1250 6800 50  0001 C CNN
F 3 "" H 1250 6800 50  0001 C CNN
	1    1250 6800
	0    -1   -1   0   
$EndComp
Wire Wire Line
	1250 6800 1650 6800
$Comp
L power:GND #PWR010
U 1 1 5EBA685A
P 2550 6900
F 0 "#PWR010" H 2550 6650 50  0001 C CNN
F 1 "GND" V 2555 6772 50  0000 R CNN
F 2 "" H 2550 6900 50  0001 C CNN
F 3 "" H 2550 6900 50  0001 C CNN
	1    2550 6900
	0    -1   -1   0   
$EndComp
$Comp
L power:GND #PWR06
U 1 1 5EBA7F5D
P 2550 6400
F 0 "#PWR06" H 2550 6150 50  0001 C CNN
F 1 "GND" V 2555 6272 50  0000 R CNN
F 2 "" H 2550 6400 50  0001 C CNN
F 3 "" H 2550 6400 50  0001 C CNN
	1    2550 6400
	0    -1   -1   0   
$EndComp
Text Notes 2700 5700 0    50   ~ 0
MPP1/NFC
Text Notes 2700 5800 0    50   ~ 0
MPP2/NFC
Text Notes 2700 7000 0    50   ~ 0
SWDIO/TMS
Text Notes 2700 7100 0    50   ~ 0
SWDCLK/TCLK
Text Notes 2700 7200 0    50   ~ 0
SWO/TDO
Text Notes 1100 6300 2    50   ~ 0
RESET
Text Label 1650 5900 2    50   ~ 0
AIO_3
$Comp
L power:GND #PWR0101
U 1 1 5EBB294F
P 3750 6400
F 0 "#PWR0101" H 3750 6150 50  0001 C CNN
F 1 "GND" V 3750 6200 50  0000 C CNN
F 2 "" H 3750 6400 50  0001 C CNN
F 3 "" H 3750 6400 50  0001 C CNN
	1    3750 6400
	0    1    1    0   
$EndComp
Text Label 4150 7100 2    50   ~ 0
USB_D-
Text Label 4150 7000 2    50   ~ 0
USB_D+
Wire Wire Line
	5050 6900 4650 6900
Text Label 4150 6300 2    50   ~ 0
RESET
Wire Wire Line
	4650 6400 5050 6400
$Comp
L power:VBUS #PWR0102
U 1 1 5EBB297C
P 5050 6800
F 0 "#PWR0102" H 5050 6650 50  0001 C CNN
F 1 "VBUS" V 5050 6950 50  0000 L CNN
F 2 "" H 5050 6800 50  0001 C CNN
F 3 "" H 5050 6800 50  0001 C CNN
	1    5050 6800
	0    1    1    0   
$EndComp
Wire Wire Line
	5050 6800 4650 6800
$Comp
L power:+2V8 #PWR0103
U 1 1 5EBB2988
P 5050 6600
F 0 "#PWR0103" H 5050 6450 50  0001 C CNN
F 1 "+2V8" V 5050 6750 50  0000 L CNN
F 2 "" H 5050 6600 50  0001 C CNN
F 3 "" H 5050 6600 50  0001 C CNN
	1    5050 6600
	0    1    1    0   
$EndComp
Wire Wire Line
	5050 6600 4650 6600
$Comp
L power:VAA #PWR0104
U 1 1 5EBB2993
P 5050 6700
F 0 "#PWR0104" H 5050 6550 50  0001 C CNN
F 1 "VAA" V 5050 6850 50  0000 L CNN
F 2 "" H 5050 6700 50  0001 C CNN
F 3 "" H 5050 6700 50  0001 C CNN
	1    5050 6700
	0    1    1    0   
$EndComp
Wire Wire Line
	5050 6700 4650 6700
$Comp
L power:GND #PWR0105
U 1 1 5EBB299E
P 3750 6900
F 0 "#PWR0105" H 3750 6650 50  0001 C CNN
F 1 "GND" V 3750 6700 50  0000 C CNN
F 2 "" H 3750 6900 50  0001 C CNN
F 3 "" H 3750 6900 50  0001 C CNN
	1    3750 6900
	0    1    1    0   
$EndComp
$Comp
L power:VAA #PWR0106
U 1 1 5EBB29A8
P 3750 6700
F 0 "#PWR0106" H 3750 6550 50  0001 C CNN
F 1 "VAA" V 3750 6850 50  0000 L CNN
F 2 "" H 3750 6700 50  0001 C CNN
F 3 "" H 3750 6700 50  0001 C CNN
	1    3750 6700
	0    -1   -1   0   
$EndComp
$Comp
L power:+2V8 #PWR0107
U 1 1 5EBB29B3
P 3750 6600
F 0 "#PWR0107" H 3750 6450 50  0001 C CNN
F 1 "+2V8" V 3750 6750 50  0000 L CNN
F 2 "" H 3750 6600 50  0001 C CNN
F 3 "" H 3750 6600 50  0001 C CNN
	1    3750 6600
	0    -1   -1   0   
$EndComp
$Comp
L power:VBUS #PWR0108
U 1 1 5EBB29BE
P 3750 6800
F 0 "#PWR0108" H 3750 6650 50  0001 C CNN
F 1 "VBUS" V 3750 6950 50  0000 L CNN
F 2 "" H 3750 6800 50  0001 C CNN
F 3 "" H 3750 6800 50  0001 C CNN
	1    3750 6800
	0    -1   -1   0   
$EndComp
$Comp
L power:GND #PWR0109
U 1 1 5EBB29C9
P 5050 6900
F 0 "#PWR0109" H 5050 6650 50  0001 C CNN
F 1 "GND" V 5050 6700 50  0000 C CNN
F 2 "" H 5050 6900 50  0001 C CNN
F 3 "" H 5050 6900 50  0001 C CNN
	1    5050 6900
	0    -1   -1   0   
$EndComp
$Comp
L power:GND #PWR0110
U 1 1 5EBB29D3
P 5050 6400
F 0 "#PWR0110" H 5050 6150 50  0001 C CNN
F 1 "GND" V 5050 6250 50  0000 R CNN
F 2 "" H 5050 6400 50  0001 C CNN
F 3 "" H 5050 6400 50  0001 C CNN
	1    5050 6400
	0    -1   -1   0   
$EndComp
Wire Wire Line
	3750 6900 4150 6900
Wire Wire Line
	3750 6400 4150 6400
Wire Wire Line
	3750 6700 4150 6700
Wire Wire Line
	3750 6600 4150 6600
Wire Wire Line
	3750 6800 4150 6800
Text Notes 550  7750 0    50   Italic 10
Mezzanine Connectors
$Comp
L Mechanical:MountingHole_Pad H1
U 1 1 5FCEED23
P 7050 5600
F 0 "H1" H 7150 5649 50  0000 L CNN
F 1 "Hole1.6" H 7150 5558 50  0000 L CNN
F 2 "rayStack:MountingHole_1.6mm_Pad" H 7050 5600 50  0001 C CNN
F 3 "~" H 7050 5600 50  0001 C CNN
F 4 "Mounting Hole" H 7050 5600 50  0001 C CNN "Description"
F 5 "~" H 7050 5600 50  0001 C CNN "MPN"
	1    7050 5600
	1    0    0    -1  
$EndComp
$Comp
L Mechanical:MountingHole_Pad H2
U 1 1 5FCEF611
P 7050 6150
F 0 "H2" H 7150 6199 50  0000 L CNN
F 1 "Hole1.6" H 7150 6108 50  0000 L CNN
F 2 "rayStack:MountingHole_1.6mm_Pad" H 7050 6150 50  0001 C CNN
F 3 "~" H 7050 6150 50  0001 C CNN
F 4 "Mounting Hole" H 7050 6150 50  0001 C CNN "Description"
F 5 "~" H 7050 6150 50  0001 C CNN "MPN"
	1    7050 6150
	1    0    0    -1  
$EndComp
$Comp
L power:GND #PWR011
U 1 1 5FCF03AC
P 7050 5700
F 0 "#PWR011" H 7050 5450 50  0001 C CNN
F 1 "GND" H 7055 5527 50  0000 C CNN
F 2 "" H 7050 5700 50  0001 C CNN
F 3 "" H 7050 5700 50  0001 C CNN
	1    7050 5700
	1    0    0    -1  
$EndComp
$Comp
L power:GND #PWR012
U 1 1 5FCF0811
P 7050 6250
F 0 "#PWR012" H 7050 6000 50  0001 C CNN
F 1 "GND" H 7055 6077 50  0000 C CNN
F 2 "" H 7050 6250 50  0001 C CNN
F 3 "" H 7050 6250 50  0001 C CNN
	1    7050 6250
	1    0    0    -1  
$EndComp
Text Label 1650 5700 2    50   ~ 0
AIO_1
$Comp
L Connector_Generic:Conn_02x20_Counter_Clockwise XS1
U 1 1 5FD0D152
P 1850 6600
F 0 "XS1" H 1900 7717 50  0000 C CNN
F 1 "DF40S-40" H 1900 7626 50  0000 C CNN
F 2 "rayStack:Hirose_DF40_C_40DS_P0.4_Vertical" H 1850 6600 50  0001 C CNN
F 3 "~" H 1850 6600 50  0001 C CNN
F 4 "Mezzanine Connector" H 1850 6600 50  0001 C CNN "Description"
F 5 "DF40C-40DS-0.4V(51)" H 1850 6600 50  0001 C CNN "MPN"
	1    1850 6600
	1    0    0    -1  
$EndComp
$Comp
L Connector_Generic:Conn_02x20_Counter_Clockwise XS2
U 1 1 5FD15730
P 4350 6600
F 0 "XS2" H 4400 7717 50  0000 C CNN
F 1 "DF40P-40" H 4400 7626 50  0000 C CNN
F 2 "rayStack:Hirose_DF40_C_40DP_P0.4_Vertical" H 4350 6600 50  0001 C CNN
F 3 "~" H 4350 6600 50  0001 C CNN
F 4 "Mezzanine Connector" H 4350 6600 50  0001 C CNN "Description"
F 5 "DF40C-40DP-0.4V(51)" H 4350 6600 50  0001 C CNN "MPN"
	1    4350 6600
	1    0    0    -1  
$EndComp
Text Label 1650 5800 2    50   ~ 0
AIO_2
Text Label 2150 5800 0    50   ~ 0
NFC1
Text Label 2150 5700 0    50   ~ 0
NFC2
$Comp
L power:+BATT #PWR0111
U 1 1 5FD09E57
P 1250 6500
F 0 "#PWR0111" H 1250 6350 50  0001 C CNN
F 1 "+BATT" V 1250 6650 50  0000 L CNN
F 2 "" H 1250 6500 50  0001 C CNN
F 3 "" H 1250 6500 50  0001 C CNN
	1    1250 6500
	0    -1   -1   0   
$EndComp
Wire Wire Line
	1250 6500 1650 6500
Text Label 1650 7500 2    50   ~ 0
SDA
Text Label 1650 7600 2    50   ~ 0
SCL
Text Label 2150 5900 0    50   ~ 0
DCX
Text Label 2150 6000 0    50   ~ 0
CS
Text Label 2150 6100 0    50   ~ 0
MOSI
Text Label 2150 6200 0    50   ~ 0
MISO
Text Label 2150 6300 0    50   ~ 0
SCK
Text Label 2150 7000 0    50   ~ 0
SWDIO
Text Label 2150 7100 0    50   ~ 0
SWDCLK
Text Label 2150 7300 0    50   ~ 0
AREF
Text Label 2150 7400 0    50   ~ 0
AIO_23
Text Label 2150 7600 0    50   ~ 0
AIO_21
Text Label 2150 7500 0    50   ~ 0
AIO_22
Wire Wire Line
	2550 6700 2150 6700
$Comp
L power:+BATT #PWR0112
U 1 1 5FD1185C
P 2550 6500
F 0 "#PWR0112" H 2550 6350 50  0001 C CNN
F 1 "+BATT" V 2550 6650 50  0000 L CNN
F 2 "" H 2550 6500 50  0001 C CNN
F 3 "" H 2550 6500 50  0001 C CNN
	1    2550 6500
	0    1    1    0   
$EndComp
Text Label 4650 5800 0    50   ~ 0
NFC1
Text Label 4650 5700 0    50   ~ 0
NFC2
Text Label 4650 5900 0    50   ~ 0
DCX
Text Label 4650 6000 0    50   ~ 0
CS
Text Label 4650 6100 0    50   ~ 0
MOSI
Text Label 4650 6200 0    50   ~ 0
MISO
Text Label 4650 6300 0    50   ~ 0
SCK
Text Label 4150 6000 2    50   ~ 0
IO_4
Text Label 4150 6100 2    50   ~ 0
IO_5
Text Label 4150 6200 2    50   ~ 0
IO_6
Text Label 4150 5900 2    50   ~ 0
AIO_3
Text Label 4150 5700 2    50   ~ 0
AIO_1
Text Label 4150 5800 2    50   ~ 0
AIO_2
Text Label 4150 7200 2    50   ~ 0
IO_16
Text Label 4150 7300 2    50   ~ 0
IO_17
Text Label 4150 7400 2    50   ~ 0
IO_18
Text Label 4150 7500 2    50   ~ 0
SDA
Text Label 4150 7600 2    50   ~ 0
SCL
Text Label 4650 7000 0    50   ~ 0
SWDIO
Text Label 4650 7100 0    50   ~ 0
SWDCLK
Text Label 4650 7200 0    50   ~ 0
IO_25
Text Label 4650 7300 0    50   ~ 0
AREF
Text Label 4650 7400 0    50   ~ 0
AIO_23
Text Label 4650 7600 0    50   ~ 0
AIO_21
Text Label 4650 7500 0    50   ~ 0
AIO_22
$Comp
L power:+BATT #PWR0113
U 1 1 5FD1823F
P 5050 6500
F 0 "#PWR0113" H 5050 6350 50  0001 C CNN
F 1 "+BATT" V 5050 6650 50  0000 L CNN
F 2 "" H 5050 6500 50  0001 C CNN
F 3 "" H 5050 6500 50  0001 C CNN
	1    5050 6500
	0    1    1    0   
$EndComp
Wire Wire Line
	5050 6500 4650 6500
$Comp
L power:+BATT #PWR0114
U 1 1 5FD19C12
P 3750 6500
F 0 "#PWR0114" H 3750 6350 50  0001 C CNN
F 1 "+BATT" V 3750 6650 50  0000 L CNN
F 2 "" H 3750 6500 50  0001 C CNN
F 3 "" H 3750 6500 50  0001 C CNN
	1    3750 6500
	0    -1   -1   0   
$EndComp
Wire Wire Line
	3750 6500 4150 6500
Text Notes 2700 7500 0    50   ~ 0
ANALOG
Text Notes 2700 7600 0    50   ~ 0
ANALOG
Text Notes 1100 7300 2    50   ~ 0
TX
Text Notes 1100 7400 2    50   ~ 0
RX
Text Notes 5200 5700 0    50   ~ 0
MPP1/NFC
Text Notes 5200 5800 0    50   ~ 0
MPP2/NFC
Text Notes 5200 7000 0    50   ~ 0
SWDIO/TMS
Text Notes 5200 7100 0    50   ~ 0
SWDCLK/TCLK
Text Notes 5200 7200 0    50   ~ 0
SWO/TDO
Text Notes 5200 6300 0    50   ~ 0
SCLK
Text Notes 5200 6200 0    50   ~ 0
MISO/SIO1
Text Notes 5200 6100 0    50   ~ 0
MOSI/SIO0
Text Notes 5200 6000 0    50   ~ 0
CS
Text Notes 5200 7500 0    50   ~ 0
ANALOG
Text Notes 5200 7600 0    50   ~ 0
ANALOG
Text Notes 3650 7600 2    50   ~ 0
SCL
Text Notes 3650 7500 2    50   ~ 0
SDA
Text Notes 3650 7300 2    50   ~ 0
TX
Text Notes 3650 7400 2    50   ~ 0
RX
Text Notes 3650 5700 2    50   ~ 0
ANALOG
Text Notes 3650 5800 2    50   ~ 0
ANALOG
Text Notes 3650 5900 2    50   ~ 0
ANALOG
Text Notes 3650 6300 2    50   ~ 0
RESET
$Comp
L Mechanical:MountingHole_Pad H3
U 1 1 5FDE83A5
P 6300 5600
F 0 "H3" H 6400 5649 50  0000 L CNN
F 1 "Hole1.6" H 6400 5558 50  0000 L CNN
F 2 "rayStack:MountingHole_1.6mm_Pad" H 6300 5600 50  0001 C CNN
F 3 "~" H 6300 5600 50  0001 C CNN
F 4 "Mounting Hole" H 6300 5600 50  0001 C CNN "Description"
F 5 "~" H 6300 5600 50  0001 C CNN "MPN"
	1    6300 5600
	1    0    0    -1  
$EndComp
$Comp
L power:GND #PWR0115
U 1 1 5FDE88DD
P 6300 5700
F 0 "#PWR0115" H 6300 5450 50  0001 C CNN
F 1 "GND" H 6305 5527 50  0000 C CNN
F 2 "" H 6300 5700 50  0001 C CNN
F 3 "" H 6300 5700 50  0001 C CNN
	1    6300 5700
	1    0    0    -1  
$EndComp
$Comp
L Mechanical:MountingHole_Pad H4
U 1 1 5FE12116
P 6300 6150
F 0 "H4" H 6400 6199 50  0000 L CNN
F 1 "Hole1.6" H 6400 6108 50  0000 L CNN
F 2 "rayStack:MountingHole_1.6mm_Pad" H 6300 6150 50  0001 C CNN
F 3 "~" H 6300 6150 50  0001 C CNN
F 4 "Mounting Hole" H 6300 6150 50  0001 C CNN "Description"
F 5 "~" H 6300 6150 50  0001 C CNN "MPN"
	1    6300 6150
	1    0    0    -1  
$EndComp
$Comp
L power:GND #PWR0116
U 1 1 5FE12602
P 6300 6250
F 0 "#PWR0116" H 6300 6000 50  0001 C CNN
F 1 "GND" H 6305 6077 50  0000 C CNN
F 2 "" H 6300 6250 50  0001 C CNN
F 3 "" H 6300 6250 50  0001 C CNN
	1    6300 6250
	1    0    0    -1  
$EndComp
Text Notes 2700 7300 0    50   ~ 0
AREF
Text Notes 5200 7300 0    50   ~ 0
AREF
Text Notes 2700 7400 0    50   ~ 0
ANALOG
Text Notes 5200 7400 0    50   ~ 0
ANALOG
Text Notes 3650 7200 2    50   ~ 0
TDI
Text Notes 1100 7200 2    50   ~ 0
TDI
$Comp
L rayStack:nRF5340-QKAA U1
U 1 1 600F05E4
P 4250 2750
F 0 "U1" H 4250 400 50  0000 C CNN
F 1 "nRF5340-QKAA" H 4250 500 50  0000 C CNN
F 2 "rayStack:Nordic_AQFN-94-1EP_7x7mm_P0.4mm" H 4250 2750 50  0001 C CNN
F 3 "https://infocenter.nordicsemi.com/pdf/nRF5340_PS_v1.0.pdf" H 4250 2750 50  0001 C CNN
F 4 "nRF5340 MCU" H 4250 2750 50  0001 C CNN "Description"
F 5 "nRF5340-QKAA-R" H 4250 2750 50  0001 C CNN "MPN"
	1    4250 2750
	1    0    0    -1  
$EndComp
$Comp
L Device:C C3
U 1 1 600F1474
P 3000 1400
F 0 "C3" H 3115 1446 50  0000 L CNN
F 1 "2.2nF" H 3115 1355 50  0000 L CNN
F 2 "Capacitor_SMD:C_0201_0603Metric" H 3038 1250 50  0001 C CNN
F 3 "~" H 3000 1400 50  0001 C CNN
F 4 "Capacitor, X7R, ±10%, 10V" H 3000 1400 50  0001 C CNN "Description"
F 5 "GRM033R71E222KA12D" H 3000 1400 50  0001 C CNN "MPN"
	1    3000 1400
	1    0    0    -1  
$EndComp
Wire Wire Line
	3550 1250 3000 1250
Wire Wire Line
	3550 1150 3000 1150
Wire Wire Line
	3000 1150 3000 1250
Connection ~ 3000 1250
$Comp
L power:GND #PWR0117
U 1 1 600F5800
P 3000 1550
F 0 "#PWR0117" H 3000 1300 50  0001 C CNN
F 1 "GND" H 3005 1377 50  0000 C CNN
F 2 "" H 3000 1550 50  0001 C CNN
F 3 "" H 3000 1550 50  0001 C CNN
	1    3000 1550
	1    0    0    -1  
$EndComp
Connection ~ 3000 1150
$Comp
L Device:C C4
U 1 1 6010670D
P 1500 2600
F 0 "C4" H 1615 2646 50  0000 L CNN
F 1 "1uF" H 1615 2555 50  0000 L CNN
F 2 "Capacitor_SMD:C_0201_0603Metric" H 1538 2450 50  0001 C CNN
F 3 "~" H 1500 2600 50  0001 C CNN
F 4 "Capacitor, X5R, ±5%, 6.3V" H 1500 2600 50  0001 C CNN "Description"
F 5 "CL03A105KP3NSNC" H 1500 2600 50  0001 C CNN "MPN"
	1    1500 2600
	1    0    0    -1  
$EndComp
Wire Wire Line
	3550 2050 1500 2050
Wire Wire Line
	1500 2050 1500 2450
$Comp
L power:VDD #PWR0119
U 1 1 60108CB5
P 1500 2050
F 0 "#PWR0119" H 1500 1900 50  0001 C CNN
F 1 "VDD" H 1515 2223 50  0000 C CNN
F 2 "" H 1500 2050 50  0001 C CNN
F 3 "" H 1500 2050 50  0001 C CNN
	1    1500 2050
	1    0    0    -1  
$EndComp
Connection ~ 1500 2050
$Comp
L power:GND #PWR0121
U 1 1 601124C3
P 1500 2750
F 0 "#PWR0121" H 1500 2500 50  0001 C CNN
F 1 "GND" H 1505 2577 50  0000 C CNN
F 2 "" H 1500 2750 50  0001 C CNN
F 3 "" H 1500 2750 50  0001 C CNN
	1    1500 2750
	1    0    0    -1  
$EndComp
Connection ~ 1500 750 
Wire Wire Line
	3550 750  1500 750 
$Comp
L power:VDD #PWR0122
U 1 1 6011612E
P 1500 750
F 0 "#PWR0122" H 1500 600 50  0001 C CNN
F 1 "VDD" H 1515 923 50  0000 C CNN
F 2 "" H 1500 750 50  0001 C CNN
F 3 "" H 1500 750 50  0001 C CNN
	1    1500 750 
	1    0    0    -1  
$EndComp
$Comp
L power:GND #PWR0123
U 1 1 6010E331
P 1500 1550
F 0 "#PWR0123" H 1500 1300 50  0001 C CNN
F 1 "GND" H 1505 1377 50  0000 C CNN
F 2 "" H 1500 1550 50  0001 C CNN
F 3 "" H 1500 1550 50  0001 C CNN
	1    1500 1550
	1    0    0    -1  
$EndComp
Wire Wire Line
	1500 750  1500 1250
$Comp
L Device:C C1
U 1 1 6010DFAA
P 1500 1400
F 0 "C1" H 1615 1446 50  0000 L CNN
F 1 "1uF" H 1615 1355 50  0000 L CNN
F 2 "Capacitor_SMD:C_0201_0603Metric" H 1538 1250 50  0001 C CNN
F 3 "~" H 1500 1400 50  0001 C CNN
F 4 "Capacitor, X5R, ±5%, 6.3V" H 1500 1400 50  0001 C CNN "Description"
F 5 "CL03A105KP3NSNC" H 1500 1400 50  0001 C CNN "MPN"
	1    1500 1400
	1    0    0    -1  
$EndComp
$Comp
L power:VDD #PWR0124
U 1 1 6011EAA0
P 1500 3250
F 0 "#PWR0124" H 1500 3100 50  0001 C CNN
F 1 "VDD" H 1515 3423 50  0000 C CNN
F 2 "" H 1500 3250 50  0001 C CNN
F 3 "" H 1500 3250 50  0001 C CNN
	1    1500 3250
	1    0    0    -1  
$EndComp
Wire Wire Line
	3550 3650 3000 3650
$Comp
L Device:C C6
U 1 1 6012612A
P 1500 3800
F 0 "C6" H 1615 3846 50  0000 L CNN
F 1 "4.7uF" H 1615 3755 50  0000 L CNN
F 2 "Capacitor_SMD:C_0402_1005Metric" H 1538 3650 50  0001 C CNN
F 3 "~" H 1500 3800 50  0001 C CNN
F 4 "Capacitor, X7R, ±10%, 10V" H 1500 3800 50  0001 C CNN "Description"
F 5 "ZRB15XR61A475KE01D" H 1500 3800 50  0001 C CNN "MPN"
	1    1500 3800
	1    0    0    -1  
$EndComp
Wire Wire Line
	1500 3650 1500 3250
Connection ~ 1500 3250
$Comp
L power:GND #PWR0125
U 1 1 60127AF1
P 1500 3950
F 0 "#PWR0125" H 1500 3700 50  0001 C CNN
F 1 "GND" H 1505 3777 50  0000 C CNN
F 2 "" H 1500 3950 50  0001 C CNN
F 3 "" H 1500 3950 50  0001 C CNN
	1    1500 3950
	1    0    0    -1  
$EndComp
$Comp
L power:VBUS #PWR0127
U 1 1 60129390
P 1000 4450
F 0 "#PWR0127" H 1000 4300 50  0001 C CNN
F 1 "VBUS" H 1015 4623 50  0000 C CNN
F 2 "" H 1000 4450 50  0001 C CNN
F 3 "" H 1000 4450 50  0001 C CNN
	1    1000 4450
	1    0    0    -1  
$EndComp
$Comp
L Device:R_US R1
U 1 1 6012AFCF
P 1250 4450
F 0 "R1" V 1045 4450 50  0000 C CNN
F 1 "4R7" V 1136 4450 50  0000 C CNN
F 2 "Resistor_SMD:R_0201_0603Metric" V 1290 4440 50  0001 C CNN
F 3 "~" H 1250 4450 50  0001 C CNN
F 4 "Resistor, ±1%, 0.05W" H 1250 4450 50  0001 C CNN "Description"
F 5 "ERJ-1GNJ4R7C" H 1250 4450 50  0001 C CNN "MPN"
	1    1250 4450
	0    1    1    0   
$EndComp
Wire Wire Line
	3550 4450 1750 4450
Wire Wire Line
	1100 4450 1000 4450
$Comp
L Device:C C10
U 1 1 6012E599
P 3050 4900
F 0 "C10" H 3165 4946 50  0000 L CNN
F 1 "1uF" H 3165 4855 50  0000 L CNN
F 2 "Capacitor_SMD:C_0201_0603Metric" H 3088 4750 50  0001 C CNN
F 3 "~" H 3050 4900 50  0001 C CNN
F 4 "Capacitor, X5R, ±5%, 6.3V" H 3050 4900 50  0001 C CNN "Description"
F 5 "CL03A105KP3NSNC" H 3050 4900 50  0001 C CNN "MPN"
	1    3050 4900
	1    0    0    -1  
$EndComp
Wire Wire Line
	3550 4750 3050 4750
$Comp
L Device:C C9
U 1 1 601302BF
P 2500 4900
F 0 "C9" H 2615 4946 50  0000 L CNN
F 1 "100nF" H 2615 4855 50  0000 L CNN
F 2 "Capacitor_SMD:C_0201_0603Metric" H 2538 4750 50  0001 C CNN
F 3 "~" H 2500 4900 50  0001 C CNN
F 4 "Capacitor, X5R, ±10%" H 2500 4900 50  0001 C CNN "Description"
F 5 "GRM033R61A104KE15D" H 2500 4900 50  0001 C CNN "MPN"
	1    2500 4900
	1    0    0    -1  
$EndComp
$Comp
L Device:C C8
U 1 1 60130CAD
P 2000 4900
F 0 "C8" H 2115 4946 50  0000 L CNN
F 1 "4.7uF" H 2115 4855 50  0000 L CNN
F 2 "Capacitor_SMD:C_0402_1005Metric" H 2038 4750 50  0001 C CNN
F 3 "~" H 2000 4900 50  0001 C CNN
F 4 "Capacitor, X7R, ±10%, 10V" H 2000 4900 50  0001 C CNN "Description"
F 5 "ZRB15XR61A475KE01D" H 2000 4900 50  0001 C CNN "MPN"
	1    2000 4900
	1    0    0    -1  
$EndComp
$Comp
L Device:C C7
U 1 1 60131273
P 1500 4900
F 0 "C7" H 1615 4946 50  0000 L CNN
F 1 "4.7uF" H 1615 4855 50  0000 L CNN
F 2 "Capacitor_SMD:C_0402_1005Metric" H 1538 4750 50  0001 C CNN
F 3 "~" H 1500 4900 50  0001 C CNN
F 4 "Capacitor, X7R, ±10%, 10V" H 1500 4900 50  0001 C CNN "Description"
F 5 "ZRB15XR61A475KE01D" H 1500 4900 50  0001 C CNN "MPN"
	1    1500 4900
	1    0    0    -1  
$EndComp
Wire Wire Line
	1500 4750 1500 4450
Connection ~ 1500 4450
Wire Wire Line
	1500 4450 1400 4450
Wire Wire Line
	3550 4550 2000 4550
Wire Wire Line
	2000 4550 2000 4750
Wire Wire Line
	3550 4650 2500 4650
Wire Wire Line
	2500 4650 2500 4750
$Comp
L power:GND #PWR0128
U 1 1 601400CA
P 1500 5050
F 0 "#PWR0128" H 1500 4800 50  0001 C CNN
F 1 "GND" H 1505 4877 50  0000 C CNN
F 2 "" H 1500 5050 50  0001 C CNN
F 3 "" H 1500 5050 50  0001 C CNN
	1    1500 5050
	1    0    0    -1  
$EndComp
$Comp
L power:GND #PWR0129
U 1 1 601405A6
P 2000 5050
F 0 "#PWR0129" H 2000 4800 50  0001 C CNN
F 1 "GND" H 2005 4877 50  0000 C CNN
F 2 "" H 2000 5050 50  0001 C CNN
F 3 "" H 2000 5050 50  0001 C CNN
	1    2000 5050
	1    0    0    -1  
$EndComp
$Comp
L power:GND #PWR0130
U 1 1 601407DA
P 2500 5050
F 0 "#PWR0130" H 2500 4800 50  0001 C CNN
F 1 "GND" H 2505 4877 50  0000 C CNN
F 2 "" H 2500 5050 50  0001 C CNN
F 3 "" H 2500 5050 50  0001 C CNN
	1    2500 5050
	1    0    0    -1  
$EndComp
$Comp
L power:GND #PWR0131
U 1 1 60140A30
P 3050 5050
F 0 "#PWR0131" H 3050 4800 50  0001 C CNN
F 1 "GND" H 3055 4877 50  0000 C CNN
F 2 "" H 3050 5050 50  0001 C CNN
F 3 "" H 3050 5050 50  0001 C CNN
	1    3050 5050
	1    0    0    -1  
$EndComp
$Comp
L Device:Crystal_GND24 Y1
U 1 1 60156B21
P 5500 2300
F 0 "Y1" V 5250 2450 50  0000 L CNN
F 1 "32MHz" V 5350 2450 50  0000 L CNN
F 2 "Crystal:Crystal_SMD_2016-4Pin_2.0x1.6mm" H 5500 2300 50  0001 C CNN
F 3 "~" H 5500 2300 50  0001 C CNN
F 4 "Crystal, 32MHz Cl=8pF, ±40 ppm" H 5500 2300 50  0001 C CNN "Description"
F 5 "XRCGB32M000F1H01R0" H 5500 2300 50  0001 C CNN "MPN"
	1    5500 2300
	0    1    1    0   
$EndComp
Wire Wire Line
	5500 2150 4950 2150
Wire Wire Line
	5500 2450 4950 2450
Wire Wire Line
	4950 1650 5250 1650
Wire Wire Line
	5250 1650 5250 1750
Wire Wire Line
	5250 1950 4950 1950
Wire Wire Line
	4950 1850 5250 1850
Connection ~ 5250 1850
Wire Wire Line
	5250 1850 5250 1950
Wire Wire Line
	4950 1750 5250 1750
Connection ~ 5250 1750
Wire Wire Line
	5250 1750 5250 1850
Wire Wire Line
	4950 1550 5250 1550
Wire Wire Line
	5250 1550 5250 1650
Connection ~ 5250 1650
$Comp
L Device:C C11
U 1 1 60177F2B
P 5500 1700
F 0 "C11" H 5615 1746 50  0000 L CNN
F 1 "100nF" H 5615 1655 50  0000 L CNN
F 2 "Capacitor_SMD:C_0201_0603Metric" H 5538 1550 50  0001 C CNN
F 3 "~" H 5500 1700 50  0001 C CNN
F 4 "Capacitor, X5R, ±10%" H 5500 1700 50  0001 C CNN "Description"
F 5 "GRM033R61A104KE15D" H 5500 1700 50  0001 C CNN "MPN"
	1    5500 1700
	1    0    0    -1  
$EndComp
$Comp
L power:GND #PWR0132
U 1 1 60178A05
P 5500 1850
F 0 "#PWR0132" H 5500 1600 50  0001 C CNN
F 1 "GND" H 5505 1677 50  0000 C CNN
F 2 "" H 5500 1850 50  0001 C CNN
F 3 "" H 5500 1850 50  0001 C CNN
	1    5500 1850
	1    0    0    -1  
$EndComp
$Comp
L Device:C C12
U 1 1 60178FCE
P 6000 1700
F 0 "C12" H 6115 1746 50  0000 L CNN
F 1 "100nF" H 6115 1655 50  0000 L CNN
F 2 "Capacitor_SMD:C_0201_0603Metric" H 6038 1550 50  0001 C CNN
F 3 "~" H 6000 1700 50  0001 C CNN
F 4 "Capacitor, X5R, ±10%" H 6000 1700 50  0001 C CNN "Description"
F 5 "GRM033R61A104KE15D" H 6000 1700 50  0001 C CNN "MPN"
	1    6000 1700
	1    0    0    -1  
$EndComp
$Comp
L Device:C C13
U 1 1 6017985D
P 6500 1700
F 0 "C13" H 6615 1746 50  0000 L CNN
F 1 "100nF" H 6615 1655 50  0000 L CNN
F 2 "Capacitor_SMD:C_0201_0603Metric" H 6538 1550 50  0001 C CNN
F 3 "~" H 6500 1700 50  0001 C CNN
F 4 "Capacitor, X5R, ±10%" H 6500 1700 50  0001 C CNN "Description"
F 5 "GRM033R61A104KE15D" H 6500 1700 50  0001 C CNN "MPN"
	1    6500 1700
	1    0    0    -1  
$EndComp
$Comp
L Device:C C14
U 1 1 60179E7F
P 7000 1700
F 0 "C14" H 7115 1746 50  0000 L CNN
F 1 "N.C." H 7115 1655 50  0000 L CNN
F 2 "Capacitor_SMD:C_0201_0603Metric" H 7038 1550 50  0001 C CNN
F 3 "~" H 7000 1700 50  0001 C CNN
F 4 "Not Mounted" H 7000 1700 50  0001 C CNN "Description"
F 5 "~" H 7000 1700 50  0001 C CNN "MPN"
	1    7000 1700
	1    0    0    -1  
$EndComp
$Comp
L Device:C C15
U 1 1 6017A3D2
P 7500 1700
F 0 "C15" H 7615 1746 50  0000 L CNN
F 1 "100nF" H 7615 1655 50  0000 L CNN
F 2 "Capacitor_SMD:C_0201_0603Metric" H 7538 1550 50  0001 C CNN
F 3 "~" H 7500 1700 50  0001 C CNN
F 4 "Capacitor, X5R, ±10%" H 7500 1700 50  0001 C CNN "Description"
F 5 "GRM033R61A104KE15D" H 7500 1700 50  0001 C CNN "MPN"
	1    7500 1700
	1    0    0    -1  
$EndComp
$Comp
L Device:C C16
U 1 1 6017A856
P 8000 1700
F 0 "C16" H 8115 1746 50  0000 L CNN
F 1 "100nF" H 8115 1655 50  0000 L CNN
F 2 "Capacitor_SMD:C_0201_0603Metric" H 8038 1550 50  0001 C CNN
F 3 "~" H 8000 1700 50  0001 C CNN
F 4 "Capacitor, X5R, ±10%" H 8000 1700 50  0001 C CNN "Description"
F 5 "GRM033R61A104KE15D" H 8000 1700 50  0001 C CNN "MPN"
	1    8000 1700
	1    0    0    -1  
$EndComp
$Comp
L Device:C C17
U 1 1 6017AD36
P 8500 1700
F 0 "C17" H 8615 1746 50  0000 L CNN
F 1 "100nF" H 8615 1655 50  0000 L CNN
F 2 "Capacitor_SMD:C_0201_0603Metric" H 8538 1550 50  0001 C CNN
F 3 "~" H 8500 1700 50  0001 C CNN
F 4 "Capacitor, X5R, ±10%" H 8500 1700 50  0001 C CNN "Description"
F 5 "GRM033R61A104KE15D" H 8500 1700 50  0001 C CNN "MPN"
	1    8500 1700
	1    0    0    -1  
$EndComp
$Comp
L Device:C C18
U 1 1 6017B0A6
P 9000 1700
F 0 "C18" H 9115 1746 50  0000 L CNN
F 1 "100nF" H 9115 1655 50  0000 L CNN
F 2 "Capacitor_SMD:C_0201_0603Metric" H 9038 1550 50  0001 C CNN
F 3 "~" H 9000 1700 50  0001 C CNN
F 4 "Capacitor, X5R, ±10%" H 9000 1700 50  0001 C CNN "Description"
F 5 "GRM033R61A104KE15D" H 9000 1700 50  0001 C CNN "MPN"
	1    9000 1700
	1    0    0    -1  
$EndComp
$Comp
L Device:C C19
U 1 1 6017B59D
P 9500 1700
F 0 "C19" H 9615 1746 50  0000 L CNN
F 1 "100nF" H 9615 1655 50  0000 L CNN
F 2 "Capacitor_SMD:C_0201_0603Metric" H 9538 1550 50  0001 C CNN
F 3 "~" H 9500 1700 50  0001 C CNN
F 4 "Capacitor, X5R, ±10%" H 9500 1700 50  0001 C CNN "Description"
F 5 "GRM033R61A104KE15D" H 9500 1700 50  0001 C CNN "MPN"
	1    9500 1700
	1    0    0    -1  
$EndComp
Wire Wire Line
	5500 1550 5250 1550
Connection ~ 5250 1550
Wire Wire Line
	6000 1550 6000 1450
Wire Wire Line
	6000 1450 4950 1450
Wire Wire Line
	6500 1550 6500 1350
Wire Wire Line
	6500 1350 4950 1350
Wire Wire Line
	7000 1550 7000 1250
Wire Wire Line
	7000 1250 4950 1250
Wire Wire Line
	7500 1550 7500 1150
Wire Wire Line
	7500 1150 4950 1150
Wire Wire Line
	8000 1550 8000 1050
Wire Wire Line
	8000 1050 4950 1050
Wire Wire Line
	8500 1550 8500 950 
Wire Wire Line
	8500 950  4950 950 
Wire Wire Line
	4950 850  9000 850 
Wire Wire Line
	9000 850  9000 1550
Wire Wire Line
	9500 1550 9500 750 
Wire Wire Line
	9500 750  4950 750 
$Comp
L power:VDD #PWR0133
U 1 1 6018FE55
P 9500 750
F 0 "#PWR0133" H 9500 600 50  0001 C CNN
F 1 "VDD" H 9515 923 50  0000 C CNN
F 2 "" H 9500 750 50  0001 C CNN
F 3 "" H 9500 750 50  0001 C CNN
	1    9500 750 
	1    0    0    -1  
$EndComp
Connection ~ 9500 750 
Wire Wire Line
	9500 750  9000 850 
Connection ~ 5500 1550
Connection ~ 6000 1450
Wire Wire Line
	6000 1450 5500 1550
Connection ~ 6500 1350
Wire Wire Line
	6500 1350 6000 1450
Connection ~ 7000 1250
Wire Wire Line
	7000 1250 6500 1350
Connection ~ 7500 1150
Wire Wire Line
	7500 1150 7000 1250
Connection ~ 8000 1050
Wire Wire Line
	8000 1050 7500 1150
Connection ~ 8500 950 
Wire Wire Line
	8500 950  8000 1050
Connection ~ 9000 850 
Wire Wire Line
	9000 850  8500 950 
$Comp
L power:GND #PWR0134
U 1 1 601932FA
P 6000 1850
F 0 "#PWR0134" H 6000 1600 50  0001 C CNN
F 1 "GND" H 6005 1677 50  0000 C CNN
F 2 "" H 6000 1850 50  0001 C CNN
F 3 "" H 6000 1850 50  0001 C CNN
	1    6000 1850
	1    0    0    -1  
$EndComp
$Comp
L power:GND #PWR0135
U 1 1 601935FA
P 6500 1850
F 0 "#PWR0135" H 6500 1600 50  0001 C CNN
F 1 "GND" H 6505 1677 50  0000 C CNN
F 2 "" H 6500 1850 50  0001 C CNN
F 3 "" H 6500 1850 50  0001 C CNN
	1    6500 1850
	1    0    0    -1  
$EndComp
$Comp
L power:GND #PWR0136
U 1 1 601937FB
P 7000 1850
F 0 "#PWR0136" H 7000 1600 50  0001 C CNN
F 1 "GND" H 7005 1677 50  0000 C CNN
F 2 "" H 7000 1850 50  0001 C CNN
F 3 "" H 7000 1850 50  0001 C CNN
	1    7000 1850
	1    0    0    -1  
$EndComp
$Comp
L power:GND #PWR0137
U 1 1 60193A84
P 7500 1850
F 0 "#PWR0137" H 7500 1600 50  0001 C CNN
F 1 "GND" H 7505 1677 50  0000 C CNN
F 2 "" H 7500 1850 50  0001 C CNN
F 3 "" H 7500 1850 50  0001 C CNN
	1    7500 1850
	1    0    0    -1  
$EndComp
$Comp
L power:GND #PWR0138
U 1 1 60193DFB
P 8000 1850
F 0 "#PWR0138" H 8000 1600 50  0001 C CNN
F 1 "GND" H 8005 1677 50  0000 C CNN
F 2 "" H 8000 1850 50  0001 C CNN
F 3 "" H 8000 1850 50  0001 C CNN
	1    8000 1850
	1    0    0    -1  
$EndComp
$Comp
L power:GND #PWR0139
U 1 1 6019400D
P 8500 1850
F 0 "#PWR0139" H 8500 1600 50  0001 C CNN
F 1 "GND" H 8505 1677 50  0000 C CNN
F 2 "" H 8500 1850 50  0001 C CNN
F 3 "" H 8500 1850 50  0001 C CNN
	1    8500 1850
	1    0    0    -1  
$EndComp
$Comp
L power:GND #PWR0140
U 1 1 601942EB
P 9000 1850
F 0 "#PWR0140" H 9000 1600 50  0001 C CNN
F 1 "GND" H 9005 1677 50  0000 C CNN
F 2 "" H 9000 1850 50  0001 C CNN
F 3 "" H 9000 1850 50  0001 C CNN
	1    9000 1850
	1    0    0    -1  
$EndComp
$Comp
L power:GND #PWR0141
U 1 1 6019460D
P 9500 1850
F 0 "#PWR0141" H 9500 1600 50  0001 C CNN
F 1 "GND" H 9505 1677 50  0000 C CNN
F 2 "" H 9500 1850 50  0001 C CNN
F 3 "" H 9500 1850 50  0001 C CNN
	1    9500 1850
	1    0    0    -1  
$EndComp
$Comp
L Device:C C20
U 1 1 6019B2CE
P 5500 2900
F 0 "C20" H 5615 2946 50  0000 L CNN
F 1 "0.7pF" H 5615 2855 50  0000 L CNN
F 2 "rayStack:SMD_0201_0603Metric_Nordic_RF" H 5538 2750 50  0001 C CNN
F 3 "~" H 5500 2900 50  0001 C CNN
F 4 "Capacitor, RF, NP0, ±0.05 pF" H 5500 2900 50  0001 C CNN "Description"
F 5 "250R05L0R7AV4T" H 5500 2900 50  0001 C CNN "MPN"
	1    5500 2900
	1    0    0    -1  
$EndComp
$Comp
L Device:C C22
U 1 1 6019BAD3
P 6000 2900
F 0 "C22" H 6115 2946 50  0000 L CNN
F 1 "N.C." H 6115 2855 50  0000 L CNN
F 2 "rayStack:SMD_0201_0603Metric_Nordic_RF" H 6038 2750 50  0001 C CNN
F 3 "~" H 6000 2900 50  0001 C CNN
F 4 "Not Mounted" H 6000 2900 50  0001 C CNN "Description"
F 5 "~" H 6000 2900 50  0001 C CNN "MPN"
	1    6000 2900
	1    0    0    -1  
$EndComp
$Comp
L Device:L L4
U 1 1 6019C4BB
P 5750 2750
F 0 "L4" V 5940 2750 50  0000 C CNN
F 1 "2.2nH" V 5849 2750 50  0000 C CNN
F 2 "rayStack:SMD_0201_0603Metric_Nordic_RF" H 5750 2750 50  0001 C CNN
F 3 "~" H 5750 2750 50  0001 C CNN
F 4 "Inductor, RF, ±5%" H 5750 2750 50  0001 C CNN "Description"
F 5 "MHQ0603P2N2BT000" H 5750 2750 50  0001 C CNN "MPN"
	1    5750 2750
	0    -1   -1   0   
$EndComp
Wire Wire Line
	5600 2750 5500 2750
Connection ~ 5500 2750
Wire Wire Line
	5500 2750 4950 2750
Wire Wire Line
	5900 2750 6000 2750
Connection ~ 6000 2750
$Comp
L power:GND #PWR0142
U 1 1 601A4EC2
P 5500 3050
F 0 "#PWR0142" H 5500 2800 50  0001 C CNN
F 1 "GND" H 5505 2877 50  0000 C CNN
F 2 "" H 5500 3050 50  0001 C CNN
F 3 "" H 5500 3050 50  0001 C CNN
	1    5500 3050
	1    0    0    -1  
$EndComp
$Comp
L power:GND #PWR0143
U 1 1 601A528E
P 6000 3050
F 0 "#PWR0143" H 6000 2800 50  0001 C CNN
F 1 "GND" H 6005 2877 50  0000 C CNN
F 2 "" H 6000 3050 50  0001 C CNN
F 3 "" H 6000 3050 50  0001 C CNN
	1    6000 3050
	1    0    0    -1  
$EndComp
$Comp
L power:GND #PWR0144
U 1 1 601A6196
P 5250 5050
F 0 "#PWR0144" H 5250 4800 50  0001 C CNN
F 1 "GND" H 5255 4877 50  0000 C CNN
F 2 "" H 5250 5050 50  0001 C CNN
F 3 "" H 5250 5050 50  0001 C CNN
	1    5250 5050
	1    0    0    -1  
$EndComp
Wire Wire Line
	5250 5050 5250 4750
Wire Wire Line
	5250 4150 4950 4150
Wire Wire Line
	4950 4250 5250 4250
Connection ~ 5250 4250
Wire Wire Line
	5250 4250 5250 4150
Wire Wire Line
	4950 4350 5250 4350
Connection ~ 5250 4350
Wire Wire Line
	5250 4350 5250 4250
Wire Wire Line
	4950 4450 5250 4450
Connection ~ 5250 4450
Wire Wire Line
	5250 4450 5250 4350
Wire Wire Line
	4950 4550 5250 4550
Connection ~ 5250 4550
Wire Wire Line
	5250 4550 5250 4450
Wire Wire Line
	4950 4650 5250 4650
Connection ~ 5250 4650
Wire Wire Line
	5250 4650 5250 4550
Wire Wire Line
	5250 4750 4950 4750
Connection ~ 5250 4750
Wire Wire Line
	5250 4750 5250 4650
Text Notes 1100 4600 0    50   ~ 0
optional
$Comp
L Device:Crystal Y2
U 1 1 601CAA3B
P 8300 2900
F 0 "Y2" V 8254 2769 50  0000 R CNN
F 1 "32.768kHz" V 8345 2769 50  0000 R CNN
F 2 "Crystal:Crystal_SMD_2012-2Pin_2.0x1.2mm" H 8300 2900 50  0001 C CNN
F 3 "~" H 8300 2900 50  0001 C CNN
F 4 "Crystal, 32.768kHz, Cl=9pF, ±50 ppm" H 8300 2900 50  0001 C CNN "Description"
F 5 "ECS-.327-9-12R-TR" H 8300 2900 50  0001 C CNN "MPN"
	1    8300 2900
	0    -1   1    0   
$EndComp
Text Label 2150 7200 0    50   ~ 0
IO_25
Text Label 9800 3850 2    50   ~ 0
CS
Text Label 9800 3550 2    50   ~ 0
SCK
Text Label 9800 3650 2    50   ~ 0
MOSI
Text Label 9800 3750 2    50   ~ 0
MISO
Text Label 5250 3450 0    50   ~ 0
RESET
Text Label 4950 3550 0    50   ~ 0
SWDCLK
Text Label 4950 3650 0    50   ~ 0
SWDIO
Text Label 4950 3950 0    50   ~ 0
USB_D+
Text Label 4950 3850 0    50   ~ 0
USB_D-
Text Label 9800 3450 2    50   ~ 0
AREF
Text Label 9800 3350 2    50   ~ 0
AIO_23
Text Label 9800 3250 2    50   ~ 0
AIO_22
Text Label 9800 3150 2    50   ~ 0
AIO_21
Text Label 9800 2950 2    50   ~ 0
NFC1
Text Label 9800 3050 2    50   ~ 0
NFC2
Text Label 8100 5250 2    50   ~ 0
IO_4
Text Label 8100 5150 2    50   ~ 0
IO_16
Text Label 8100 4950 2    50   ~ 0
IO_17
Text Label 8100 4750 2    50   ~ 0
IO_18
Text Label 9800 4750 2    50   ~ 0
IO_25
$Comp
L Device:Antenna_Chip AE1
U 1 1 6024C466
P 7400 2650
F 0 "AE1" H 7250 2900 50  0000 C CNN
F 1 "2.45GHz" H 7250 2800 50  0000 C CNN
F 2 "rayStack:Antenna_Johanson_2450AT07A0100" H 7300 2825 50  0001 C CNN
F 3 "~" H 7300 2825 50  0001 C CNN
F 4 "Chip Antenna, 2.4GHz" H 7400 2650 50  0001 C CNN "Description"
F 5 "2450AT07A0100T" H 7400 2650 50  0001 C CNN "MPN"
	1    7400 2650
	1    0    0    -1  
$EndComp
$Comp
L Device:L L30
U 1 1 6024D5EB
P 6750 2750
F 0 "L30" V 6940 2750 50  0000 C CNN
F 1 "0Ω" V 6849 2750 50  0000 C CNN
F 2 "Inductor_SMD:L_0201_0603Metric" H 6750 2750 50  0001 C CNN
F 3 "~" H 6750 2750 50  0001 C CNN
F 4 "Resistor, RF, 0Ω Jumper" H 6750 2750 50  0001 C CNN "Description"
F 5 "CR0201-J/-000GLF" H 6750 2750 50  0001 C CNN "MPN"
	1    6750 2750
	0    -1   -1   0   
$EndComp
$Comp
L Device:C C30
U 1 1 6024E803
P 7000 2900
F 0 "C30" H 7115 2946 50  0000 L CNN
F 1 "N.C." H 7115 2855 50  0000 L CNN
F 2 "Capacitor_SMD:C_0201_0603Metric" H 7038 2750 50  0001 C CNN
F 3 "~" H 7000 2900 50  0001 C CNN
F 4 "Not Mounted" H 7000 2900 50  0001 C CNN "Description"
F 5 "~" H 7000 2900 50  0001 C CNN "MPN"
	1    7000 2900
	1    0    0    -1  
$EndComp
Wire Wire Line
	7300 2750 7000 2750
Connection ~ 7000 2750
Wire Wire Line
	7000 2750 6900 2750
Wire Wire Line
	6000 2750 6500 2750
$Comp
L power:GND #PWR0145
U 1 1 6025AC9C
P 7000 3050
F 0 "#PWR0145" H 7000 2800 50  0001 C CNN
F 1 "GND" H 7005 2877 50  0000 C CNN
F 2 "" H 7000 3050 50  0001 C CNN
F 3 "" H 7000 3050 50  0001 C CNN
	1    7000 3050
	1    0    0    -1  
$EndComp
$Comp
L power:GND #PWR0146
U 1 1 6025B112
P 7500 3050
F 0 "#PWR0146" H 7500 2800 50  0001 C CNN
F 1 "GND" H 7505 2877 50  0000 C CNN
F 2 "" H 7500 3050 50  0001 C CNN
F 3 "" H 7500 3050 50  0001 C CNN
	1    7500 3050
	1    0    0    -1  
$EndComp
Wire Wire Line
	7500 3050 7500 2750
$Comp
L power:VBUS #PWR0147
U 1 1 602708A7
P 6400 7100
F 0 "#PWR0147" H 6400 6950 50  0001 C CNN
F 1 "VBUS" V 6415 7228 50  0000 L CNN
F 2 "" H 6400 7100 50  0001 C CNN
F 3 "" H 6400 7100 50  0001 C CNN
	1    6400 7100
	0    1    1    0   
$EndComp
$Comp
L power:PWR_FLAG #FLG0101
U 1 1 60271638
P 6400 7100
F 0 "#FLG0101" H 6400 7175 50  0001 C CNN
F 1 "PWR_FLAG" V 6400 7227 50  0000 L CNN
F 2 "" H 6400 7100 50  0001 C CNN
F 3 "~" H 6400 7100 50  0001 C CNN
	1    6400 7100
	0    -1   -1   0   
$EndComp
NoConn ~ 9800 5550
NoConn ~ 9800 5850
NoConn ~ 9800 5750
$Comp
L power:PWR_FLAG #FLG0102
U 1 1 602D1BC8
P 1750 4450
F 0 "#FLG0102" H 1750 4525 50  0001 C CNN
F 1 "PWR_FLAG" H 1750 4623 50  0000 C CNN
F 2 "" H 1750 4450 50  0001 C CNN
F 3 "~" H 1750 4450 50  0001 C CNN
	1    1750 4450
	1    0    0    -1  
$EndComp
Connection ~ 1750 4450
Wire Wire Line
	1750 4450 1500 4450
$Comp
L power:GND #PWR0148
U 1 1 602D2F05
P 6400 6950
F 0 "#PWR0148" H 6400 6700 50  0001 C CNN
F 1 "GND" V 6405 6822 50  0000 R CNN
F 2 "" H 6400 6950 50  0001 C CNN
F 3 "" H 6400 6950 50  0001 C CNN
	1    6400 6950
	0    1    1    0   
$EndComp
$Comp
L power:PWR_FLAG #FLG0103
U 1 1 602D377A
P 6400 6950
F 0 "#FLG0103" H 6400 7025 50  0001 C CNN
F 1 "PWR_FLAG" V 6400 7078 50  0000 L CNN
F 2 "" H 6400 6950 50  0001 C CNN
F 3 "~" H 6400 6950 50  0001 C CNN
	1    6400 6950
	0    1    1    0   
$EndComp
$Comp
L power:PWR_FLAG #FLG0104
U 1 1 602DE536
P 6400 7250
F 0 "#FLG0104" H 6400 7325 50  0001 C CNN
F 1 "PWR_FLAG" V 6400 7377 50  0000 L CNN
F 2 "" H 6400 7250 50  0001 C CNN
F 3 "~" H 6400 7250 50  0001 C CNN
	1    6400 7250
	0    -1   -1   0   
$EndComp
$Comp
L power:PWR_FLAG #FLG0105
U 1 1 602DE76D
P 6400 7400
F 0 "#FLG0105" H 6400 7475 50  0001 C CNN
F 1 "PWR_FLAG" V 6400 7527 50  0000 L CNN
F 2 "" H 6400 7400 50  0001 C CNN
F 3 "~" H 6400 7400 50  0001 C CNN
	1    6400 7400
	0    -1   -1   0   
$EndComp
$Comp
L power:PWR_FLAG #FLG0106
U 1 1 602DE9F9
P 6400 7550
F 0 "#FLG0106" H 6400 7625 50  0001 C CNN
F 1 "PWR_FLAG" V 6400 7677 50  0000 L CNN
F 2 "" H 6400 7550 50  0001 C CNN
F 3 "~" H 6400 7550 50  0001 C CNN
	1    6400 7550
	0    -1   -1   0   
$EndComp
$Comp
L power:+BATT #PWR0149
U 1 1 602E014D
P 6400 7250
F 0 "#PWR0149" H 6400 7100 50  0001 C CNN
F 1 "+BATT" V 6415 7378 50  0000 L CNN
F 2 "" H 6400 7250 50  0001 C CNN
F 3 "" H 6400 7250 50  0001 C CNN
	1    6400 7250
	0    1    1    0   
$EndComp
$Comp
L power:+2V8 #PWR0150
U 1 1 602E0F6A
P 6400 7400
F 0 "#PWR0150" H 6400 7250 50  0001 C CNN
F 1 "+2V8" V 6415 7528 50  0000 L CNN
F 2 "" H 6400 7400 50  0001 C CNN
F 3 "" H 6400 7400 50  0001 C CNN
	1    6400 7400
	0    1    1    0   
$EndComp
$Comp
L power:VAA #PWR0151
U 1 1 602E1AF3
P 6400 7550
F 0 "#PWR0151" H 6400 7400 50  0001 C CNN
F 1 "VAA" V 6415 7678 50  0000 L CNN
F 2 "" H 6400 7550 50  0001 C CNN
F 3 "" H 6400 7550 50  0001 C CNN
	1    6400 7550
	0    1    1    0   
$EndComp
Wire Notes Line
	10050 2300 10050 500 
$Comp
L power:GND #PWR0120
U 1 1 6010DB23
P 3000 2750
F 0 "#PWR0120" H 3000 2500 50  0001 C CNN
F 1 "GND" H 3005 2577 50  0000 C CNN
F 2 "" H 3000 2750 50  0001 C CNN
F 3 "" H 3000 2750 50  0001 C CNN
	1    3000 2750
	1    0    0    -1  
$EndComp
Wire Wire Line
	3550 2150 3000 2150
Connection ~ 3000 2450
$Comp
L Device:C C5
U 1 1 6010D477
P 3000 2600
F 0 "C5" H 3115 2646 50  0000 L CNN
F 1 "1uF" H 3115 2555 50  0000 L CNN
F 2 "Capacitor_SMD:C_0201_0603Metric" H 3038 2450 50  0001 C CNN
F 3 "~" H 3000 2600 50  0001 C CNN
F 4 "Capacitor, X5R, ±5%, 6.3V" H 3000 2600 50  0001 C CNN "Description"
F 5 "CL03A105KP3NSNC" H 3000 2600 50  0001 C CNN "MPN"
	1    3000 2600
	1    0    0    -1  
$EndComp
Wire Wire Line
	3550 2450 3000 2450
$Comp
L Device:L L2
U 1 1 60109EAF
P 3000 2300
F 0 "L2" H 2956 2254 50  0000 R CNN
F 1 "10uH" H 2956 2345 50  0000 R CNN
F 2 "Inductor_SMD:L_0603_1608Metric" H 3000 2300 50  0001 C CNN
F 3 "~" H 3000 2300 50  0001 C CNN
F 4 "Inductor, 80mA, ±10%" H 3000 2300 50  0001 C CNN "Description"
F 5 "L0603B100KDWFT" H 3000 2300 50  0001 C CNN "MPN"
	1    3000 2300
	-1   0    0    1   
$EndComp
$Comp
L power:GND #PWR0118
U 1 1 60105821
P 2000 1550
F 0 "#PWR0118" H 2000 1300 50  0001 C CNN
F 1 "GND" H 2005 1377 50  0000 C CNN
F 2 "" H 2000 1550 50  0001 C CNN
F 3 "" H 2000 1550 50  0001 C CNN
	1    2000 1550
	1    0    0    -1  
$EndComp
$Comp
L Device:C C2
U 1 1 601048D1
P 2000 1400
F 0 "C2" H 2115 1446 50  0000 L CNN
F 1 "1uF" H 2115 1355 50  0000 L CNN
F 2 "Capacitor_SMD:C_0201_0603Metric" H 2038 1250 50  0001 C CNN
F 3 "~" H 2000 1400 50  0001 C CNN
F 4 "Capacitor, X5R, ±5%, 6.3V" H 2000 1400 50  0001 C CNN "Description"
F 5 "CL03A105KP3NSNC" H 2000 1400 50  0001 C CNN "MPN"
	1    2000 1400
	1    0    0    -1  
$EndComp
Wire Wire Line
	3550 850  2000 850 
Connection ~ 2000 1150
Wire Wire Line
	2000 1250 2000 1150
Wire Wire Line
	3000 1150 2000 1150
$Comp
L Device:L L1
U 1 1 600FDA5D
P 2000 1000
F 0 "L1" H 1956 954 50  0000 R CNN
F 1 "10uH" H 1956 1045 50  0000 R CNN
F 2 "Inductor_SMD:L_0603_1608Metric" H 2000 1000 50  0001 C CNN
F 3 "~" H 2000 1000 50  0001 C CNN
F 4 "Inductor, 80mA, ±10%" H 2000 1000 50  0001 C CNN "Description"
F 5 "L0603B100KDWFT" H 2000 1000 50  0001 C CNN "MPN"
	1    2000 1000
	-1   0    0    1   
$EndComp
Wire Wire Line
	3000 3650 3000 3250
Connection ~ 3000 3250
Wire Wire Line
	3000 3250 1500 3250
Wire Wire Line
	3000 3250 3550 3250
NoConn ~ 3550 3550
$Comp
L power:+2V8 #PWR0126
U 1 1 60312A52
P 1000 750
F 0 "#PWR0126" H 1000 600 50  0001 C CNN
F 1 "+2V8" H 1015 923 50  0000 C CNN
F 2 "" H 1000 750 50  0001 C CNN
F 3 "" H 1000 750 50  0001 C CNN
	1    1000 750 
	1    0    0    -1  
$EndComp
Wire Wire Line
	1000 750  1500 750 
Text Notes 1950 3900 0    50   ~ 0
NOTE: increased to 4.7uF\nfor normal voltage mode
Text Label 9800 3950 2    50   ~ 0
DCX
$Comp
L rayStack:MX25R6435FBxxx0 U2
U 1 1 603BA032
P 6700 4550
F 0 "U2" H 6300 5000 50  0000 L CNN
F 1 "MX25R6435F" H 6300 4900 50  0000 L CNN
F 2 "rayStack:Macronix_WLCSP-22" H 6700 3950 50  0001 C CNN
F 3 "https://www.macronix.com/Lists/Datasheet/Attachments/7913/MX25R6435F,%20Wide%20Range,%2064Mb,%20v1.5.pdf" H 6700 4550 50  0001 C CNN
F 4 "Memory Flash, 64-Mbit, 1.8-3.6V" H 6700 4550 50  0001 C CNN "Description"
F 5 "MX25R6435FBxxxx" H 6700 4550 50  0001 C CNN "MPN"
	1    6700 4550
	1    0    0    -1  
$EndComp
$Comp
L Device:C C40
U 1 1 603C8208
P 7450 4050
F 0 "C40" H 7336 4004 50  0000 R CNN
F 1 "100nF" H 7336 4095 50  0000 R CNN
F 2 "Capacitor_SMD:C_0201_0603Metric" H 7488 3900 50  0001 C CNN
F 3 "~" H 7450 4050 50  0001 C CNN
F 4 "Capacitor, X5R, ±10%" H 7450 4050 50  0001 C CNN "Description"
F 5 "GRM033R61A104KE15D" H 7450 4050 50  0001 C CNN "MPN"
	1    7450 4050
	1    0    0    1   
$EndComp
$Comp
L power:GND #PWR014
U 1 1 603C8DDE
P 6900 4950
F 0 "#PWR014" H 6900 4700 50  0001 C CNN
F 1 "GND" H 6905 4777 50  0000 C CNN
F 2 "" H 6900 4950 50  0001 C CNN
F 3 "" H 6900 4950 50  0001 C CNN
	1    6900 4950
	1    0    0    -1  
$EndComp
Wire Notes Line
	7750 6500 7750 2300
Wire Notes Line
	7750 2300 11200 2300
Wire Notes Line
	500  5350 7750 5350
Wire Notes Line
	5800 3500 7750 3500
Wire Notes Line
	5800 3500 5800 7750
Wire Wire Line
	9300 2850 9300 3050
Wire Wire Line
	9300 3050 8300 3050
$Comp
L power:VDD #PWR013
U 1 1 60407456
P 6900 3900
F 0 "#PWR013" H 6900 3750 50  0001 C CNN
F 1 "VDD" H 6915 4073 50  0000 C CNN
F 2 "" H 6900 3900 50  0001 C CNN
F 3 "" H 6900 3900 50  0001 C CNN
	1    6900 3900
	1    0    0    -1  
$EndComp
$Comp
L power:GND #PWR015
U 1 1 60407E37
P 7450 4200
F 0 "#PWR015" H 7450 3950 50  0001 C CNN
F 1 "GND" H 7455 4027 50  0000 C CNN
F 2 "" H 7450 4200 50  0001 C CNN
F 3 "" H 7450 4200 50  0001 C CNN
	1    7450 4200
	1    0    0    -1  
$EndComp
Text Label 7200 4550 0    50   ~ 0
MF_IO1
Text Label 6200 4350 2    50   ~ 0
MF_IO0
Wire Wire Line
	7450 3900 6900 3900
Wire Wire Line
	6900 3900 6900 4150
Connection ~ 6900 3900
Text Label 6200 4450 2    50   ~ 0
MF_CLK
Text Label 6200 4550 2    50   ~ 0
MF_CS
Text Label 6200 4650 2    50   ~ 0
MF_IO2
Text Label 6200 4750 2    50   ~ 0
MF_IO3
Text Label 9800 4050 2    50   ~ 0
MF_IO0
Text Label 9800 4150 2    50   ~ 0
MF_IO1
Text Label 9800 4250 2    50   ~ 0
MF_IO2
Text Label 9800 4350 2    50   ~ 0
MF_IO3
Text Label 9800 4450 2    50   ~ 0
MF_CLK
Text Label 9800 4550 2    50   ~ 0
MF_CS
Text Label 9800 5150 2    50   ~ 0
IO_5
Text Label 8100 5050 2    50   ~ 0
IO_6
Text Notes 5850 5300 0    50   Italic 10
Memory Flash (optional)
Text Notes 7850 6450 0    50   Italic 10
MCU I/O
Text Notes 550  5300 0    50   Italic 10
MCU
NoConn ~ 8100 5350
NoConn ~ 8100 5450
NoConn ~ 8100 5550
NoConn ~ 8100 5650
NoConn ~ 8100 5750
Text Label 8100 4650 2    50   ~ 0
SDA
Text Label 8100 4550 2    50   ~ 0
SCL
$Comp
L rayStack:nRF5340-QKAA U1
U 3 1 601F4FE9
P 8800 5100
F 0 "U1" H 8700 4000 50  0000 L CNN
F 1 "nRF5340-QKAA" H 8500 4100 50  0000 L CNN
F 2 "rayStack:Nordic_AQFN-94-1EP_7x7mm_P0.4mm" H 8850 6900 50  0001 C CNN
F 3 "https://infocenter.nordicsemi.com/pdf/nRF5340_PS_v1.0.pdf" H 8850 6900 50  0001 C CNN
F 4 "nRF5340 MCU" H 8800 5100 50  0001 C CNN "Description"
F 5 "nRF5340-QKAA-R" H 8800 5100 50  0001 C CNN "MPN"
	3    8800 5100
	1    0    0    -1  
$EndComp
$Comp
L power:GND #PWR0152
U 1 1 60156081
P 5300 2300
F 0 "#PWR0152" H 5300 2050 50  0001 C CNN
F 1 "GND" V 5305 2172 50  0000 R CNN
F 2 "" H 5300 2300 50  0001 C CNN
F 3 "" H 5300 2300 50  0001 C CNN
	1    5300 2300
	0    1    1    0   
$EndComp
$Comp
L power:GND #PWR0153
U 1 1 60156C7C
P 5700 2300
F 0 "#PWR0153" H 5700 2050 50  0001 C CNN
F 1 "GND" V 5705 2172 50  0000 R CNN
F 2 "" H 5700 2300 50  0001 C CNN
F 3 "" H 5700 2300 50  0001 C CNN
	1    5700 2300
	0    -1   -1   0   
$EndComp
Text Label 4950 2750 0    50   ~ 0
RF
Wire Wire Line
	9800 2850 9300 2850
Wire Wire Line
	8300 2750 9800 2750
Text Label 9800 5250 2    50   ~ 0
AIO_3
Text Label 9800 5450 2    50   ~ 0
AIO_2
Text Label 9800 5350 2    50   ~ 0
AIO_1
$Comp
L rayStack:nRF5340-QKAA U1
U 2 1 601C50C1
P 10500 4300
F 0 "U1" H 10400 2400 50  0000 L CNN
F 1 "nRF5340-QKAA" H 10200 2500 50  0000 L CNN
F 2 "rayStack:Nordic_AQFN-94-1EP_7x7mm_P0.4mm" H 10550 6100 50  0001 C CNN
F 3 "https://infocenter.nordicsemi.com/pdf/nRF5340_PS_v1.0.pdf" H 10550 6100 50  0001 C CNN
F 4 "nRF5340 MCU" H 10500 4300 50  0001 C CNN "Description"
F 5 "nRF5340-QKAA-R" H 10500 4300 50  0001 C CNN "MPN"
	2    10500 4300
	1    0    0    -1  
$EndComp
$Comp
L Connector:TestPoint_Alt TP1
U 1 1 60317719
P 5100 3350
F 0 "TP1" H 5158 3468 50  0000 L CNN
F 1 "RESET" H 5158 3377 50  0000 L CNN
F 2 "TestPoint:TestPoint_Pad_1.0x1.0mm" H 5300 3350 50  0001 C CNN
F 3 "~" H 5300 3350 50  0001 C CNN
F 4 "MCU reset pad" H 5100 3350 50  0001 C CNN "Description"
F 5 "~" H 5100 3350 50  0001 C CNN "MPN"
	1    5100 3350
	1    0    0    -1  
$EndComp
Wire Wire Line
	5250 3450 5100 3450
Wire Wire Line
	5100 3350 5100 3450
Connection ~ 5100 3450
Wire Wire Line
	5100 3450 4950 3450
$Comp
L Device:LED_ARBG D1
U 1 1 60322D53
P 10550 1050
F 0 "D1" V 10596 720 50  0000 R CNN
F 1 "Stat_LED" V 10505 720 50  0000 R CNN
F 2 "rayStack:LED_RGB_0404" H 10550 1000 50  0001 C CNN
F 3 "https://katalog.we-online.com/led/datasheet/150044M155260.pdf" H 10550 1000 50  0001 C CNN
F 4 "LED, RGB, 1 mA" H 10550 1050 50  0001 C CNN "Description"
F 5 "150044M155260" H 10550 1050 50  0001 C CNN "MPN"
	1    10550 1050
	0    -1   -1   0   
$EndComp
$Comp
L power:VDD #PWR0154
U 1 1 6032C545
P 10550 850
F 0 "#PWR0154" H 10550 700 50  0001 C CNN
F 1 "VDD" H 10565 1023 50  0000 C CNN
F 2 "" H 10550 850 50  0001 C CNN
F 3 "" H 10550 850 50  0001 C CNN
	1    10550 850 
	1    0    0    -1  
$EndComp
Wire Wire Line
	10200 1350 10200 1300
Wire Wire Line
	10200 1300 10350 1300
Wire Wire Line
	10350 1300 10350 1250
Wire Wire Line
	10550 1250 10550 1350
Wire Wire Line
	10750 1250 10750 1300
Wire Wire Line
	10750 1300 10900 1300
Wire Wire Line
	10900 1300 10900 1350
Text Label 10200 1650 3    50   ~ 0
LED_R
Text Label 10550 1650 3    50   ~ 0
LED_G
Text Label 10900 1650 3    50   ~ 0
LED_B
Text Notes 10150 2200 0    50   Italic 10
Status LED
$Comp
L Device:R_US R4
U 1 1 6033C5EE
P 10900 1500
F 0 "R4" H 10832 1454 50  0000 R CNN
F 1 "3.6k" H 10832 1545 50  0000 R CNN
F 2 "Resistor_SMD:R_0201_0603Metric" V 10940 1490 50  0001 C CNN
F 3 "~" H 10900 1500 50  0001 C CNN
F 4 "Resistor, ±1%, 0.05W" H 10900 1500 50  0001 C CNN "Description"
F 5 "ERJ-1GNF3601C" H 10900 1500 50  0001 C CNN "MPN"
	1    10900 1500
	-1   0    0    1   
$EndComp
$Comp
L Device:R_US R3
U 1 1 6033BCDB
P 10550 1500
F 0 "R3" H 10482 1454 50  0000 R CNN
F 1 "4.3k" H 10482 1545 50  0000 R CNN
F 2 "Resistor_SMD:R_0201_0603Metric" V 10590 1490 50  0001 C CNN
F 3 "~" H 10550 1500 50  0001 C CNN
F 4 "Resistor, ±1%, 0.05W" H 10550 1500 50  0001 C CNN "Description"
F 5 "ERJ-1GNF4301C" H 10550 1500 50  0001 C CNN "MPN"
	1    10550 1500
	-1   0    0    1   
$EndComp
$Comp
L Device:R_US R2
U 1 1 60339C07
P 10200 1500
F 0 "R2" H 10132 1454 50  0000 R CNN
F 1 "1.5k" H 10132 1545 50  0000 R CNN
F 2 "Resistor_SMD:R_0201_0603Metric" V 10240 1490 50  0001 C CNN
F 3 "~" H 10200 1500 50  0001 C CNN
F 4 "Resistor, ±1%, 0.05W" H 10200 1500 50  0001 C CNN "Description"
F 5 "ERJ-1GNF1501C" H 10200 1500 50  0001 C CNN "MPN"
	1    10200 1500
	-1   0    0    1   
$EndComp
Text Label 8100 4450 2    50   ~ 0
LED_R
Text Label 8100 5850 2    50   ~ 0
LED_G
Text Label 8100 4350 2    50   ~ 0
LED_B
Connection ~ 6500 2750
Wire Wire Line
	6500 2750 6600 2750
$Comp
L power:GND #PWR0155
U 1 1 606B3DFE
P 6500 3050
F 0 "#PWR0155" H 6500 2800 50  0001 C CNN
F 1 "GND" H 6505 2877 50  0000 C CNN
F 2 "" H 6500 3050 50  0001 C CNN
F 3 "" H 6500 3050 50  0001 C CNN
	1    6500 3050
	1    0    0    -1  
$EndComp
NoConn ~ 9800 4650
NoConn ~ 9800 4850
$Comp
L Mechanical:Fiducial FID1
U 1 1 6045528B
P 6000 6700
F 0 "FID1" H 6085 6746 50  0000 L CNN
F 1 "Fiducial" H 6085 6655 50  0000 L CNN
F 2 "Fiducial:Fiducial_0.5mm_Mask1mm" H 6000 6700 50  0001 C CNN
F 3 "~" H 6000 6700 50  0001 C CNN
F 4 "Fiducial" H 6000 6700 50  0001 C CNN "Description"
F 5 "~" H 6000 6700 50  0001 C CNN "MPN"
	1    6000 6700
	1    0    0    -1  
$EndComp
NoConn ~ 9800 5650
NoConn ~ 9800 4950
NoConn ~ 9800 5050
NoConn ~ 8100 4850
$Comp
L Device:C C31
U 1 1 606AB6EB
P 6500 2900
F 0 "C31" H 6615 2946 50  0000 L CNN
F 1 "N.C." H 6615 2855 50  0000 L CNN
F 2 "Capacitor_SMD:C_0201_0603Metric" H 6538 2750 50  0001 C CNN
F 3 "~" H 6500 2900 50  0001 C CNN
F 4 "Not Mounted" H 6500 2900 50  0001 C CNN "Description"
F 5 "~" H 6500 2900 50  0001 C CNN "MPN"
	1    6500 2900
	1    0    0    -1  
$EndComp
$Comp
L Mechanical:Fiducial FID2
U 1 1 609AFFC3
P 6550 6700
F 0 "FID2" H 6635 6746 50  0000 L CNN
F 1 "Fiducial" H 6635 6655 50  0000 L CNN
F 2 "Fiducial:Fiducial_0.5mm_Mask1mm" H 6550 6700 50  0001 C CNN
F 3 "~" H 6550 6700 50  0001 C CNN
F 4 "Fiducial" H 6550 6700 50  0001 C CNN "Description"
F 5 "~" H 6550 6700 50  0001 C CNN "MPN"
	1    6550 6700
	1    0    0    -1  
$EndComp
$EndSCHEMATC
